﻿[
  {
    "appid": "365960",
    "itemdefid": "1",
    "Timestamp": "2017-10-16T23:56:43.6611396Z",
    "modified": "20171016T235644Z",
    "date_created": "20171016T235644Z",
    "type": "item",
    "display_type": "",
    "name": "McLaren 650S GT3",
    "price": "1;EUR499",
    "quantity": 0,
    "description": "The McLaren 650S GT3 is a GT3-class car with a 495 horsepower 3.8 litre twin turbo V8 engine.",
    "background_color": "fbfbfb",
    "icon_url": "https://steamuserimages-a.akamaihd.net/ugc/857232847723603694/A4B29926FDBC2792BAEB439E9F89BDC2EEE8597D/?interpolation=lanczos-none&output-format=jpeg&output-quality=95&fit=inside|637:358&composite-to%3D%2A%2C%2A%7C637%3A358&background-color=black",
    "icon_url_large": "https://steamuserimages-a.akamaihd.net/ugc/857232847723603694/A4B29926FDBC2792BAEB439E9F89BDC2EEE8597D/",
    "name_color": "00c3ef",
    "store_tags": "cars",
    "tradable": false,
    "marketable": false,
    "commodity": false,
    "workshopid": 1097229192,
    "hash": "CE6D0F6146583CBA88BC4D498F7416CF8098AFC5",
    "key": "lO6tdvEzFPmGXEEl"
  },
  {
    "appid": "365960",
    "itemdefid": "2",
    "Timestamp": "2017-10-16T23:53:36.2156007Z",
    "modified": "20171016T235336Z",
    "date_created": "20171016T235336Z",
    "type": "item",
    "display_type": "",
    "name": "Bentley Continental GT3",
    "price": "1;EUR499",
    "quantity": 0,
    "description": "The Bentley Continental GT3 is a large-bodied lightweight GT3-class car with a 600 horsepower 4.0 litre twin turbo engine.",
    "background_color": "fbfbfb",
    "icon_url": "https://steamuserimages-a.akamaihd.net/ugc/857232847723549791/AA1D9A5734C38A6D118EB3DAABBBD1E323443232/?interpolation=lanczos-none&output-format=jpeg&output-quality=95&fit=inside|637:358&composite-to%3D%2A%2C%2A%7C637%3A358&background-color=black",
    "icon_url_large": "https://steamuserimages-a.akamaihd.net/ugc/857232847723549791/AA1D9A5734C38A6D118EB3DAABBBD1E323443232/",
    "name_color": "00c3ef",
    "store_tags": "cars",
    "tradable": false,
    "marketable": false,
    "commodity": false,
    "workshopid": 1097230662,
    "hash": "F858B8E46222A6B492574E6FFAD5C191D3836564",
    "key": "YJov0JPbOFDhYwvW"
  },
  {
    "appid": "365960",
    "itemdefid": "3",
    "Timestamp": "2017-10-16T23:53:40.529912Z",
    "modified": "20171016T235341Z",
    "date_created": "20171016T235341Z",
    "type": "item",
    "display_type": "",
    "name": "Callaway Corvette C7 GT3-R",
    "price": "1;EUR499",
    "quantity": 0,
    "description": "The Callaway Corvette C7 GT3-R is a GT3-class car with a 600 horsepower 6.1 litre V8 engine.",
    "background_color": "fbfbfb",
    "icon_url": "https://steamuserimages-a.akamaihd.net/ugc/857232847723552349/A02862C18B56C2649D8A8D4A1749B92CBFB4DF7F/?interpolation=lanczos-none&output-format=jpeg&output-quality=95&fit=inside|637:358&composite-to%3D%2A%2C%2A%7C637%3A358&background-color=black",
    "icon_url_large": "https://steamuserimages-a.akamaihd.net/ugc/857232847723552349/A02862C18B56C2649D8A8D4A1749B92CBFB4DF7F/",
    "name_color": "00c3ef",
    "store_tags": "cars",
    "tradable": false,
    "marketable": false,
    "commodity": false,
    "workshopid": 1097232188,
    "hash": "8DED3E3B881085AD2E4A2CC61882667AC1F0AFF2",
    "key": "nDX10iAfYYLBGUT8"
  },
  {
    "appid": "365960",
    "itemdefid": "4",
    "Timestamp": "2017-10-16T23:53:44.2837932Z",
    "modified": "20171016T235344Z",
    "date_created": "20171016T235344Z",
    "type": "item",
    "display_type": "",
    "name": "Mercedes AMG GT3",
    "price": "1;EUR499",
    "quantity": 0,
    "description": "The Mercedes AMG GT3 is a GT3-class car with a 550 horsepower 6.3 litre naturally aspirated V8 engine.",
    "background_color": "fbfbfb",
    "icon_url": "https://steamuserimages-a.akamaihd.net/ugc/857232847723554662/38892A27328D8E0BBAD6D40C73B41D665E3AE319/?interpolation=lanczos-none&output-format=jpeg&output-quality=95&fit=inside|637:358&composite-to%3D%2A%2C%2A%7C637%3A358&background-color=black",
    "icon_url_large": "https://steamuserimages-a.akamaihd.net/ugc/857232847723554662/38892A27328D8E0BBAD6D40C73B41D665E3AE319/",
    "name_color": "00c3ef",
    "store_tags": "cars",
    "tradable": false,
    "marketable": false,
    "commodity": false,
    "workshopid": 1097232656,
    "hash": "16B3E740ABF652B6BC2608E4792AB18C2F686869",
    "key": "nqN8EUDMyLpF98Nq"
  },
  {
    "appid": "365960",
    "itemdefid": "5",
    "Timestamp": "2018-05-28T08:03:06Z",
    "modified": "20180528T080306Z",
    "date_created": "20180528T080306Z",
    "type": "item",
    "display_type": "",
    "name": "Radical RXC Turbo GT3",
    "price": "1;EUR499",
    "quantity": 0,
    "description": "The Radical RXC Turbo GT3 is a stiff and light open-cockpit GT3-class car with a 500 horsepower Ford Ecoboost V6 3.5 litre twin turbo engine.",
    "background_color": "fbfbfb",
    "icon_url": "https://steamuserimages-a.akamaihd.net/ugc/857232847723555674/1EF43257D5643E45BFA3050EDBE40423F42B72C8/?interpolation=lanczos-none&output-format=jpeg&output-quality=95&fit=inside|637:358&composite-to%3D%2A%2C%2A%7C637%3A358&background-color=black",
    "icon_url_large": "https://steamuserimages-a.akamaihd.net/ugc/857232847723555674/1EF43257D5643E45BFA3050EDBE40423F42B72C8/",
    "name_color": "00c3ef",
    "store_tags": "cars",
    "tradable": false,
    "marketable": false,
    "commodity": false,
    "workshopid": 1097232726,
    "key": "2hNojOlNttaJCu4p"
  },
  {
    "appid": "365960",
    "itemdefid": "6",
    "Timestamp": "2017-11-30T16:57:16Z",
    "modified": "20171130T165716Z",
    "date_created": "20171130T165716Z",
    "type": "item",
    "display_type": "",
    "name": "Formula E 2018 Car",
    "price": "1;EUR499",
    "quantity": 0,
    "description": "Experience the Official 2018 Formula E car, using regen and power modes and featuring the 2018 Formula E team liveries.",
    "background_color": "fbfbfb",
    "icon_url": "https://steamuserimages-a.akamaihd.net/ugc/862866169562791195/45186ECDE071FF66740708A306870604C4F3C584/?interpolation=lanczos-none&output-format=jpeg&output-quality=95&fit=inside%7C358%3A358&composite-to=*,*%7C358%3A358&background-color=black",
    "icon_url_large": "https://steamuserimages-a.akamaihd.net/ugc/862866169562791195/45186ECDE071FF66740708A306870604C4F3C584/",
    "name_color": "00c3ef",
    "store_tags": "cars",
    "tradable": false,
    "marketable": false,
    "commodity": false,
    "workshopid": 1214555461,
    "key": "a6s6yVJAWHyR7bz3"
  },
  {
    "appid": "365960",
    "itemdefid": "7",
    "Timestamp": "2017-11-30T16:57:12Z",
    "modified": "20171130T165712Z",
    "date_created": "20171130T165712Z",
    "type": "item",
    "display_type": "",
    "name": "Hong Kong E-Prix Track",
    "price": "1;EUR799",
    "quantity": 0,
    "description": "Welcome to the Official 2017 HKT Hong Kong E-Prix track. Based around the Central Harbourfront, the tight and twisty 1.86km track provides a huge challenge against the backdrop of Hong Kong's iconic sights.",
    "background_color": "fbfbfb",
    "icon_url": "https://steamuserimages-a.akamaihd.net/ugc/862866169562812889/9715BD3896B01F2A2D731DF0755CED062A58BBF7/?interpolation=lanczos-none&output-format=jpeg&output-quality=95&fit=inside%7C358%3A358&composite-to=*,*%7C358%3A358&background-color=black",
    "icon_url_large": "https://steamuserimages-a.akamaihd.net/ugc/862866169562812889/9715BD3896B01F2A2D731DF0755CED062A58BBF7/",
    "name_color": "00c3ef",
    "store_tags": "tracks",
    "tradable": false,
    "marketable": false,
    "commodity": false,
    "workshopid": 1214556324,
    "key": "F2ZICnHvURBwDocn"
  },
  {
    "appid": "365960",
    "itemdefid": "8",
    "Timestamp": "2018-03-29T11:30:42Z",
    "modified": "20180329T113042Z",
    "date_created": "20180329T113042Z",
    "type": "item",
    "display_type": "",
    "name": "KartSim Rental Kart",
    "price": "1;EUR399",
    "quantity": 0,
    "description": "The Rental Kart from KartSim.",
    "background_color": "fbfbfb",
    "icon_url": "https://steamuserimages-a.akamaihd.net/ugc/914668728135605764/855CB010CB7E8E0766A39284DA23F1F9B8154E21/?interpolation=lanczos-none&output-format=jpeg&output-quality=95&fit=inside%7C358%3A358&composite-to=*,*%7C358%3A358&background-color=black",
    "icon_url_large": "https://steamuserimages-a.akamaihd.net/ugc/914668728135605764/855CB010CB7E8E0766A39284DA23F1F9B8154E21/",
    "name_color": "00c3ef",
    "store_tags": "cars",
    "tradable": false,
    "marketable": false,
    "commodity": false,
    "store_hidden": true,
    "workshopid": 1344542862,
    "key": "mR5DyOTTjralcG1q"
  },
  {
    "appid": "365960",
    "itemdefid": "9",
    "Timestamp": "2018-03-29T11:30:58Z",
    "modified": "20180329T113058Z",
    "date_created": "20180329T113058Z",
    "type": "item",
    "display_type": "",
    "name": "KartSim X30 Kart",
    "price": "1;EUR399",
    "quantity": 0,
    "description": "The Iame Senior X30 Kart from KartSim.",
    "background_color": "fbfbfb",
    "icon_url": "https://steamuserimages-a.akamaihd.net/ugc/914668728135608786/D2E4C9F10996F720BDD86DD15FCCDB44AD3F067B/?interpolation=lanczos-none&output-format=jpeg&output-quality=95&fit=inside%7C358%3A358&composite-to=*,*%7C358%3A358&background-color=black",
    "icon_url_large": "https://steamuserimages-a.akamaihd.net/ugc/914668728135608786/D2E4C9F10996F720BDD86DD15FCCDB44AD3F067B/",
    "name_color": "00c3ef",
    "store_tags": "cars",
    "tradable": false,
    "marketable": false,
    "commodity": false,
    "store_hidden": true,
    "workshopid": 1344546612,
    "key": "ggGLDrLRQiefSCDB"
  },
  {
    "appid": "365960",
    "itemdefid": "10",
    "Timestamp": "2018-03-29T11:31:11Z",
    "modified": "20180329T113111Z",
    "date_created": "20180329T113111Z",
    "type": "item",
    "display_type": "",
    "name": "KartSim Buckmore Park International Circuit",
    "price": "1;EUR699",
    "quantity": 0,
    "description": "The Buckmore Park International Circuit from KartSim.",
    "background_color": "fbfbfb",
    "icon_url": "https://steamuserimages-a.akamaihd.net/ugc/914668728135611660/C8F3F5C4316C0A2016963F67CC8C1DBC510434C7/?interpolation=lanczos-none&output-format=jpeg&output-quality=95&fit=inside%7C358%3A358&composite-to=*,*%7C358%3A358&background-color=black",
    "icon_url_large": "https://steamuserimages-a.akamaihd.net/ugc/914668728135611660/C8F3F5C4316C0A2016963F67CC8C1DBC510434C7/",
    "name_color": "00c3ef",
    "store_tags": "tracks",
    "tradable": false,
    "marketable": false,
    "commodity": false,
    "store_hidden": true,
    "workshopid": 1344546674,
    "key": "WGOGMubQBHd3cTDP"
  },
  {
    "appid": "365960",
    "itemdefid": "11",
    "Timestamp": "2018-03-29T11:31:26Z",
    "modified": "20180329T113126Z",
    "date_created": "20180329T113126Z",
    "type": "item",
    "display_type": "",
    "name": "KartSim Paul Fletcher International",
    "price": "1;EUR699",
    "quantity": 0,
    "description": "The Paul Fletcher International track from KartSim.",
    "background_color": "fbfbfb",
    "icon_url": "https://steamuserimages-a.akamaihd.net/ugc/914668728135613103/7010BB2883C8CC7D652CE7A7F581B3FE4FB7CADF/?interpolation=lanczos-none&output-format=jpeg&output-quality=95&fit=inside%7C358%3A358&composite-to=*,*%7C358%3A358&background-color=black",
    "icon_url_large": "https://steamuserimages-a.akamaihd.net/ugc/914668728135613103/7010BB2883C8CC7D652CE7A7F581B3FE4FB7CADF/",
    "name_color": "00c3ef",
    "store_tags": "tracks",
    "tradable": false,
    "marketable": false,
    "commodity": false,
    "store_hidden": true,
    "workshopid": 1344546766,
    "key": "c2jxY9bnzEJY2aqo"
  },
  {
    "appid": "365960",
    "itemdefid": "12",
    "Timestamp": "2018-03-29T11:31:40Z",
    "modified": "20180329T113140Z",
    "date_created": "20180329T113140Z",
    "type": "item",
    "display_type": "",
    "name": "KartSim Glan Y Gors",
    "price": "1;EUR699",
    "quantity": 0,
    "description": "The Glan Y Gors track from KartSim.",
    "background_color": "fbfbfb",
    "icon_url": "https://steamuserimages-a.akamaihd.net/ugc/914668728135614390/BD25CD76C7EC03804FD2F6A98FBD902EE4C673D8/?interpolation=lanczos-none&output-format=jpeg&output-quality=95&fit=inside%7C358%3A358&composite-to=*,*%7C358%3A358&background-color=black",
    "icon_url_large": "https://steamuserimages-a.akamaihd.net/ugc/914668728135614390/BD25CD76C7EC03804FD2F6A98FBD902EE4C673D8/",
    "name_color": "00c3ef",
    "store_tags": "tracks",
    "tradable": false,
    "marketable": false,
    "commodity": false,
    "store_hidden": true,
    "workshopid": 1344546801,
    "key": "ph9LDImrHDb1KxU9"
  },
  {
    "appid": "365960",
    "itemdefid": "13",
    "Timestamp": "2018-06-15T10:30:46Z",
    "modified": "20180615T103046Z",
    "date_created": "20180615T103046Z",
    "type": "item",
    "display_type": "",
    "name": "Corvette C7.R",
    "price": "1;EUR499",
    "quantity": 0,
    "description": "The Chevrolet Corvette C7.R built by Pratt & Miller and Chevrolet for competition in endurance racing has had numerous successes throughout the years including a famous photo-finish at the 2106 Rolex 24h of Daytona.",
    "background_color": "fbfbfb",
    "icon_url": "https://steamuserimages-a.akamaihd.net/ugc/912423900261975379/6ACBA3525C5AF2832883A8DBE61A23EB3BE521B2/?interpolation=lanczos-none&output-format=jpeg&output-quality=95&fit=inside%7C358%3A358&composite-to=*,*%7C358%3A358&background-color=black",
    "icon_url_large": "https://steamuserimages-a.akamaihd.net/ugc/912423900261975379/6ACBA3525C5AF2832883A8DBE61A23EB3BE521B2/",
    "name_color": "00c3ef",
    "store_tags": "cars",
    "tradable": false,
    "marketable": false,
    "commodity": false,
    "workshopid": 1411387394,
    "key": "2frgujwdtUjP5t3v"
  },
  {
    "appid": "365960",
    "itemdefid": "14",
    "Timestamp": "2018-06-15T10:30:52Z",
    "modified": "20180615T103052Z",
    "date_created": "20180615T103052Z",
    "type": "item",
    "display_type": "",
    "name": "Porsche 911 RSR",
    "price": "1;EUR499",
    "quantity": 0,
    "description": "Another iconic car from Porsche, the 911 RSR combines technology and history to create another classic sports car. The car is used in endurance in the GTE class all over the world.",
    "background_color": "fbfbfb",
    "icon_url": "https://steamuserimages-a.akamaihd.net/ugc/912423900262029478/9B7246181AB3601603D3643648752450C48D18AF/?interpolation=lanczos-none&output-format=jpeg&output-quality=95&fit=inside%7C358%3A358&composite-to=*,*%7C358%3A358&background-color=black",
    "icon_url_large": "https://steamuserimages-a.akamaihd.net/ugc/912423900262029478/9B7246181AB3601603D3643648752450C48D18AF/",
    "name_color": "00c3ef",
    "store_tags": "cars",
    "tradable": false,
    "marketable": false,
    "commodity": false,
    "workshopid": 1411394979,
    "key": "ZIoDNOETFjsLCXvh"
  },
  {
    "appid": "365960",
    "itemdefid": "15",
    "Timestamp": "2018-06-15T10:30:56Z",
    "modified": "20180615T103056Z",
    "date_created": "20180615T103056Z",
    "type": "item",
    "display_type": "",
    "name": "BMW M8 GTE",
    "price": "1;EUR499",
    "quantity": 0,
    "description": "The BMW M8 GTE competes in multiple endurance series, combining cutting-edge technology with sheer beauty to create a car that will set new benchmarks in endurance racing.",
    "background_color": "fbfbfb",
    "icon_url": "https://steamuserimages-a.akamaihd.net/ugc/912423900262065899/66738FF78C317972A7DE13BA93AD1537224E452E/?interpolation=lanczos-none&output-format=jpeg&output-quality=95&fit=inside%7C358%3A358&composite-to=*,*%7C358%3A358&background-color=black",
    "icon_url_large": "https://steamuserimages-a.akamaihd.net/ugc/912423900262065899/66738FF78C317972A7DE13BA93AD1537224E452E/",
    "name_color": "00c3ef",
    "store_tags": "cars",
    "tradable": false,
    "marketable": false,
    "commodity": false,
    "workshopid": 1411402133,
    "key": "VfYPYStDgigV3A6z"
  },
  {
    "appid": "365960",
    "itemdefid": "16",
    "Timestamp": "2018-06-15T10:31:00Z",
    "modified": "20180615T103100Z",
    "date_created": "20180615T103100Z",
    "type": "item",
    "display_type": "",
    "name": "Norma M30 LMP3",
    "price": "1;EUR499",
    "quantity": 0,
    "description": "The Norma M30 LMP3, developed over 18 months with innovation at the heart. Homologated to LMP3, the M30 boasts maximum efficiency, optimising performance.",
    "background_color": "fbfbfb",
    "icon_url": "https://steamuserimages-a.akamaihd.net/ugc/912423900262079928/21401DA6BACEFD7835C2E368CC2946278329934D/?interpolation=lanczos-none&output-format=jpeg&output-quality=95&fit=inside%7C358%3A358&composite-to=*,*%7C358%3A358&background-color=black",
    "icon_url_large": "https://steamuserimages-a.akamaihd.net/ugc/912423900262079928/21401DA6BACEFD7835C2E368CC2946278329934D/",
    "name_color": "00c3ef",
    "store_tags": "cars",
    "tradable": false,
    "marketable": false,
    "commodity": false,
    "workshopid": 1411402158,
    "key": "VeciIof6HLdOTgSM"
  },
  {
    "appid": "365960",
    "itemdefid": "17",
    "Timestamp": "2018-06-15T10:31:03Z",
    "modified": "20180615T103103Z",
    "date_created": "20180615T103103Z",
    "type": "item",
    "display_type": "",
    "name": "Oreca 07 LMP2",
    "price": "1;EUR499",
    "quantity": 0,
    "description": "The Oreca 07 LMP2, combining daring engineering and skilfull know-how. Winner of WEC 2017 P2 class and Le Mans 2017 and used by several of the leading endurance teams in the world.",
    "background_color": "fbfbfb",
    "icon_url": "https://steamuserimages-a.akamaihd.net/ugc/912423900262090179/28CC74806297C0DFC4EDA19C22F1D71CFA02FA75/?interpolation=lanczos-none&output-format=jpeg&output-quality=95&fit=inside%7C358%3A358&composite-to=*,*%7C358%3A358&background-color=black",
    "icon_url_large": "https://steamuserimages-a.akamaihd.net/ugc/912423900262090179/28CC74806297C0DFC4EDA19C22F1D71CFA02FA75/",
    "name_color": "00c3ef",
    "store_tags": "cars",
    "tradable": false,
    "marketable": false,
    "commodity": false,
    "workshopid": 1411402194,
    "key": "A734asVmeQeXqI6i"
  },
  {
    "appid": "365960",
    "itemdefid": "18",
    "Timestamp": "2020-01-23T08:24:18Z",
    "modified": "20200123T082418Z",
    "date_created": "20200123T082418Z",
    "type": "item",
    "display_type": "",
    "name": "Sebring International Raceway",
    "price": "1;EUR899",
    "quantity": 0,
    "description": "",
    "background_color": "fbfbfb",
    "icon_url": "https://steamuserimages-a.akamaihd.net/ugc/767235996524043412/262663F1DAA67E9D80C1297D0293C7D1966643CF/?interpolation=lanczos-none&output-format=jpeg&output-quality=95&fit=inside%7C358%3A358&composite-to=*,*%7C358%3A358&background-color=black",
    "icon_url_large": "https://steamuserimages-a.akamaihd.net/ugc/767235996524043412/262663F1DAA67E9D80C1297D0293C7D1966643CF/",
    "name_color": "00c3ef",
    "store_tags": "tracks",
    "tradable": false,
    "marketable": false,
    "commodity": false,
    "workshopid": 1453463528,
    "key": "OJiFnmwKzxK59Quk"
  },
  {
    "appid": "365960",
    "itemdefid": "19",
    "Timestamp": "2019-11-30T18:33:35Z",
    "modified": "20191130T183335Z",
    "date_created": "20191130T183335Z",
    "type": "item",
    "display_type": "",
    "name": "Formula E Gen2 2019/2020 Car",
    "price": "1;EUR499",
    "quantity": 0,
    "description": "The outstanding Formula E Gen2 car has been upgraded to include the 2020 liveries alongside those of 2019! A complete redesign to the Gen1 cars, the Gen2 car features more power and longevity, boasting double the energy storage capacity of the Gen1 car, meaning it can complete a whole race without having to change car mid-race. With 250 kW of power, the Gen2 will accelerate from 0-100 km/h in 2.8 seconds and go on to a top speed of 280 km/h.",
    "background_color": "fbfbfb",
    "icon_url": "https://steamuserimages-a.akamaihd.net/ugc/771734716157626689/F6D2098550980376CD02E34837A1214101E113C8/?interpolation=lanczos-none&output-format=jpeg&output-quality=95&fit=inside%7C358%3A358&composite-to=*,*%7C358%3A358&background-color=black",
    "icon_url_large": "https://steamuserimages-a.akamaihd.net/ugc/771734716157626689/F6D2098550980376CD02E34837A1214101E113C8/",
    "name_color": "00c3ef",
    "store_tags": "cars",
    "tradable": false,
    "marketable": false,
    "commodity": false,
    "workshopid": 1558324776,
    "key": "KBc2a3SzaiTgnLsZ"
  },
  {
    "appid": "365960",
    "itemdefid": "20",
    "Timestamp": "2019-05-02T08:56:42Z",
    "modified": "20190502T085642Z",
    "date_created": "20190502T085642Z",
    "type": "item",
    "display_type": "",
    "name": "McLaren 720S GT3",
    "price": "1;EUR499",
    "quantity": 0,
    "description": "To bring one of their new incredible cars onto race tracks, McLaren developed the stunning 720S GT3. Modern design, impressive aerodynamics and years of experience in Motorsport should help this car to claim wins among several premier GT3 events in 2019.",
    "background_color": "fbfbfb",
    "icon_url": "https://steamuserimages-a.akamaihd.net/ugc/820127919146612902/526AF7E1EE193F8D2A8AABF5895C0F916AFF34A0/?interpolation=lanczos-none&output-format=jpeg&output-quality=95&fit=inside%7C358%3A358&composite-to=*,*%7C358%3A358&background-color=black",
    "icon_url_large": "https://steamuserimages-a.akamaihd.net/ugc/820127919146612902/526AF7E1EE193F8D2A8AABF5895C0F916AFF34A0/",
    "name_color": "00c3ef",
    "store_tags": "cars",
    "tradable": false,
    "marketable": false,
    "commodity": false,
    "workshopid": 1596821875,
    "key": "PqzsrQEkIPJVY8A8"
  },
  {
    "appid": "365960",
    "itemdefid": "21",
    "Timestamp": "2019-03-28T22:16:38Z",
    "modified": "20190328T221638Z",
    "date_created": "20190328T221638Z",
    "type": "item",
    "display_type": "",
    "name": "BMW M6 GT3",
    "price": "1;EUR499",
    "quantity": 0,
    "description": "From the very start, the BMW M6 GT3 hit the grids all over the motorsport world and proved the V8 concept to the German manufacturer. Leading several Endurance events in different series and also claiming the 2018 FIA GT Worldcup title, this car is a winner.",
    "background_color": "fbfbfb",
    "icon_url": "https://steamuserimages-a.akamaihd.net/ugc/941714333417370075/1DD2F2D08D7D5A1C4FFC6FB93450B4A2D8AAA68A/?interpolation=lanczos-none&output-format=jpeg&output-quality=95&fit=inside%7C358%3A358&composite-to=*,*%7C358%3A358&background-color=black",
    "icon_url_large": "https://steamuserimages-a.akamaihd.net/ugc/941714333417370075/1DD2F2D08D7D5A1C4FFC6FB93450B4A2D8AAA68A/",
    "name_color": "00c3ef",
    "store_tags": "cars",
    "tradable": false,
    "marketable": false,
    "commodity": false,
    "workshopid": 1596822133,
    "key": "CPjqMH2Mrnd2VinZ"
  },
  {
    "appid": "365960",
    "itemdefid": "22",
    "Timestamp": "2019-03-28T22:16:41Z",
    "modified": "20190328T221641Z",
    "date_created": "20190328T221641Z",
    "type": "item",
    "display_type": "",
    "name": "Porsche 911 GT3 R",
    "price": "1;EUR499",
    "quantity": 0,
    "description": "It probably wouldn't be called motorsport if the iconic brand Porsche wouldn't be part of a class. The 911 GT3 R is once again a very balanced, race-proven car by the German manufacturer, reinforcing their image as being amongst the highest rated contenders of a series.",
    "background_color": "fbfbfb",
    "icon_url": "https://steamuserimages-a.akamaihd.net/ugc/941714333417371076/257DDAF70E40357E78FD1FD5655A2A95B8726DD9/?interpolation=lanczos-none&output-format=jpeg&output-quality=95&fit=inside%7C358%3A358&composite-to=*,*%7C358%3A358&background-color=black",
    "icon_url_large": "https://steamuserimages-a.akamaihd.net/ugc/941714333417371076/257DDAF70E40357E78FD1FD5655A2A95B8726DD9/",
    "name_color": "00c3ef",
    "store_tags": "cars",
    "tradable": false,
    "marketable": false,
    "commodity": false,
    "workshopid": 1596822183,
    "key": "ZdVJv38DCeywZ8hp"
  },
  {
    "appid": "365960",
    "itemdefid": "23",
    "Timestamp": "2019-03-28T22:16:44Z",
    "modified": "20190328T221644Z",
    "date_created": "20190328T221644Z",
    "type": "item",
    "display_type": "",
    "name": "Audi R8 LMS GT3",
    "price": "1;EUR499",
    "quantity": 0,
    "description": "Considered as one of the all-time favourites, this midship RWD car by Audi has been competing in GT3 since the beginning, winning significant races around the globe for a variety of teams. A demanding but rewarding choice.",
    "background_color": "fbfbfb",
    "icon_url": "https://steamuserimages-a.akamaihd.net/ugc/941714333417371808/46EF962C1C6E84940828316B3A614E6C69304C94/?interpolation=lanczos-none&output-format=jpeg&output-quality=95&fit=inside%7C358%3A358&composite-to=*,*%7C358%3A358&background-color=black",
    "icon_url_large": "https://steamuserimages-a.akamaihd.net/ugc/941714333417371808/46EF962C1C6E84940828316B3A614E6C69304C94/",
    "name_color": "00c3ef",
    "store_tags": "cars",
    "tradable": false,
    "marketable": false,
    "commodity": false,
    "workshopid": 1596822230,
    "key": "NuvTIDzMYDhNRsai"
  },
  {
    "appid": "365960",
    "itemdefid": "24",
    "Timestamp": "2019-03-28T22:16:48Z",
    "modified": "20190328T221648Z",
    "date_created": "20190328T221648Z",
    "type": "item",
    "display_type": "",
    "name": "Aston Martin Vantage GT3",
    "price": "1;EUR499",
    "quantity": 0,
    "description": "The second generation of the Aston Martin Vantage GT3 is ready for some serious racing action. It will enter GT events in 2019 and beefs up the already stunning road version of the Vantage. With the prestige and expertise Aston Martin brings into racing, it's a challenger you always have to keep an eye on.",
    "background_color": "fbfbfb",
    "icon_url": "https://steamuserimages-a.akamaihd.net/ugc/941716236184991172/166FA504A8F878E13491A65345FA70EB0467E224/?interpolation=lanczos-none&output-format=jpeg&output-quality=95&fit=inside%7C358%3A358&composite-to=*,*%7C358%3A358&background-color=black",
    "icon_url_large": "https://steamuserimages-a.akamaihd.net/ugc/941716236184991172/166FA504A8F878E13491A65345FA70EB0467E224/",
    "name_color": "00c3ef",
    "store_tags": "cars",
    "tradable": false,
    "marketable": false,
    "commodity": false,
    "workshopid": 1596822282,
    "key": "GXWsWR2Enfvuu13v"
  },
  {
    "appid": "365960",
    "itemdefid": "25",
    "Timestamp": "2019-06-25T12:04:08Z",
    "modified": "20190625T120408Z",
    "date_created": "20190625T120408Z",
    "type": "item",
    "display_type": "",
    "name": "Imola",
    "price": "1;EUR699",
    "quantity": 0,
    "description": "The Autodromo Enzo e Dino Ferrari di Imola, better known as Imola, has hosted both the Italian and San Marino Grand Prix 28 times in total. This rF2 track comes in four versions: the classic, dangerous 1972 layout surrounded by nearby barriers before te introduction of chicanes to reduce its high speed nature, the 1988 layout that introduced a few chicanes, the 2001 layout with further modifications and chicanes and finally, the current configuration fully adapted to modern standards but still retaining a lot of the unique challenges that made it famous.",
    "background_color": "fbfbfb",
    "icon_url": "https://steamuserimages-a.akamaihd.net/ugc/910198013935563847/4782A8EC149DCE01E83CB1A8D2FF67616495CC6F/?interpolation=lanczos-none&output-format=jpeg&output-quality=95&fit=inside%7C358%3A358&composite-to=*,*%7C358%3A358&background-color=black",
    "icon_url_large": "https://steamuserimages-a.akamaihd.net/ugc/910198013935563847/4782A8EC149DCE01E83CB1A8D2FF67616495CC6F/",
    "name_color": "00c3ef",
    "store_tags": "tracks",
    "tradable": false,
    "marketable": false,
    "commodity": false,
    "workshopid": 1694798655,
    "key": "o20or0rxwTWSUDUU"
  },
  {
    "appid": "365960",
    "itemdefid": "26",
    "Timestamp": "2019-03-28T21:45:44Z",
    "modified": "20190328T214544Z",
    "date_created": "20190328T214544Z",
    "type": "item",
    "display_type": "",
    "name": "Virginia International Raceway",
    "price": "1;EUR699",
    "quantity": 0,
    "description": "Virginia International Raceway (commonly known as 'VIR') is a race track located in Alton, Virginia VIR is an incredibly beautiful and diverse racetrack allowing for numerous configurations, suiting all types of categories from small club cars to big GT and powerful prototypes.",
    "background_color": "fbfbfb",
    "icon_url": "https://steamuserimages-a.akamaihd.net/ugc/910198013935566439/5D8447CB99A78BBD0913BC745E1DEE92C2D90AA1/?interpolation=lanczos-none&output-format=jpeg&output-quality=95&fit=inside%7C358%3A358&composite-to=*,*%7C358%3A358&background-color=black",
    "icon_url_large": "https://steamuserimages-a.akamaihd.net/ugc/910198013935566439/5D8447CB99A78BBD0913BC745E1DEE92C2D90AA1/",
    "name_color": "00c3ef",
    "store_tags": "tracks",
    "tradable": false,
    "marketable": false,
    "commodity": false,
    "workshopid": 1694798757,
    "key": "VNZuOMVD2ml6DalK"
  },
  {
    "appid": "365960",
    "itemdefid": "27",
    "Timestamp": "2019-03-28T21:45:47Z",
    "modified": "20190328T214547Z",
    "date_created": "20190328T214547Z",
    "type": "item",
    "display_type": "",
    "name": "Guapore",
    "price": "1;EUR699",
    "quantity": 0,
    "description": "Autódromo Internacional de Guaporé is a motorsports circuit in Guaporé, a small city in southern Brazil. It is one of the oldest race tracks in the country and traditionally hosts a variety of different categories, ranging from Classic tintops, modern endurance prototypes to racing trucks.",
    "background_color": "fbfbfb",
    "icon_url": "https://steamuserimages-a.akamaihd.net/ugc/910198013935567155/6BC6D0EAAA1EF641E20FB4404BE654AA3FC6C5A6/?interpolation=lanczos-none&output-format=jpeg&output-quality=95&fit=inside%7C358%3A358&composite-to=*,*%7C358%3A358&background-color=black",
    "icon_url_large": "https://steamuserimages-a.akamaihd.net/ugc/910198013935567155/6BC6D0EAAA1EF641E20FB4404BE654AA3FC6C5A6/",
    "name_color": "00c3ef",
    "store_tags": "tracks",
    "tradable": false,
    "marketable": false,
    "commodity": false,
    "workshopid": 1694798796,
    "key": "cJWTsqFxXw2quk4e"
  },
  {
    "appid": "365960",
    "itemdefid": "28",
    "Timestamp": "2019-03-28T21:45:50Z",
    "modified": "20190328T214550Z",
    "date_created": "20190328T214550Z",
    "type": "item",
    "display_type": "",
    "name": "Ibarra",
    "price": "1;EUR699",
    "quantity": 0,
    "description": "The Autódromo Internacional de Yahuarcocha, is located in Ibarra, Ecuador. It´s unique layout flowing around and in between a lake, mountains and even a vulcan makes it an unique driving experience.",
    "background_color": "fbfbfb",
    "icon_url": "https://steamuserimages-a.akamaihd.net/ugc/910198013935567798/32C34F12AD59710ED461DE80B7F719B830555F34/?interpolation=lanczos-none&output-format=jpeg&output-quality=95&fit=inside%7C358%3A358&composite-to=*,*%7C358%3A358&background-color=black",
    "icon_url_large": "https://steamuserimages-a.akamaihd.net/ugc/910198013935567798/32C34F12AD59710ED461DE80B7F719B830555F34/",
    "name_color": "00c3ef",
    "store_tags": "tracks",
    "tradable": false,
    "marketable": false,
    "commodity": false,
    "workshopid": 1694798829,
    "key": "fTrLm8I0O96oBLRS"
  },
  {
    "appid": "365960",
    "itemdefid": "29",
    "Timestamp": "2019-03-28T21:46:12Z",
    "modified": "20190328T214612Z",
    "date_created": "20190328T214612Z",
    "type": "item",
    "display_type": "",
    "name": "Formula Vee",
    "price": "1;EUR299",
    "quantity": 0,
    "description": "This popular trainer formula car is heavily based on parts from the classic VW Beetle. Its open differential and swing axle rear suspension makes it a constant challenge and ideal tool to develop your driving skills.",
    "background_color": "fbfbfb",
    "icon_url": "https://steamuserimages-a.akamaihd.net/ugc/910198013935568464/5B4AD0ECE8FE858B3776A355ABDED1140E147952/?interpolation=lanczos-none&output-format=jpeg&output-quality=95&fit=inside%7C358%3A358&composite-to=*,*%7C358%3A358&background-color=black",
    "icon_url_large": "https://steamuserimages-a.akamaihd.net/ugc/910198013935568464/5B4AD0ECE8FE858B3776A355ABDED1140E147952/",
    "name_color": "00c3ef",
    "store_tags": "cars",
    "tradable": false,
    "marketable": false,
    "commodity": false,
    "workshopid": 1694798885,
    "key": "PlT3JQA0ntaHY576"
  },
  {
    "appid": "365960",
    "itemdefid": "30",
    "Timestamp": "2019-03-28T21:46:15Z",
    "modified": "20190328T214615Z",
    "date_created": "20190328T214615Z",
    "type": "item",
    "display_type": "",
    "name": "MCR Sports 2000",
    "price": "1;EUR299",
    "quantity": 0,
    "description": "The MCR S2000 is an incredibly nimble 500kg british prototype features an I4 Duratec engine, and is popular racer both for its driving fun as well as close wheel-to-wheel races.",
    "background_color": "fbfbfb",
    "icon_url": "https://steamuserimages-a.akamaihd.net/ugc/910198013935569050/4FA6E7980AAB9CAB0057B6B81B43CF669FCB3EAC/?interpolation=lanczos-none&output-format=jpeg&output-quality=95&fit=inside%7C358%3A358&composite-to=*,*%7C358%3A358&background-color=black",
    "icon_url_large": "https://steamuserimages-a.akamaihd.net/ugc/910198013935569050/4FA6E7980AAB9CAB0057B6B81B43CF669FCB3EAC/",
    "name_color": "00c3ef",
    "store_tags": "cars",
    "tradable": false,
    "marketable": false,
    "commodity": false,
    "workshopid": 1694798930,
    "key": "gD3QupxWd6b29IhN"
  },
  {
    "appid": "365960",
    "itemdefid": "31",
    "Timestamp": "2019-03-28T21:46:19Z",
    "modified": "20190328T214619Z",
    "date_created": "20190328T214619Z",
    "type": "item",
    "display_type": "",
    "name": "MetalMoro AJR",
    "price": "1;EUR299",
    "quantity": 0,
    "description": "The AJR is the latest high-performance prototype from Brazilian manufacturer Metalmoro. Capable matching the performance of a modern LMP2 car, this versatile prototype can be used with a range of different engines - the rF2 version features versions with Honda K20 I4 Turbo, Powertec V8, Chevrolet V8 and Judd V10.",
    "background_color": "fbfbfb",
    "icon_url": "https://steamuserimages-a.akamaihd.net/ugc/910198013935569650/16A3B3350E3BAC132805CB7305A436DE73F6C1AF/?interpolation=lanczos-none&output-format=jpeg&output-quality=95&fit=inside%7C358%3A358&composite-to=*,*%7C358%3A358&background-color=black",
    "icon_url_large": "https://steamuserimages-a.akamaihd.net/ugc/910198013935569650/16A3B3350E3BAC132805CB7305A436DE73F6C1AF/",
    "name_color": "00c3ef",
    "store_tags": "cars",
    "tradable": false,
    "marketable": false,
    "commodity": false,
    "workshopid": 1694798956,
    "key": "GSg5GSwkHj5SLVJ9"
  },
  {
    "appid": "365960",
    "itemdefid": "32",
    "Timestamp": "2019-03-28T21:46:21Z",
    "modified": "20190328T214621Z",
    "date_created": "20190328T214621Z",
    "type": "item",
    "display_type": "",
    "name": "MetalMoro MR18",
    "price": "1;EUR299",
    "quantity": 0,
    "description": "The MR18 is a succesful mid-range endurance prototype from Brazilian manufacturer Metalmoro. It features a Honda K20 I4 Turbo engine.",
    "background_color": "fbfbfb",
    "icon_url": "https://steamuserimages-a.akamaihd.net/ugc/910198013935570221/DF77C0CFB5333BE83030DC8AC3535A9E2D12A140/?interpolation=lanczos-none&output-format=jpeg&output-quality=95&fit=inside%7C358%3A358&composite-to=*,*%7C358%3A358&background-color=black",
    "icon_url_large": "https://steamuserimages-a.akamaihd.net/ugc/910198013935570221/DF77C0CFB5333BE83030DC8AC3535A9E2D12A140/",
    "name_color": "00c3ef",
    "store_tags": "cars",
    "tradable": false,
    "marketable": false,
    "commodity": false,
    "workshopid": 1694798990,
    "key": "rKxtiKvGq5GwY93t"
  },
  {
    "appid": "365960",
    "itemdefid": "33",
    "Timestamp": "2019-03-28T21:46:24Z",
    "modified": "20190328T214624Z",
    "date_created": "20190328T214624Z",
    "type": "item",
    "display_type": "",
    "name": "Puma GTE",
    "price": "1;EUR299",
    "quantity": 0,
    "description": "A sensation amongst brazilian car enthusiasts from the 70s, the GTE is a modified version of the VW Beetle, featuring the same mechanics of the brazilian Fusca with a lower, light weight fiberglass bodywork in an iconic design. The rFactor2 version is modelled after the original car and runs on radial tyres.",
    "background_color": "fbfbfb",
    "icon_url": "https://steamuserimages-a.akamaihd.net/ugc/910198013935570867/9658A9E2B60717C81F4308DE0EEC7F4D61D72C68/?interpolation=lanczos-none&output-format=jpeg&output-quality=95&fit=inside%7C358%3A358&composite-to=*,*%7C358%3A358&background-color=black",
    "icon_url_large": "https://steamuserimages-a.akamaihd.net/ugc/910198013935570867/9658A9E2B60717C81F4308DE0EEC7F4D61D72C68/",
    "name_color": "00c3ef",
    "store_tags": "cars",
    "tradable": false,
    "marketable": false,
    "commodity": false,
    "workshopid": 1694799035,
    "key": "Wte1NfFwkHLZhN6X"
  },
  {
    "appid": "365960",
    "itemdefid": "34",
    "Timestamp": "2019-03-28T21:46:27Z",
    "modified": "20190328T214627Z",
    "date_created": "20190328T214627Z",
    "type": "item",
    "display_type": "",
    "name": "Puma P052",
    "price": "1;EUR299",
    "quantity": 0,
    "description": "The P052 is a modern reimagination of the 70s brazilian classic, it retains many of the pure driving atributes that made the originals so popular in Brazil. The current prototype as modelled in rFactor2 runs with tuned MIVEC engine, 5-speed gearbox and slick tyres.",
    "background_color": "fbfbfb",
    "icon_url": "https://steamuserimages-a.akamaihd.net/ugc/910198013935571465/F211396D6FFC07BE5693E9FDCB46BE1B5EA661BA/?interpolation=lanczos-none&output-format=jpeg&output-quality=95&fit=inside%7C358%3A358&composite-to=*,*%7C358%3A358&background-color=black",
    "icon_url_large": "https://steamuserimages-a.akamaihd.net/ugc/910198013935571465/F211396D6FFC07BE5693E9FDCB46BE1B5EA661BA/",
    "name_color": "00c3ef",
    "store_tags": "cars",
    "tradable": false,
    "marketable": false,
    "commodity": false,
    "workshopid": 1694799073,
    "key": "npw0mkalFL9TbFGs"
  },
  {
    "appid": "365960",
    "itemdefid": "1001",
    "Timestamp": "2020-07-24T06:55:54Z",
    "modified": "20200724T065554Z",
    "date_created": "20200724T065554Z",
    "type": "bundle",
    "display_type": "",
    "name": "GT3 Pack",
    "bundle": "1;2;3;4;5;20;21;22;23;24",
    "price": "1;EUR10",
    "quantity": 0,
    "description": "GT racing its where it's at and with this bundle, you're ready to rock. Choose your favorite GT3 race car from the 11 available in this pack and dominate in the most diverse class out there: Aston Martin Vantage GT3, Audi R8 GT3 2018, Audi R8 GT3 2019, Bentley Continental GT3, BMW M6 GT3, Callaway Corvette GT3-R, McLaren 650S GT3, McLaren 720S GT3, Mercedes AMG GT3, Porsche 911 GT3 R and Radical RXC Turbo GT3.",
    "background_color": "fbfbfb",
    "icon_url": "https://steamuserimages-a.akamaihd.net/ugc/1461932727954796812/82DDE32CE85A6EFA5F42ADD3D154DC01CD17FE93/?interpolation=lanczos-none&output-format=jpeg&output-quality=95&fit=inside%7C358%3A358&composite-to=*,*%7C358%3A358&background-color=black",
    "icon_url_large": "https://steamuserimages-a.akamaihd.net/ugc/1461932727954796812/82DDE32CE85A6EFA5F42ADD3D154DC01CD17FE93/",
    "name_color": "00c3ef",
    "store_tags": "carpack",
    "purchase_bundle_discount": 40,
    "tradable": false,
    "marketable": false,
    "commodity": false,
    "key": "2hNojaJCu4pOlNtt"
  },
  {
    "appid": "365960",
    "itemdefid": "1002",
    "Timestamp": "2020-07-24T06:58:46Z",
    "modified": "20200724T065846Z",
    "date_created": "20200724T065846Z",
    "type": "bundle",
    "display_type": "",
    "name": "Formula E Bundle",
    "bundle": "6;7;19;35;48;49",
    "price": "1;EUR10",
    "quantity": 0,
    "description": "Motorsport is an ever-evolving story. Be at the front of it with this pack that is boosting you right into one of the most revolutionary FIA Championship out there. Recreate its beginning with the Gen1 car or dive right into the current season with the Gen2 car and all original liveries, it's up to you which team you take around the 4 included original circuits: Monaco E-Prix, Berlin E-Prix, New York E-Prix and Hong Kong E-Prix.",
    "background_color": "fbfbfb",
    "icon_url": "https://steamuserimages-a.akamaihd.net/ugc/1461932727954802978/509247967280A00582FDA6998A18B61CC2E7216B/?interpolation=lanczos-none&output-format=jpeg&output-quality=95&fit=inside%7C358%3A358&composite-to=*,*%7C358%3A358&background-color=black",
    "icon_url_large": "https://steamuserimages-a.akamaihd.net/ugc/1461932727954802978/509247967280A00582FDA6998A18B61CC2E7216B/",
    "name_color": "00c3ef",
    "store_tags": "pack",
    "purchase_bundle_discount": 25,
    "tradable": false,
    "marketable": false,
    "commodity": false,
    "key": "2hNojaJCu4pOlNtt"
  },
  {
    "appid": "365960",
    "itemdefid": "1003",
    "Timestamp": "2020-07-20T09:06:37Z",
    "modified": "20200720T090637Z",
    "date_created": "20200720T090637Z",
    "type": "bundle",
    "display_type": "",
    "name": "KartSim Pack",
    "bundle": "8;9;10;11;12",
    "price": "1;EUR10",
    "quantity": 0,
    "description": "Introducing KartSim, featuring two highly-accurate fixed-setup karts - the X30 UK Senior Kart and Rental Kart. Test yourself on three famous UK kart tracks, Paul Fletcher International, Buckmore Park and Glan Y Gors all based on laser scanned technology.",
    "background_color": "fbfbfb",
    "icon_url": "https://steamuserimages-a.akamaihd.net/ugc/1458554772681032635/0DC9B7D94D2B55506D306B3016287C301D02AE85/?interpolation=lanczos-none&output-format=jpeg&output-quality=95&fit=inside%7C358%3A358&composite-to=*,*%7C358%3A358&background-color=black",
    "icon_url_large": "https://steamuserimages-a.akamaihd.net/ugc/1458554772681032635/0DC9B7D94D2B55506D306B3016287C301D02AE85/",
    "name_color": "00c3ef",
    "store_tags": "pack",
    "purchase_bundle_discount": 31,
    "tradable": false,
    "marketable": false,
    "commodity": false,
    "key": "TR2vbqAgHxfsK76Z"
  },
  {
    "appid": "365960",
    "itemdefid": "1004",
    "Timestamp": "2020-07-24T08:03:01Z",
    "modified": "20200724T080301Z",
    "date_created": "20200724T080301Z",
    "type": "bundle",
    "display_type": "",
    "name": "Endurance Bundle",
    "bundle": "13;14;15;16;17;38;39",
    "price": "1;EUR10",
    "quantity": 0,
    "description": "If you're up for one of the biggest challenges in motorsport, this pack is for you. Get prepared for endurance races around the globe with 4 classes. No matter if Prototypes or GTs, it's in here: McLaren Senna GTR, Oreca 07 LMP2, Norma M30 LMP3, Aston Martin Vantage GTE, BMW M8 GTE, Corvette C7.R, Porsche 911 RSR",
    "background_color": "fbfbfb",
    "icon_url": "https://steamuserimages-a.akamaihd.net/ugc/1461932727954808286/C74E7B819AA00271582553A50E78FD1BD08AA4EC/?interpolation=lanczos-none&output-format=jpeg&output-quality=95&fit=inside%7C358%3A358&composite-to=*,*%7C358%3A358&background-color=black",
    "icon_url_large": "https://steamuserimages-a.akamaihd.net/ugc/1461932727954808286/C74E7B819AA00271582553A50E78FD1BD08AA4EC/",
    "name_color": "00c3ef",
    "store_tags": "carpack",
    "purchase_bundle_discount": 40,
    "tradable": false,
    "marketable": false,
    "commodity": false,
    "key": "AKnOpMUNCDjTw2ft"
  },
  {
    "appid": "365960",
    "itemdefid": "1005",
    "Timestamp": "2020-07-24T08:05:10Z",
    "modified": "20200724T080510Z",
    "date_created": "20200724T080510Z",
    "type": "bundle",
    "display_type": "",
    "name": "Track Expansion Bundle",
    "bundle": "18;36;37;45",
    "price": "1;EUR10",
    "quantity": 0,
    "description": "Some tracks in the world of motorsport have a special status. They are icons, each representing a different kind of challenge but all being recognized as one of the toughest challenges out there. With this bundle, you can take on these adventures yourself. From the unforgiving Green Hell to the bumpy course around a former airfield, the playgrounds are waiting for you. Includes the Nürburgring, Le Mans, Sebring and the Circuit d'Azure.",
    "background_color": "fbfbfb",
    "icon_url": "https://steamuserimages-a.akamaihd.net/ugc/1461932727954812365/14EC38E2299BE004CE18FDEC8ACB836E241BD5D2/?interpolation=lanczos-none&output-format=jpeg&output-quality=95&fit=inside%7C358%3A358&composite-to=*,*%7C358%3A358&background-color=black",
    "icon_url_large": "https://steamuserimages-a.akamaihd.net/ugc/1461932727954812365/14EC38E2299BE004CE18FDEC8ACB836E241BD5D2/",
    "name_color": "00c3ef",
    "store_tags": "trackpack",
    "purchase_bundle_discount": 40,
    "tradable": false,
    "marketable": false,
    "commodity": false,
    "key": "DBATlChCvuIvQ0T6"
  },
  {
    "appid": "365960",
    "itemdefid": "1006",
    "Timestamp": "2020-07-20T09:03:58Z",
    "modified": "20200720T090358Z",
    "date_created": "20200720T090358Z",
    "type": "bundle",
    "display_type": "",
    "name": "Reiza Pack",
    "bundle": "25;26;27;28;29;30;31;32;33;34",
    "price": "1;EUR99999999",
    "quantity": 0,
    "description": "The Reiza rFactor 2 Bundle is here! This pack includes all Reiza content developed for rFactor 2: a total of 6 vehicles and 4 unique venues in 10 different layouts, mixing world-class race tracks such as Imola and VIR with exotic locations such as Ibarra and Guaporé; powerful modern prototypes such as the Metalmoro AJR with the challenging Formula Vee trainer. The Reiza rF2 Bundle combines the diverse content developed with quality standards and attention to detail Reiza became known for, with rFactor 2´s unique advanced simulation technology for a powerful sim racing experience!",
    "background_color": "fbfbfb",
    "icon_url": "https://steamuserimages-a.akamaihd.net/ugc/1458554772681022535/E501BADCD630646D281F9A9472D30FC7D91D783B/?interpolation=lanczos-none&output-format=jpeg&output-quality=95&fit=inside%7C358%3A358&composite-to=*,*%7C358%3A358&background-color=black",
    "icon_url_large": "https://steamuserimages-a.akamaihd.net/ugc/1458554772681022535/E501BADCD630646D281F9A9472D30FC7D91D783B/",
    "name_color": "00c3ef",
    "store_tags": "pack",
    "purchase_bundle_discount": 57,
    "tradable": false,
    "marketable": false,
    "commodity": false,
    "key": "YyeqyMTQ7Fckvbhy"
  },
  {
    "appid": "365960",
    "itemdefid": "1007",
    "Timestamp": "2019-07-10T20:34:15Z",
    "modified": "20190710T203415Z",
    "date_created": "20190710T203415Z",
    "type": "bundle",
    "display_type": "",
    "name": "Reiza Track Pack",
    "bundle": "25;26;27;28",
    "price": "1;EUR99999999",
    "quantity": 0,
    "description": "This Track pack includes Imola (1972 and 2018 versions), VIR 2018 in 5 different layouts, ecuadorian track Ibarra in 2 layouts as well as the Guaporé Autodrome from southern Brazil.",
    "background_color": "fbfbfb",
    "icon_url": "https://steamuserimages-a.akamaihd.net/ugc/775099536448153281/2D3089487ECEC1D7FAEC625E24902D7FD9595522/?interpolation=lanczos-none&output-format=jpeg&output-quality=95&fit=inside%7C358%3A358&composite-to=*,*%7C358%3A358&background-color=black",
    "icon_url_large": "https://steamuserimages-a.akamaihd.net/ugc/775099536448153281/2D3089487ECEC1D7FAEC625E24902D7FD9595522/",
    "name_color": "00c3ef",
    "store_tags": "trackpack",
    "purchase_bundle_discount": 47,
    "tradable": false,
    "marketable": false,
    "commodity": false,
    "key": "5avyo1mr081Z8y6z"
  },
  {
    "appid": "365960",
    "itemdefid": "1008",
    "Timestamp": "2019-07-10T20:34:20Z",
    "modified": "20190710T203420Z",
    "date_created": "20190710T203420Z",
    "type": "bundle",
    "display_type": "",
    "name": "Reiza Car Pack",
    "bundle": "29;30;31;32;33;34",
    "price": "1;EUR99999999",
    "quantity": 0,
    "description": "This Car pack includes the Metalmoro AJR in 4 different engine configurations for 20 cars in total, Metalmoro MR18 in a 26-car field, Formula Vee in a 24-car field, MCR S2000 in a 20-car field, Puma GTE in a 10-car field; Puma P052 in a 20-car field.",
    "background_color": "fbfbfb",
    "icon_url": "https://steamuserimages-a.akamaihd.net/ugc/775099536448151897/C87A0EF42AA4AD0F9784258576DCF7F80AAB147C/?interpolation=lanczos-none&output-format=jpeg&output-quality=95&fit=inside%7C358%3A358&composite-to=*,*%7C358%3A358&background-color=black",
    "icon_url_large": "https://steamuserimages-a.akamaihd.net/ugc/775099536448151897/C87A0EF42AA4AD0F9784258576DCF7F80AAB147C/",
    "name_color": "00c3ef",
    "store_tags": "carpack",
    "purchase_bundle_discount": 45,
    "tradable": false,
    "marketable": false,
    "commodity": false,
    "key": "Mw5WWXMiAVz7pXUO"
  },
  {
    "appid": "365960",
    "itemdefid": "2000",
    "Timestamp": "2020-08-01T05:50:58Z",
    "modified": "20200801T055058Z",
    "date_created": "20200801T055058Z",
    "type": "bundle",
    "display_type": "",
    "name": "Nurburgring Endurance bundle",
    "bundle": "36;40;41;50",
    "price": "1;EUR99999999",
    "quantity": 0,
    "description": "Nürburgring, Porsche 911 GT3 Cup, BMW M2 CS Racing and Radical SR3-XX. With this new pack we give you a sampler of options to get to know Endurance racing at the Ring! From the more approachable to the more advanced in terms of handling, work your way up and conquer the Green Hell.",
    "background_color": "fbfbfb",
    "icon_url": "https://steamuserimages-a.akamaihd.net/ugc/1461933574031931837/4648BC06DB73300F05F8540619403D41D09A73E1/?interpolation=lanczos-none&output-format=jpeg&output-quality=95&fit=inside%7C358%3A358&composite-to=*,*%7C358%3A358&background-color=black",
    "icon_url_large": "https://steamuserimages-a.akamaihd.net/ugc/1461933574031931837/4648BC06DB73300F05F8540619403D41D09A73E1/",
    "name_color": "00c3ef",
    "store_tags": "pack",
    "purchase_bundle_discount": 60,
    "tradable": false,
    "marketable": false,
    "commodity": false,
    "key": "Wxatu3c7CZMyKvZF"
  },
  {
    "appid": "365960",
    "itemdefid": "10000",
    "Timestamp": "2018-01-24T20:06:25Z",
    "modified": "20180124T200625Z",
    "date_created": "20180124T200625Z",
    "type": "item",
    "display_type": "",
    "name": "KartSim Pro",
    "price": "1;EUR99999999",
    "quantity": 0,
    "description": "",
    "background_color": "fbfbfb",
    "name_color": "00c3ef",
    "store_tags": "pack",
    "tradable": false,
    "marketable": false,
    "commodity": false,
    "store_hidden": true,
    "workshopid": 1280256705,
    "key": "UmhAkwVTezq39JXY"
  },
  {
    "appid": "365960",
    "itemdefid": "666666",
    "Timestamp": "2019-03-06T19:50:16Z",
    "modified": "20190306T195016Z",
    "date_created": "20190306T195016Z",
    "type": "item",
    "display_type": "",
    "name": "TestThirdParty",
    "price": "1;EUR99999999",
    "quantity": 0,
    "description": "",
    "background_color": "fbfbfb",
    "name_color": "00c3ef",
    "store_tags": "test",
    "tradable": false,
    "marketable": false,
    "commodity": false,
    "store_hidden": true,
    "key": "IX4TPutI2CiOvPwy"
  },
  {
    "appid": "365960",
    "itemdefid": "999999",
    "Timestamp": "",
    "modified": "20171113T212205Z",
    "date_created": "20171113T212205Z",
    "type": "item",
    "display_type": "",
    "name": "TestTeam",
    "price": "1;EUR99999999",
    "quantity": 0,
    "description": "",
    "background_color": "fbfbfb",
    "name_color": "efc300",
    "store_tags": "test",
    "tradable": false,
    "marketable": false,
    "commodity": false,
    "store_hidden": true,
    "key": "GIPtivEzXDmGX45l"
  },
  {
    "appid": "365960",
    "itemdefid": "35",
    "Timestamp": "2019-05-10T18:38:13Z",
    "modified": "20190510T183813Z",
    "date_created": "20190510T183813Z",
    "type": "item",
    "display_type": "",
    "name": "Monaco E-Prix Track",
    "price": "1;EUR799",
    "quantity": 0,
    "description": "Introducing the awesome Monaco E-Prix 2019, the 1.765 km tight and twisty circuit is known for intense racing, with the Formula E version testing drivers to the max!",
    "background_color": "fbfbfb",
    "icon_url": "https://steamuserimages-a.akamaihd.net/ugc/789730529893705114/47011F43DC67BC14691D9CA3DF253B7E77FD3C02/?interpolation=lanczos-none&output-format=jpeg&output-quality=95&fit=inside%7C358%3A358&composite-to=*,*%7C358%3A358&background-color=black",
    "icon_url_large": "https://steamuserimages-a.akamaihd.net/ugc/789730529893705114/47011F43DC67BC14691D9CA3DF253B7E77FD3C02/",
    "name_color": "00c3ef",
    "store_tags": "tracks",
    "tradable": false,
    "marketable": false,
    "commodity": false,
    "workshopid": 1737056822,
    "key": "UAst2ydETshLyazu"
  },
  {
    "appid": "365960",
    "itemdefid": "1009",
    "Timestamp": "2020-07-31T19:17:06Z",
    "modified": "20200731T191706Z",
    "date_created": "20200731T191706Z",
    "type": "bundle",
    "display_type": "",
    "name": "GT3 Power Pack",
    "bundle": "1;2;3;4;5",
    "price": "1;EUR99999999",
    "quantity": 0,
    "description": "Your final chance to purchase this bundle with some of the finest GT3 cars at a special discount!",
    "background_color": "fbfbfb",
    "icon_url": "https://steamuserimages-a.akamaihd.net/ugc/1461933574031878333/0D6DE8CD5F68A72D600A4D690FDEA18C82B9A09F/?interpolation=lanczos-none&output-format=jpeg&output-quality=95&fit=inside%7C358%3A358&composite-to=*,*%7C358%3A358&background-color=black",
    "icon_url_large": "https://steamuserimages-a.akamaihd.net/ugc/1461933574031878333/0D6DE8CD5F68A72D600A4D690FDEA18C82B9A09F/",
    "name_color": "00c3ef",
    "store_tags": "pack",
    "purchase_bundle_discount": 70,
    "tradable": false,
    "marketable": false,
    "commodity": false,
    "key": "ON22dJhao0fSU2cJ"
  },
  {
    "appid": "365960",
    "itemdefid": "1010",
    "Timestamp": "2020-08-01T05:56:20Z",
    "modified": "20200801T055620Z",
    "date_created": "20200801T055620Z",
    "type": "bundle",
    "display_type": "",
    "name": "GT3 Challenger Pack",
    "bundle": "20;21;22;23;24",
    "price": "1;EUR99999999",
    "quantity": 0,
    "description": "Your final chance to complete the collection with these five GT3 cars! Aston Martin Vantage, Porsche 911 GT3 R, McLaren 720S, BMW M6 and two different variations of the Audi R8 are waiting for you.",
    "background_color": "fbfbfb",
    "icon_url": "https://steamuserimages-a.akamaihd.net/ugc/1461933574031901191/A41BA95A17F6F473D9CF5A5ABE067F7DCC6E6AA4/?interpolation=lanczos-none&output-format=jpeg&output-quality=95&fit=inside%7C358%3A358&composite-to=*,*%7C358%3A358&background-color=black",
    "icon_url_large": "https://steamuserimages-a.akamaihd.net/ugc/1461933574031901191/A41BA95A17F6F473D9CF5A5ABE067F7DCC6E6AA4/",
    "name_color": "00c3ef",
    "store_tags": "pack",
    "purchase_bundle_discount": 70,
    "tradable": false,
    "marketable": false,
    "commodity": false,
    "key": "FaU1cg3AtzJxwMem"
  },
  {
    "appid": "365960",
    "itemdefid": "10001",
    "Timestamp": "2019-05-17T07:08:24Z",
    "modified": "20190517T070824Z",
    "date_created": "20190517T070824Z",
    "type": "item",
    "display_type": "",
    "name": "KartSim Pro European",
    "price": "1;EUR99999999",
    "quantity": 0,
    "description": "",
    "background_color": "fbfbfb",
    "name_color": "00c3ef",
    "store_tags": "pack",
    "tradable": false,
    "marketable": false,
    "commodity": false,
    "store_hidden": true,
    "workshopid": 1743486500,
    "key": "qTANDZPIteof6f7z"
  },
  {
    "appid": "365960",
    "itemdefid": "333333",
    "Timestamp": "2019-06-09T11:25:58Z",
    "modified": "20190609T112558Z",
    "date_created": "20190609T112558Z",
    "type": "item",
    "display_type": "",
    "name": "Special Event",
    "price": "1;EUR99999999",
    "quantity": 0,
    "description": "",
    "background_color": "fbfbfb",
    "name_color": "00c3ef",
    "store_tags": "test",
    "tradable": false,
    "marketable": false,
    "commodity": false,
    "store_hidden": true,
    "key": "VeSz5XyMLfO7N0K1"
  },
  {
    "appid": "365960",
    "itemdefid": "37",
    "Timestamp": "2020-01-23T08:26:25Z",
    "modified": "20200123T082625Z",
    "date_created": "20200123T082625Z",
    "type": "item",
    "display_type": "",
    "name": "Le Mans 24h",
    "price": "1;EUR1099",
    "quantity": 0,
    "description": "Introducing the iconic Le Mans 24h for rFactor 2, meticulously recreated, the 2018 track is modelled with millimetre precision using the latest in laser scan technology. Nothing but the best for this epic track. What other sim to bring out its real potential than rFactor 2 with it's heritage with endurance multi-class racing.",
    "background_color": "fbfbfb",
    "icon_url": "https://steamuserimages-a.akamaihd.net/ugc/767235996524050664/A02E315AB80B16B7F1E862179B115AEECBBB5D98/?interpolation=lanczos-none&output-format=jpeg&output-quality=95&fit=inside%7C358%3A358&composite-to=*,*%7C358%3A358&background-color=black",
    "icon_url_large": "https://steamuserimages-a.akamaihd.net/ugc/767235996524050664/A02E315AB80B16B7F1E862179B115AEECBBB5D98/",
    "name_color": "00c3ef",
    "store_tags": "tracks",
    "tradable": false,
    "marketable": false,
    "commodity": false,
    "workshopid": 1737056865,
    "key": "iPHmYV3hzrKJbyJZ"
  },
  {
    "appid": "365960",
    "itemdefid": "38",
    "Timestamp": "2019-08-16T14:48:35Z",
    "modified": "20190816T144835Z",
    "date_created": "20190816T144835Z",
    "type": "item",
    "display_type": "",
    "name": "McLaren Senna GTR",
    "price": "1;EUR499",
    "quantity": 0,
    "description": "",
    "background_color": "fbfbfb",
    "icon_url": "https://steamuserimages-a.akamaihd.net/ugc/775102877220860733/29DD0DA3A2B7569C66B243626919814970FC5E0F/?interpolation=lanczos-none&output-format=jpeg&output-quality=95&fit=inside%7C358%3A358&composite-to=*,*%7C358%3A358&background-color=black",
    "icon_url_large": "https://steamuserimages-a.akamaihd.net/ugc/775102877220860733/29DD0DA3A2B7569C66B243626919814970FC5E0F/",
    "name_color": "00c3ef",
    "store_tags": "cars",
    "tradable": false,
    "marketable": false,
    "commodity": false,
    "workshopid": 1737056888,
    "key": "idfmEQ7q5kuDehPo"
  },
  {
    "appid": "365960",
    "itemdefid": "39",
    "Timestamp": "2019-08-16T14:48:40Z",
    "modified": "20190816T144840Z",
    "date_created": "20190816T144840Z",
    "type": "item",
    "display_type": "",
    "name": "Aston Martin Vantage GTE",
    "price": "1;EUR499",
    "quantity": 0,
    "description": "",
    "background_color": "fbfbfb",
    "icon_url": "https://steamuserimages-a.akamaihd.net/ugc/775102877220861622/8EFCF263153218AD4ADDF2C671C5757DD7D4607B/?interpolation=lanczos-none&output-format=jpeg&output-quality=95&fit=inside%7C358%3A358&composite-to=*,*%7C358%3A358&background-color=black",
    "icon_url_large": "https://steamuserimages-a.akamaihd.net/ugc/775102877220861622/8EFCF263153218AD4ADDF2C671C5757DD7D4607B/",
    "name_color": "00c3ef",
    "store_tags": "cars",
    "tradable": false,
    "marketable": false,
    "commodity": false,
    "workshopid": 1737056920,
    "key": "kJTgP2ADmkN3HC0J"
  },
  {
    "appid": "365960",
    "itemdefid": "1011",
    "Timestamp": "2020-08-01T05:52:48Z",
    "modified": "20200801T055248Z",
    "date_created": "20200801T055248Z",
    "type": "bundle",
    "display_type": "",
    "name": "Two Strong Pack",
    "bundle": "38;39",
    "price": "1;EUR99999999",
    "quantity": 0,
    "description": "Powerful engines, sophisticated suspensions and aerodynamics that let their work seem magical, that's what is needed to create a race car that can take on the world. Some might say there are even cars that are too strong – welcome to our Two Strong Package - featuring the Aston Martin Vantage GTE and the lightning fast McLaren Senna GTR!",
    "background_color": "fbfbfb",
    "icon_url": "https://steamuserimages-a.akamaihd.net/ugc/1461933574031855458/BD0C6076ECC48CFD8FADC704C9C372CB89D1887B/?interpolation=lanczos-none&output-format=jpeg&output-quality=95&fit=inside%7C358%3A358&composite-to=*,*%7C358%3A358&background-color=black",
    "icon_url_large": "https://steamuserimages-a.akamaihd.net/ugc/1461933574031855458/BD0C6076ECC48CFD8FADC704C9C372CB89D1887B/",
    "name_color": "00c3ef",
    "store_tags": "carpack",
    "purchase_bundle_discount": 70,
    "tradable": false,
    "marketable": false,
    "commodity": false,
    "key": "S2pdKmtY0o30gqa6"
  },
  {
    "appid": "365960",
    "itemdefid": "36",
    "Timestamp": "2019-09-26T15:34:25Z",
    "modified": "20190926T153425Z",
    "date_created": "20190926T153425Z",
    "type": "item",
    "display_type": "",
    "name": "Nürburgring",
    "price": "1;EUR1199",
    "quantity": 0,
    "description": "",
    "background_color": "fbfbfb",
    "icon_url": "https://steamuserimages-a.akamaihd.net/ugc/766099315119323893/EC094BD823CAFCBD7C9E37DF105F7BDEA7435EFA/?interpolation=lanczos-none&output-format=jpeg&output-quality=95&fit=inside%7C358%3A358&composite-to=*,*%7C358%3A358&background-color=black",
    "icon_url_large": "https://steamuserimages-a.akamaihd.net/ugc/766099315119323893/EC094BD823CAFCBD7C9E37DF105F7BDEA7435EFA/",
    "name_color": "00c3ef",
    "store_tags": "tracks",
    "tradable": false,
    "marketable": false,
    "commodity": false,
    "workshopid": 1737056846,
    "key": "olbgkBW7w2kLMQqm"
  },
  {
    "appid": "365960",
    "itemdefid": "40",
    "Timestamp": "2019-09-27T12:55:56Z",
    "modified": "20190927T125556Z",
    "date_created": "20190927T125556Z",
    "type": "item",
    "display_type": "",
    "name": "Porsche 911 GT3 Cup",
    "price": "1;EUR499",
    "quantity": 0,
    "description": "When it comes to the ultimate customer racecar, the Porsche 911 GT3 Cup is probably high on that list, if not even the leader as in so many races. Used not only in the Porsche Cups around the entire globe, but also in several other racing series including the all famous 24 Hours at the Nürburgring, this Weisssach-masterpiece is a one of a kind. A 3.8-Liter with six cylinders, of course in boxer setting, is pushing this racer in a blink of an eye through every tough corner.",
    "background_color": "fbfbfb",
    "icon_url": "https://steamuserimages-a.akamaihd.net/ugc/766099315119520794/6D143D53908E0BD313CDDD3822BA0B3EAB02020C/?interpolation=lanczos-none&output-format=jpeg&output-quality=95&fit=inside%7C358%3A358&composite-to=*,*%7C358%3A358&background-color=black",
    "icon_url_large": "https://steamuserimages-a.akamaihd.net/ugc/766099315119520794/6D143D53908E0BD313CDDD3822BA0B3EAB02020C/",
    "name_color": "00c3ef",
    "store_tags": "cars",
    "tradable": false,
    "marketable": false,
    "commodity": false,
    "workshopid": 1872951506,
    "key": "czZOeggIX91QVZt3"
  },
  {
    "appid": "365960",
    "itemdefid": "41",
    "Timestamp": "2019-12-05T18:52:38Z",
    "modified": "20191205T185238Z",
    "date_created": "20191205T185238Z",
    "type": "item",
    "display_type": "",
    "name": "BMW M2 CS Racing",
    "price": "1;EUR499",
    "quantity": 0,
    "description": "The BMW M2 CS Racing car is based on the F87 M2, with 3.0L turbo engine producing 550Nm of torque and 350 horsepower. Being built specifically for track usage, it quickly accelerates out of corners and has an engine with a flat power curve from 5000rpm, up to almost 7000rpm. Mid-corner, the M2's well known agility is kept in check by a set of four 285mm wide slicks on 18 inch rims. This is a great car for competitive racing on any track, and it features all the adjustments needed to make it highly competitive.",
    "background_color": "fbfbfb",
    "icon_url": "https://steamuserimages-a.akamaihd.net/ugc/784120200242879667/6CDAEB2E00DC42504722508CEC6FA2E2E996CF72/?interpolation=lanczos-none&output-format=jpeg&output-quality=95&fit=inside%7C358%3A358&composite-to=*,*%7C358%3A358&background-color=black",
    "icon_url_large": "https://steamuserimages-a.akamaihd.net/ugc/784120200242879667/6CDAEB2E00DC42504722508CEC6FA2E2E996CF72/",
    "name_color": "00c3ef",
    "store_tags": "cars",
    "tradable": false,
    "marketable": false,
    "commodity": false,
    "workshopid": 1923574682,
    "key": "xGRLSbMXctVV2wXb"
  },
  {
    "appid": "365960",
    "itemdefid": "42",
    "Timestamp": "2019-12-19T16:41:01Z",
    "modified": "20191219T164101Z",
    "date_created": "20191219T164101Z",
    "type": "item",
    "display_type": "",
    "name": "KartSim Adria",
    "price": "1;EUR699",
    "quantity": 0,
    "description": "Alongside the Adria International Raceway lies the Adria Karting Raceway, situated in beautiful Italy, just an hour south of Venice. Built in 2014, it is one of the most modern kart tracks, and hosts many international karting events. The track itself sports a nice looking combination of concrete and colored run-off areas and is just over 1.3 kilometers long.",
    "background_color": "fbfbfb",
    "icon_url": "https://steamuserimages-a.akamaihd.net/ugc/769484624675037005/F0E77252D30EE1CADAC6DC002C01AB8E5E97ED83/?interpolation=lanczos-none&output-format=jpeg&output-quality=95&fit=inside%7C358%3A358&composite-to=*,*%7C358%3A358&background-color=black",
    "icon_url_large": "https://steamuserimages-a.akamaihd.net/ugc/769484624675037005/F0E77252D30EE1CADAC6DC002C01AB8E5E97ED83/",
    "name_color": "00c3ef",
    "store_tags": "tracks",
    "tradable": false,
    "marketable": false,
    "commodity": false,
    "workshopid": 1938469778,
    "key": "TgcsYIdZDZOUh2iX"
  },
  {
    "appid": "365960",
    "itemdefid": "43",
    "Timestamp": "2019-12-19T16:41:09Z",
    "modified": "20191219T164109Z",
    "date_created": "20191219T164109Z",
    "type": "item",
    "display_type": "",
    "name": "KartSim Kristianstad",
    "price": "1;EUR699",
    "quantity": 0,
    "description": "Located in the south of Sweden is the Kristianstad karting circuit, a 1.2 kilometer long track that was repaved and upgraded to meet the demands of a CIK grade-A circuit in 2012. The track has 16 corners, two chicanes, and a level difference of 6 meters vertically.",
    "background_color": "fbfbfb",
    "icon_url": "https://steamuserimages-a.akamaihd.net/ugc/769484624675045283/51A7FF93CBA4E931419EA5F32B6388D5EF38F645/?interpolation=lanczos-none&output-format=jpeg&output-quality=95&fit=inside%7C358%3A358&composite-to=*,*%7C358%3A358&background-color=black",
    "icon_url_large": "https://steamuserimages-a.akamaihd.net/ugc/769484624675045283/51A7FF93CBA4E931419EA5F32B6388D5EF38F645/",
    "name_color": "00c3ef",
    "store_tags": "tracks",
    "tradable": false,
    "marketable": false,
    "commodity": false,
    "workshopid": 1938469806,
    "key": "EPN4KFbjiEZtcEKG"
  },
  {
    "appid": "365960",
    "itemdefid": "44",
    "Timestamp": "2019-12-19T16:41:21Z",
    "modified": "20191219T164121Z",
    "date_created": "20191219T164121Z",
    "type": "item",
    "display_type": "",
    "name": "KartSim Alaharma",
    "price": "1;EUR699",
    "quantity": 0,
    "description": "The Alaharma circuit, sometimes also called the Mika Salo Circuit as it was designed by the former racing driver of the same name, is one of the most beautiful outdoor karting tracks. Located in Finland in the beautiful town of Alahärmä on the banks of the river Lapuanjoki, the 1 kilometer long course winds down the river and has several corners that challenge even the most experienced drivers.",
    "background_color": "fbfbfb",
    "icon_url": "https://steamuserimages-a.akamaihd.net/ugc/769484624675053386/157F9B2868AE370C3A98EE532D0566151C71F565/?interpolation=lanczos-none&output-format=jpeg&output-quality=95&fit=inside%7C358%3A358&composite-to=*,*%7C358%3A358&background-color=black",
    "icon_url_large": "https://steamuserimages-a.akamaihd.net/ugc/769484624675053386/157F9B2868AE370C3A98EE532D0566151C71F565/",
    "name_color": "00c3ef",
    "store_tags": "tracks",
    "tradable": false,
    "marketable": false,
    "commodity": false,
    "workshopid": 1938469836,
    "key": "XJ2ztH8O3Qc9T8EF"
  },
  {
    "appid": "365960",
    "itemdefid": "45",
    "Timestamp": "2019-12-19T16:57:19Z",
    "modified": "20191219T165719Z",
    "date_created": "20191219T165719Z",
    "type": "item",
    "display_type": "",
    "name": "Circuit d'Azur",
    "price": "1;EUR899",
    "quantity": 0,
    "description": "Between the beautiful sea, regal casinos and the lifestyle of the fast and famous, it's up to you to carve your name into the tarmac as a winner of this challenging street circuit!",
    "background_color": "fbfbfb",
    "icon_url": "https://steamuserimages-a.akamaihd.net/ugc/769484624674753943/2874A01D9796EA0392A0A64343A51BC16B2A3714/?interpolation=lanczos-none&output-format=jpeg&output-quality=95&fit=inside%7C358%3A358&composite-to=*,*%7C358%3A358&background-color=black",
    "icon_url_large": "https://steamuserimages-a.akamaihd.net/ugc/769484624674753943/2874A01D9796EA0392A0A64343A51BC16B2A3714/",
    "name_color": "00c3ef",
    "store_tags": "tracks",
    "tradable": false,
    "marketable": false,
    "commodity": false,
    "workshopid": 1938469875,
    "key": "7nBj2sb0klUxSvki"
  },
  {
    "appid": "365960",
    "itemdefid": "1012",
    "Timestamp": "2019-12-20T13:46:45Z",
    "modified": "20191220T134645Z",
    "date_created": "20191220T134645Z",
    "type": "bundle",
    "display_type": "",
    "name": "KartSim European Track Pack",
    "bundle": "42;43;44",
    "price": "1;EUR10",
    "quantity": 0,
    "description": "Contains Alaharma, Adria and Kristianstad",
    "background_color": "fbfbfb",
    "icon_url": "https://steamuserimages-a.akamaihd.net/ugc/769484624675079221/1E5EB0034A26DE36A5A387351869DEBA5D7594CD/?interpolation=lanczos-none&output-format=jpeg&output-quality=95&fit=inside%7C358%3A358&composite-to=*,*%7C358%3A358&background-color=black",
    "icon_url_large": "https://steamuserimages-a.akamaihd.net/ugc/769484624675079221/1E5EB0034A26DE36A5A387351869DEBA5D7594CD/",
    "name_color": "00c3ef",
    "store_tags": "trackpack",
    "purchase_bundle_discount": 30,
    "tradable": false,
    "marketable": false,
    "commodity": false,
    "key": "PbtmMi7c4NQbMdDU"
  },
  {
    "appid": "365960",
    "itemdefid": "49",
    "Timestamp": "2020-05-21T17:34:41Z",
    "modified": "20200521T173441Z",
    "date_created": "20200521T173441Z",
    "type": "item",
    "display_type": "",
    "name": "Berlin E-Prix Track",
    "price": "1;EUR799",
    "quantity": 0,
    "description": "Take on the challenging 2020 Berlin E-Prix circuit, situated at Tempelhof airport, this 1.927 km track allows for great overtakes and intense action.",
    "background_color": "fbfbfb",
    "icon_url": "https://steamuserimages-a.akamaihd.net/ugc/1008189355409617443/821C146C3A0D9955089AEEA726DC4226D0B1481A/?interpolation=lanczos-none&output-format=jpeg&output-quality=95&fit=inside%7C358%3A358&composite-to=*,*%7C358%3A358&background-color=black",
    "icon_url_large": "https://steamuserimages-a.akamaihd.net/ugc/1008189355409617443/821C146C3A0D9955089AEEA726DC4226D0B1481A/",
    "name_color": "00c3ef",
    "store_tags": "tracks",
    "tradable": false,
    "marketable": false,
    "commodity": false,
    "workshopid": 2103827690,
    "key": "O62N2Ye0IWbqJIyb"
  },
  {
    "appid": "365960",
    "itemdefid": "46",
    "Timestamp": "2020-05-29T08:03:10Z",
    "modified": "20200529T080310Z",
    "date_created": "20200529T080310Z",
    "type": "item",
    "display_type": "",
    "name": "Ferrari 488 GTE",
    "price": "1;EUR499",
    "quantity": 0,
    "description": "The Ferrari 488 GTE is Maranellos choice for the world of endurance racing. Scoring 490 horsepower on the dyno, the 4 liter V8 engine features a bi-turbo setup to create even power across the entire band of revs. Plenty of power to compete for the top positions at the legendary 24 Hours of Le Mans. But power isn't everything when it comes to the Ferrari, a fully tricked out aero package makes sure that the airflow is helping the 488 GTE to build as much downforce as possible.",
    "background_color": "fbfbfb",
    "icon_url": "https://steamuserimages-a.akamaihd.net/ugc/1035211763827519878/6AD68B7B38A3B2EFC31FA4B60B9AB2A701D518E3/?interpolation=lanczos-none&output-format=jpeg&output-quality=95&fit=inside%7C358%3A358&composite-to=*,*%7C358%3A358&background-color=black",
    "icon_url_large": "https://steamuserimages-a.akamaihd.net/ugc/1035211763827519878/6AD68B7B38A3B2EFC31FA4B60B9AB2A701D518E3/",
    "name_color": "00c3ef",
    "store_tags": "cars",
    "tradable": false,
    "marketable": false,
    "commodity": false,
    "workshopid": 2103827595,
    "key": "2RDjTJ8I1VkcV2A8"
  },
  {
    "appid": "365960",
    "itemdefid": "48",
    "Timestamp": "2020-05-28T20:16:15Z",
    "modified": "20200528T201615Z",
    "date_created": "20200528T201615Z",
    "type": "item",
    "display_type": "",
    "name": "New York E-Prix Track",
    "price": "1;EUR799",
    "quantity": 0,
    "description": "Red Hook at the Brooklyn Harbor hosted the double-header championship finale of the ABB FIA Formula E Season 17/18 as well as 18/19. With the Big Apple as backdrop, this ePrix easily goes onto the 'most iconic stops'-list of the championship. Take on the challenge, 2.32 km of pure street racing while enjoying a unique view of the Statue of Liberty, welcome to New York!",
    "background_color": "fbfbfb",
    "icon_url": "https://steamuserimages-a.akamaihd.net/ugc/1035211586495869553/5EE6072AC9427AEAD88370D08CBF0B1881843DB0/?interpolation=lanczos-none&output-format=jpeg&output-quality=95&fit=inside%7C358%3A358&composite-to=*,*%7C358%3A358&background-color=black",
    "icon_url_large": "https://steamuserimages-a.akamaihd.net/ugc/1035211586495869553/5EE6072AC9427AEAD88370D08CBF0B1881843DB0/",
    "name_color": "00c3ef",
    "store_tags": "tracks",
    "tradable": false,
    "marketable": false,
    "commodity": false,
    "workshopid": 2103827662,
    "key": "gGCDjvqSNyW6mEZP"
  },
  {
    "appid": "365960",
    "itemdefid": "50",
    "Timestamp": "2020-05-31T10:12:27Z",
    "modified": "20200531T101227Z",
    "date_created": "20200531T101227Z",
    "type": "item",
    "display_type": "",
    "name": "Radical SR3 XX",
    "price": "1;EUR499",
    "quantity": 0,
    "description": "The SR3 XX is the evolution of the best-selling race car in the world, the SR3 which was first introduced in 2001. While the styling mostly remained untouched with just a few key elements setting the XX apart from its predecessor, underneath it's an all new track weapon. The first thing noticed by drivers as most prominent change is probably the new steering wheel, functioning basically as the HUB of the car and giving the driver access to all kind of new functionalities to access, evaluate and analyze data, helping to improve on track. The car is still powered by the 4th Gen RPE-Suzuki engine including a dry sump oil system as standard that is hooked up to a six-speed sequential gearbox with paddle shift and auto-blip function and a Quaife limited-slip differential.",
    "background_color": "fbfbfb",
    "icon_url": "https://steamuserimages-a.akamaihd.net/ugc/1035211763835314160/266BFB6E0A6295628F9B67D2010869F8F498E403/?interpolation=lanczos-none&output-format=jpeg&output-quality=95&fit=inside%7C358%3A358&composite-to=*,*%7C358%3A358&background-color=black",
    "icon_url_large": "https://steamuserimages-a.akamaihd.net/ugc/1035211763835314160/266BFB6E0A6295628F9B67D2010869F8F498E403/",
    "name_color": "00c3ef",
    "store_tags": "cars",
    "tradable": false,
    "marketable": false,
    "commodity": false,
    "workshopid": 2113612677,
    "key": "GyzupugdLyVsjFa1"
  }
]