﻿[
  {
    "name": "stat_rides_started",
    "defaultvalue": 0,
    "displayName": "Rides Started"
  },
  {
    "name": "stat_prev_sotd_time",
    "defaultvalue": 0,
    "displayName": "Last Song of the Day ride time"
  },
  {
    "name": "stat_unique_sotds_played",
    "defaultvalue": 0,
    "displayName": "Songs of the Day ridden"
  },
  {
    "name": "stat_mono_cumulative_points",
    "defaultvalue": 0,
    "displayName": "Cumulative Mono Points"
  },
  {
    "name": "stat_mono_cumulative_billions",
    "defaultvalue": 0,
    "displayName": "Cumulative Mono Billions"
  }
]