﻿[
  {
    "name": "Hund_Millionaire",
    "defaultvalue": 0,
    "displayName": "Millionaire's Club",
    "hidden": 0,
    "description": "Have a budget of over 100 million",
    "icon": "https://steamcdn-a.akamaihd.net/steamcommunity/public/images/apps/415200/52a5a55f938790f004d917fbe2d32fcadba1f4da.jpg",
    "icongray": "https://steamcdn-a.akamaihd.net/steamcommunity/public/images/apps/415200/5efec1d53386721ca841a279c530ee6d809bee9a.jpg"
  },
  {
    "name": "Ten_Pole_Positions_In_One_Season",
    "defaultvalue": 0,
    "displayName": "Top Grid Guru",
    "hidden": 0,
    "description": "Start 10 races on pole position in one season",
    "icon": "https://steamcdn-a.akamaihd.net/steamcommunity/public/images/apps/415200/b8feaf9945b1b9693400b20a47b5425b8757262c.jpg",
    "icongray": "https://steamcdn-a.akamaihd.net/steamcommunity/public/images/apps/415200/5efec1d53386721ca841a279c530ee6d809bee9a.jpg"
  },
  {
    "name": "Last_To_First_In_One_Race",
    "defaultvalue": 0,
    "displayName": "Backmarker to Best",
    "hidden": 0,
    "description": "Have a driver win a race after starting last on the grid",
    "icon": "https://steamcdn-a.akamaihd.net/steamcommunity/public/images/apps/415200/9c27b211eae10484df62a0896dcb1372010d22c6.jpg",
    "icongray": "https://steamcdn-a.akamaihd.net/steamcommunity/public/images/apps/415200/5efec1d53386721ca841a279c530ee6d809bee9a.jpg"
  },
  {
    "name": "Hire_A_Driver",
    "defaultvalue": 0,
    "displayName": "Welcome Aboard!",
    "hidden": 0,
    "description": "Hire a driver",
    "icon": "https://steamcdn-a.akamaihd.net/steamcommunity/public/images/apps/415200/942575634ee65ba7dd66430a26ec070c7029c46b.jpg",
    "icongray": "https://steamcdn-a.akamaihd.net/steamcommunity/public/images/apps/415200/5efec1d53386721ca841a279c530ee6d809bee9a.jpg"
  },
  {
    "name": "Fire_A_Driver",
    "defaultvalue": 0,
    "displayName": "Retired",
    "hidden": 0,
    "description": "Fire a driver",
    "icon": "https://steamcdn-a.akamaihd.net/steamcommunity/public/images/apps/415200/966389b44811c56431c56cbba86b2551c830b996.jpg",
    "icongray": "https://steamcdn-a.akamaihd.net/steamcommunity/public/images/apps/415200/5efec1d53386721ca841a279c530ee6d809bee9a.jpg"
  },
  {
    "name": "Hire_Driver_20m_pa",
    "defaultvalue": 0,
    "displayName": "Kaching!",
    "hidden": 0,
    "description": "Hire a driver with an agreed wage of 20 million a year or more",
    "icon": "https://steamcdn-a.akamaihd.net/steamcommunity/public/images/apps/415200/1e35b872cb35c2d4fb6e4d7cf73a2f0931c3cbcf.jpg",
    "icongray": "https://steamcdn-a.akamaihd.net/steamcommunity/public/images/apps/415200/5efec1d53386721ca841a279c530ee6d809bee9a.jpg"
  },
  {
    "name": "Bottom_To_Top",
    "defaultvalue": 0,
    "displayName": "Every Dog Has Its Day",
    "hidden": 0,
    "description": "Complete the \"Underdog Challenge\"",
    "icon": "https://steamcdn-a.akamaihd.net/steamcommunity/public/images/apps/415200/cde97242a44bfd736d590820e67ddeafe3feb1b7.jpg",
    "icongray": "https://steamcdn-a.akamaihd.net/steamcommunity/public/images/apps/415200/5efec1d53386721ca841a279c530ee6d809bee9a.jpg"
  },
  {
    "name": "Race_On_All_Track_Variations",
    "defaultvalue": 0,
    "displayName": "Track Literate",
    "hidden": 0,
    "description": "Finish a race on every track variation of every track",
    "icon": "https://steamcdn-a.akamaihd.net/steamcommunity/public/images/apps/415200/021f51c8c751f468c30f77b585ddb0b2ff18616e.jpg",
    "icongray": "https://steamcdn-a.akamaihd.net/steamcommunity/public/images/apps/415200/5efec1d53386721ca841a279c530ee6d809bee9a.jpg"
  },
  {
    "name": "Win_1_Race",
    "defaultvalue": 0,
    "displayName": "\"In Order to Finish First, You First Have To Finish.\"",
    "hidden": 0,
    "description": "Have a driver win a race",
    "icon": "https://steamcdn-a.akamaihd.net/steamcommunity/public/images/apps/415200/2742c103e01e1ce72d8f42ab369aaa2a28bb077a.jpg",
    "icongray": "https://steamcdn-a.akamaihd.net/steamcommunity/public/images/apps/415200/5efec1d53386721ca841a279c530ee6d809bee9a.jpg"
  },
  {
    "name": "Win_3_Races_In_A_Row",
    "defaultvalue": 0,
    "displayName": "Hat-Trick",
    "hidden": 0,
    "description": "Have one of your drivers win 3 races consecutively",
    "icon": "https://steamcdn-a.akamaihd.net/steamcommunity/public/images/apps/415200/e2db9b47e870dcafcab84c0f604a7dfc17f6b5ab.jpg",
    "icongray": "https://steamcdn-a.akamaihd.net/steamcommunity/public/images/apps/415200/5efec1d53386721ca841a279c530ee6d809bee9a.jpg"
  },
  {
    "name": "Win_Practice",
    "defaultvalue": 0,
    "displayName": "Practice Makes Perfect!",
    "hidden": 0,
    "description": "Finish top in practice",
    "icon": "https://steamcdn-a.akamaihd.net/steamcommunity/public/images/apps/415200/a69726d270b6616ea50177b9afd17416e49d2985.jpg",
    "icongray": "https://steamcdn-a.akamaihd.net/steamcommunity/public/images/apps/415200/5efec1d53386721ca841a279c530ee6d809bee9a.jpg"
  },
  {
    "name": "Qualify_3_Poles_In_A_Row",
    "defaultvalue": 0,
    "displayName": "Lap Time Leader",
    "hidden": 0,
    "description": "Qualify in pole position 3 times in a row",
    "icon": "https://steamcdn-a.akamaihd.net/steamcommunity/public/images/apps/415200/6283f7142ae3b36c48db895dcabfcae11d963201.jpg",
    "icongray": "https://steamcdn-a.akamaihd.net/steamcommunity/public/images/apps/415200/5efec1d53386721ca841a279c530ee6d809bee9a.jpg"
  },
  {
    "name": "Qualify_Pole_By_1s",
    "defaultvalue": 0,
    "displayName": "Hot Lap",
    "hidden": 0,
    "description": "Qualify in pole position by over a second",
    "icon": "https://steamcdn-a.akamaihd.net/steamcommunity/public/images/apps/415200/dc14eb822d605040ea52ea44c4405591ddcc2cc7.jpg",
    "icongray": "https://steamcdn-a.akamaihd.net/steamcommunity/public/images/apps/415200/5efec1d53386721ca841a279c530ee6d809bee9a.jpg"
  },
  {
    "name": "Win_Race_By_1m",
    "defaultvalue": 0,
    "displayName": "Blue Flag",
    "hidden": 0,
    "description": "Win a race by over a minute",
    "icon": "https://steamcdn-a.akamaihd.net/steamcommunity/public/images/apps/415200/52412510ff0bc864f1a6f27bf6b3163fa041d003.jpg",
    "icongray": "https://steamcdn-a.akamaihd.net/steamcommunity/public/images/apps/415200/5efec1d53386721ca841a279c530ee6d809bee9a.jpg"
  },
  {
    "name": "Finish_Race_With_5pct_Engine",
    "defaultvalue": 0,
    "displayName": "\"Do You Smell Smoke?\"",
    "hidden": 0,
    "description": "Have a driver pass the chequered flag in a race with their engine's condition under 5%",
    "icon": "https://steamcdn-a.akamaihd.net/steamcommunity/public/images/apps/415200/116b93687c0c20b8af3e9646130bf2d2c4330456.jpg",
    "icongray": "https://steamcdn-a.akamaihd.net/steamcommunity/public/images/apps/415200/5efec1d53386721ca841a279c530ee6d809bee9a.jpg"
  },
  {
    "name": "Finish_Race_Using_All_Compounds",
    "defaultvalue": 0,
    "displayName": "Variety Is The Spice Of Life",
    "hidden": 0,
    "description": "Finish a race having used 3 different tyre compound types on one car",
    "icon": "https://steamcdn-a.akamaihd.net/steamcommunity/public/images/apps/415200/04f2812993bfb8ef425a8112dca85a277e9a1070.jpg",
    "icongray": "https://steamcdn-a.akamaihd.net/steamcommunity/public/images/apps/415200/5efec1d53386721ca841a279c530ee6d809bee9a.jpg"
  },
  {
    "name": "Reach_Max_Marketability",
    "defaultvalue": 0,
    "displayName": "So Hot Right Now",
    "hidden": 0,
    "description": "Reach 100% Marketability",
    "icon": "https://steamcdn-a.akamaihd.net/steamcommunity/public/images/apps/415200/c6cd8c384ea2b92b19daab2386db7644ade485e0.jpg",
    "icongray": "https://steamcdn-a.akamaihd.net/steamcommunity/public/images/apps/415200/5efec1d53386721ca841a279c530ee6d809bee9a.jpg"
  },
  {
    "name": "Fully_Upgrade_HQ",
    "defaultvalue": 0,
    "displayName": "State of the Art",
    "hidden": 0,
    "description": "Fully upgrade your HQ",
    "icon": "https://steamcdn-a.akamaihd.net/steamcommunity/public/images/apps/415200/405ffb70098753ef69e9db2216333c1bfe7d5423.jpg",
    "icongray": "https://steamcdn-a.akamaihd.net/steamcommunity/public/images/apps/415200/5efec1d53386721ca841a279c530ee6d809bee9a.jpg"
  },
  {
    "name": "Podium_Reserve_Driver",
    "defaultvalue": 0,
    "displayName": "Drivers Are Overrated",
    "hidden": 0,
    "description": "Have a temporary driver get a podium position in a race",
    "icon": "https://steamcdn-a.akamaihd.net/steamcommunity/public/images/apps/415200/b00e8df94a7b980c2b007f9af0636e8eab3c5fe2.jpg",
    "icongray": "https://steamcdn-a.akamaihd.net/steamcommunity/public/images/apps/415200/5efec1d53386721ca841a279c530ee6d809bee9a.jpg"
  },
  {
    "name": "Hire_Driver_Mech_Combo",
    "defaultvalue": 0,
    "displayName": "Dream Team",
    "hidden": 0,
    "description": "Hire a driver and mechanic who have worked together in the past",
    "icon": "https://steamcdn-a.akamaihd.net/steamcommunity/public/images/apps/415200/955e06aef1e284a22a91e8b70a708869a2acf978.jpg",
    "icongray": "https://steamcdn-a.akamaihd.net/steamcommunity/public/images/apps/415200/5efec1d53386721ca841a279c530ee6d809bee9a.jpg"
  },
  {
    "name": "Promote_Reserve_Driver",
    "defaultvalue": 0,
    "displayName": "Time To Shine",
    "hidden": 0,
    "description": "Promote a reserve driver",
    "icon": "https://steamcdn-a.akamaihd.net/steamcommunity/public/images/apps/415200/36e846a0ab34cecc765b0dc702675f5cd80a1ee0.jpg",
    "icongray": "https://steamcdn-a.akamaihd.net/steamcommunity/public/images/apps/415200/5efec1d53386721ca841a279c530ee6d809bee9a.jpg"
  },
  {
    "name": "Both_Driver_Mech_Relationships_Maxed",
    "defaultvalue": 0,
    "displayName": "Relationship Counsellor",
    "hidden": 0,
    "description": "Max out the driver/mechanic relationship for both your No. 1 and No. 2 drivers",
    "icon": "https://steamcdn-a.akamaihd.net/steamcommunity/public/images/apps/415200/78c486b40a3df4f5920f33aec76053ee86e0dd01.jpg",
    "icongray": "https://steamcdn-a.akamaihd.net/steamcommunity/public/images/apps/415200/5efec1d53386721ca841a279c530ee6d809bee9a.jpg"
  },
  {
    "name": "Scout_Five_Star_Driver",
    "defaultvalue": 0,
    "displayName": "Struck Gold",
    "hidden": 0,
    "description": "Scout a 4.5 star (or above) driver",
    "icon": "https://steamcdn-a.akamaihd.net/steamcommunity/public/images/apps/415200/223336e516f11d3b5582a5fbfb4c44638fe349d0.jpg",
    "icongray": "https://steamcdn-a.akamaihd.net/steamcommunity/public/images/apps/415200/5efec1d53386721ca841a279c530ee6d809bee9a.jpg"
  },
  {
    "name": "Scout_Five_Star_Pot_Youngster",
    "defaultvalue": 0,
    "displayName": "Rising Star",
    "hidden": 0,
    "description": "Scout an under-18 driver with 5-star potential",
    "icon": "https://steamcdn-a.akamaihd.net/steamcommunity/public/images/apps/415200/d1ec928b297dd5ade6c27785ba57f700d783931e.jpg",
    "icongray": "https://steamcdn-a.akamaihd.net/steamcommunity/public/images/apps/415200/5efec1d53386721ca841a279c530ee6d809bee9a.jpg"
  },
  {
    "name": "Max_Morale_Driver",
    "defaultvalue": 0,
    "displayName": "World's Best Boss",
    "hidden": 0,
    "description": "Have a driver reach 100% morale",
    "icon": "https://steamcdn-a.akamaihd.net/steamcommunity/public/images/apps/415200/b54d0b470d851363917e04b38ba38a6d451ed9cc.jpg",
    "icongray": "https://steamcdn-a.akamaihd.net/steamcommunity/public/images/apps/415200/5efec1d53386721ca841a279c530ee6d809bee9a.jpg"
  },
  {
    "name": "Min_Morale_Driver",
    "defaultvalue": 0,
    "displayName": "You're Here to Race, Not to Have Fun...",
    "hidden": 0,
    "description": "Have a driver reach 1% morale",
    "icon": "https://steamcdn-a.akamaihd.net/steamcommunity/public/images/apps/415200/480dcbfd12324c3d971d7b2440ca48c99c73fe9c.jpg",
    "icongray": "https://steamcdn-a.akamaihd.net/steamcommunity/public/images/apps/415200/5efec1d53386721ca841a279c530ee6d809bee9a.jpg"
  },
  {
    "name": "Win_A_Vote",
    "defaultvalue": 0,
    "displayName": "Democracy Reigns",
    "hidden": 0,
    "description": "Win a vote",
    "icon": "https://steamcdn-a.akamaihd.net/steamcommunity/public/images/apps/415200/88cae1c80560874862fee178afd3f7154ddfabcb.jpg",
    "icongray": "https://steamcdn-a.akamaihd.net/steamcommunity/public/images/apps/415200/5efec1d53386721ca841a279c530ee6d809bee9a.jpg"
  },
  {
    "name": "Win_A_Vote_With_3_Power",
    "defaultvalue": 0,
    "displayName": "Friends in High Places",
    "hidden": 0,
    "description": "Win a vote with 3 voting power or more",
    "icon": "https://steamcdn-a.akamaihd.net/steamcommunity/public/images/apps/415200/d00ba19be6e33ec4277daaadb25374ae4ab57ced.jpg",
    "icongray": "https://steamcdn-a.akamaihd.net/steamcommunity/public/images/apps/415200/5efec1d53386721ca841a279c530ee6d809bee9a.jpg"
  },
  {
    "name": "Build_Level_5_Part",
    "defaultvalue": 0,
    "displayName": "Tinkerer",
    "hidden": 0,
    "description": "Build a 'Legendary' part",
    "icon": "https://steamcdn-a.akamaihd.net/steamcommunity/public/images/apps/415200/4ed2061cbd82e54a5584b36ea27bec161797dcb2.jpg",
    "icongray": "https://steamcdn-a.akamaihd.net/steamcommunity/public/images/apps/415200/5efec1d53386721ca841a279c530ee6d809bee9a.jpg"
  },
  {
    "name": "Fit_All_Level_5_Parts",
    "defaultvalue": 0,
    "displayName": "Rattletrap to Pocket Rocket",
    "hidden": 0,
    "description": "Fit a car exclusively with 'Legendary' parts",
    "icon": "https://steamcdn-a.akamaihd.net/steamcommunity/public/images/apps/415200/d437f9a1a64c33528206159ef4a4db94d3c88deb.jpg",
    "icongray": "https://steamcdn-a.akamaihd.net/steamcommunity/public/images/apps/415200/5efec1d53386721ca841a279c530ee6d809bee9a.jpg"
  },
  {
    "name": "Spend_30m_On_New_Car",
    "defaultvalue": 0,
    "displayName": "Nothing But The Best",
    "hidden": 0,
    "description": "Spend over 30 million on a new season's car",
    "icon": "https://steamcdn-a.akamaihd.net/steamcommunity/public/images/apps/415200/e8051ef6c4a59e0a989d1471e3bcf5875b3f9ed3.jpg",
    "icongray": "https://steamcdn-a.akamaihd.net/steamcommunity/public/images/apps/415200/5efec1d53386721ca841a279c530ee6d809bee9a.jpg"
  },
  {
    "name": "Win_Any_Champ_With_Min_HQ",
    "defaultvalue": 0,
    "displayName": "I like it how it is!",
    "hidden": 0,
    "description": "Win a championship by going through the whole season without building or upgrading anything in the HQ.",
    "icon": "https://steamcdn-a.akamaihd.net/steamcommunity/public/images/apps/415200/9a29d13aeaa7e2e9c13614dd68e8534674e99af6.jpg",
    "icongray": "https://steamcdn-a.akamaihd.net/steamcommunity/public/images/apps/415200/5efec1d53386721ca841a279c530ee6d809bee9a.jpg"
  },
  {
    "name": "Sign_Sponsor_1m",
    "defaultvalue": 0,
    "displayName": "Jet Skis for Everyone!",
    "hidden": 0,
    "description": "Sign a sponsorship deal worth over 1 million",
    "icon": "https://steamcdn-a.akamaihd.net/steamcommunity/public/images/apps/415200/2fa88d5fcc71eb0ce813559908c6a4cf0d4c988c.jpg",
    "icongray": "https://steamcdn-a.akamaihd.net/steamcommunity/public/images/apps/415200/5efec1d53386721ca841a279c530ee6d809bee9a.jpg"
  },
  {
    "name": "Sign_Five_Star_Sponsor",
    "defaultvalue": 0,
    "displayName": "I'm Kind of a Big Deal...",
    "hidden": 0,
    "description": "Sign a 5-star sponsor",
    "icon": "https://steamcdn-a.akamaihd.net/steamcommunity/public/images/apps/415200/7b174e433439e0669f12379093fcc28833475fae.jpg",
    "icongray": "https://steamcdn-a.akamaihd.net/steamcommunity/public/images/apps/415200/5efec1d53386721ca841a279c530ee6d809bee9a.jpg"
  },
  {
    "name": "Win_Team_Champ",
    "defaultvalue": 0,
    "displayName": "No \"I\" In Team",
    "hidden": 0,
    "description": "Win the Teams' Championship",
    "icon": "https://steamcdn-a.akamaihd.net/steamcommunity/public/images/apps/415200/2aee3ffadf1833966c1c9493513c775e60ecb6d5.jpg",
    "icongray": "https://steamcdn-a.akamaihd.net/steamcommunity/public/images/apps/415200/5efec1d53386721ca841a279c530ee6d809bee9a.jpg"
  },
  {
    "name": "Win_Both_Champ",
    "defaultvalue": 0,
    "displayName": "Pit Wall Wunderkind",
    "hidden": 0,
    "description": "Win both the Teams' and Drivers' Championships in one season",
    "icon": "https://steamcdn-a.akamaihd.net/steamcommunity/public/images/apps/415200/52ec6db495afbe25bcb0fc7887deb04fa1b31f98.jpg",
    "icongray": "https://steamcdn-a.akamaihd.net/steamcommunity/public/images/apps/415200/5efec1d53386721ca841a279c530ee6d809bee9a.jpg"
  },
  {
    "name": "Win_Driver_Champ",
    "defaultvalue": 0,
    "displayName": "\"I Like to Race, Not to Do Laps Alone\"",
    "hidden": 0,
    "description": "Win a 'Driver's Championship'",
    "icon": "https://steamcdn-a.akamaihd.net/steamcommunity/public/images/apps/415200/6354ba149a560df2792022cd3ecce8a0f7e7b9a8.jpg",
    "icongray": "https://steamcdn-a.akamaihd.net/steamcommunity/public/images/apps/415200/5efec1d53386721ca841a279c530ee6d809bee9a.jpg"
  },
  {
    "name": "Win_Any_Champ_No_Part_Upgrades",
    "defaultvalue": 0,
    "displayName": "If It Ain't Broke...",
    "hidden": 0,
    "description": "Win a championship by going through the whole season without improving the performance or reliability of any car parts through the Part Improvement screen.",
    "icon": "https://steamcdn-a.akamaihd.net/steamcommunity/public/images/apps/415200/8e1da225413d98ea2c05cceb8632de0d1570e0f3.jpg",
    "icongray": "https://steamcdn-a.akamaihd.net/steamcommunity/public/images/apps/415200/5efec1d53386721ca841a279c530ee6d809bee9a.jpg"
  },
  {
    "name": "Win_Any_Champ_No_Sponsors",
    "defaultvalue": 0,
    "displayName": "Money's Overrated",
    "hidden": 0,
    "description": "Win a championship by going through the whole season without signing any new sponsors.",
    "icon": "https://steamcdn-a.akamaihd.net/steamcommunity/public/images/apps/415200/67f0330fc2cdf326718f5406fb1f3a4cb2781dc1.jpg",
    "icongray": "https://steamcdn-a.akamaihd.net/steamcommunity/public/images/apps/415200/5efec1d53386721ca841a279c530ee6d809bee9a.jpg"
  },
  {
    "name": "Finish_A_Season",
    "defaultvalue": 0,
    "displayName": "Seasoned",
    "hidden": 0,
    "description": "Complete a Season",
    "icon": "https://steamcdn-a.akamaihd.net/steamcommunity/public/images/apps/415200/76ac6ae7e1bb433af38a0bc71bd649dd73b29089.jpg",
    "icongray": "https://steamcdn-a.akamaihd.net/steamcommunity/public/images/apps/415200/5efec1d53386721ca841a279c530ee6d809bee9a.jpg"
  },
  {
    "name": "Win_7_Champs",
    "defaultvalue": 0,
    "displayName": "\"Let's Put it This Way, I Like Number Seven.\"",
    "hidden": 0,
    "description": "Win 7 'Driver's Championships'",
    "icon": "https://steamcdn-a.akamaihd.net/steamcommunity/public/images/apps/415200/26baaf4ccb75881ab69b3214ae03faacbbb37fc2.jpg",
    "icongray": "https://steamcdn-a.akamaihd.net/steamcommunity/public/images/apps/415200/5efec1d53386721ca841a279c530ee6d809bee9a.jpg"
  },
  {
    "name": "Avoid_Chairman_Ultimatum",
    "defaultvalue": 0,
    "displayName": "\"You Can Cut The Tension With a Cricket Stump\"",
    "hidden": 0,
    "description": "Survived the chairman's ultimatum",
    "icon": "https://steamcdn-a.akamaihd.net/steamcommunity/public/images/apps/415200/c47cd2e0c69dea457e940909bb1989530ead7f7e.jpg",
    "icongray": "https://steamcdn-a.akamaihd.net/steamcommunity/public/images/apps/415200/5efec1d53386721ca841a279c530ee6d809bee9a.jpg"
  },
  {
    "name": "Get_Fired",
    "defaultvalue": 0,
    "displayName": "Black Flag",
    "hidden": 0,
    "description": "Get fired",
    "icon": "https://steamcdn-a.akamaihd.net/steamcommunity/public/images/apps/415200/76135d95fec547d5d319a554370478ba55ceedee.jpg",
    "icongray": "https://steamcdn-a.akamaihd.net/steamcommunity/public/images/apps/415200/5efec1d53386721ca841a279c530ee6d809bee9a.jpg"
  },
  {
    "name": "Get_Hired",
    "defaultvalue": 0,
    "displayName": "Re-Entering",
    "hidden": 0,
    "description": "Get hired",
    "icon": "https://steamcdn-a.akamaihd.net/steamcommunity/public/images/apps/415200/23a2bf3357f7b6b7d2b3bd41a43e4511dca4e40b.jpg",
    "icongray": "https://steamcdn-a.akamaihd.net/steamcommunity/public/images/apps/415200/5efec1d53386721ca841a279c530ee6d809bee9a.jpg"
  },
  {
    "name": "Bottom_To_Top_Manager",
    "defaultvalue": 0,
    "displayName": "Managerial Mogul",
    "hidden": 0,
    "description": "Complete the 'Top Manager' challenge",
    "icon": "https://steamcdn-a.akamaihd.net/steamcommunity/public/images/apps/415200/b13db06dd2bd91cb7ec4ec35de3e50e97705a073.jpg",
    "icongray": "https://steamcdn-a.akamaihd.net/steamcommunity/public/images/apps/415200/5efec1d53386721ca841a279c530ee6d809bee9a.jpg"
  },
  {
    "name": "Rogue_Driver_Victory",
    "defaultvalue": 0,
    "displayName": "\"Just Leave Me Alone, I Know What I'm Doing\"",
    "hidden": 0,
    "description": "Have a driver win a race while they have 'Gone Rogue'",
    "icon": "https://steamcdn-a.akamaihd.net/steamcommunity/public/images/apps/415200/15b37314af7c27ee584c760c06280027f1cb5697.jpg",
    "icongray": "https://steamcdn-a.akamaihd.net/steamcommunity/public/images/apps/415200/5efec1d53386721ca841a279c530ee6d809bee9a.jpg"
  },
  {
    "name": "Finish_First_Race",
    "defaultvalue": 0,
    "displayName": "Chequered Flag",
    "hidden": 0,
    "description": "Finish your first race",
    "icon": "https://steamcdn-a.akamaihd.net/steamcommunity/public/images/apps/415200/73f38a078760505c2c5b615fe9b33818f5adc5bc.jpg",
    "icongray": "https://steamcdn-a.akamaihd.net/steamcommunity/public/images/apps/415200/5efec1d53386721ca841a279c530ee6d809bee9a.jpg"
  },
  {
    "name": "Caught_Breaking_Rules",
    "defaultvalue": 0,
    "displayName": "It Came Like That!",
    "hidden": 0,
    "description": "Have a risky part be discoverd by the GMA",
    "icon": "https://steamcdn-a.akamaihd.net/steamcommunity/public/images/apps/415200/301e2e1eba09d037ad5a21621524f80ab2406682.jpg",
    "icongray": "https://steamcdn-a.akamaihd.net/steamcommunity/public/images/apps/415200/5efec1d53386721ca841a279c530ee6d809bee9a.jpg"
  },
  {
    "name": "Win_WMC_With_Silva",
    "defaultvalue": 0,
    "displayName": "Silva's Legacy",
    "hidden": 0,
    "description": "Win the WMC's 'Team' or 'Driver' championship as the race team Silva",
    "icon": "https://steamcdn-a.akamaihd.net/steamcommunity/public/images/apps/415200/63189095e0a5fb3f13853e3767326d32cba1e91f.jpg",
    "icongray": "https://steamcdn-a.akamaihd.net/steamcommunity/public/images/apps/415200/5efec1d53386721ca841a279c530ee6d809bee9a.jpg"
  },
  {
    "name": "Win_Driver_Champ_Predator",
    "defaultvalue": 0,
    "displayName": "Predator",
    "hidden": 0,
    "description": "Win a 'Driver's Championship' as Predator Team Racing",
    "icon": "https://steamcdn-a.akamaihd.net/steamcommunity/public/images/apps/415200/ffc37b86f81a72c6bebe6b3ddac02166cf4bc0b5.jpg",
    "icongray": "https://steamcdn-a.akamaihd.net/steamcommunity/public/images/apps/415200/5efec1d53386721ca841a279c530ee6d809bee9a.jpg"
  },
  {
    "name": "Win_WMC_With_Kruger",
    "defaultvalue": 0,
    "displayName": "Former Glory",
    "hidden": 0,
    "description": "Win the WMC's 'Team' or 'Driver' championship as Kruger Motorsport",
    "icon": "https://steamcdn-a.akamaihd.net/steamcommunity/public/images/apps/415200/351048acc99744fcaca1ef0969350cd8eac4b308.jpg",
    "icongray": "https://steamcdn-a.akamaihd.net/steamcommunity/public/images/apps/415200/5efec1d53386721ca841a279c530ee6d809bee9a.jpg"
  },
  {
    "name": "Hire_Five_Star_Designer_Zamp",
    "defaultvalue": 0,
    "displayName": "Living Up To Their Namesake",
    "hidden": 0,
    "description": "Hire a 5-star designer as Zampelli Engineering",
    "icon": "https://steamcdn-a.akamaihd.net/steamcommunity/public/images/apps/415200/9a031fa3405997a123582497177fa91cbd75e95d.jpg",
    "icongray": "https://steamcdn-a.akamaihd.net/steamcommunity/public/images/apps/415200/5efec1d53386721ca841a279c530ee6d809bee9a.jpg"
  },
  {
    "name": "Team_Champ_Thornton",
    "defaultvalue": 0,
    "displayName": "Thorn in My Side",
    "hidden": 0,
    "description": "Win the Teams' Championship as Thornton Motorsport",
    "icon": "https://steamcdn-a.akamaihd.net/steamcommunity/public/images/apps/415200/e1b5dc510f09771c0d414d6be94a19cf7eb01de0.jpg",
    "icongray": "https://steamcdn-a.akamaihd.net/steamcommunity/public/images/apps/415200/5efec1d53386721ca841a279c530ee6d809bee9a.jpg"
  },
  {
    "name": "Win_Both_Champs_Together_Chariot",
    "defaultvalue": 0,
    "displayName": "Swing Low...",
    "hidden": 0,
    "description": "In the same season, win both the Teams' and Drivers' Championships in WMC as Chariot Motor Group",
    "icon": "https://steamcdn-a.akamaihd.net/steamcommunity/public/images/apps/415200/e72d2a4ebb97aebe58b4ebbfaca97cb0ad730f6e.jpg",
    "icongray": "https://steamcdn-a.akamaihd.net/steamcommunity/public/images/apps/415200/5efec1d53386721ca841a279c530ee6d809bee9a.jpg"
  },
  {
    "name": "Create_A_Team",
    "defaultvalue": 0,
    "displayName": "Building a Legend",
    "hidden": 0,
    "description": "Create a new team",
    "icon": "https://steamcdn-a.akamaihd.net/steamcommunity/public/images/apps/415200/085253b0bfb06904ebcdd63ccc2b48754a87ff5c.jpg",
    "icongray": "https://steamcdn-a.akamaihd.net/steamcommunity/public/images/apps/415200/5efec1d53386721ca841a279c530ee6d809bee9a.jpg"
  },
  {
    "name": "Win_Both_WMC_Custom_Team",
    "defaultvalue": 0,
    "displayName": "Ultimate Victory",
    "hidden": 0,
    "description": "Win the WMC’s ‘Driver’ and ‘Team’ Championship in the same year with a customly created new team",
    "icon": "https://steamcdn-a.akamaihd.net/steamcommunity/public/images/apps/415200/2940c5bc26d26774438ac1f68a56c40e05b54a1d.jpg",
    "icongray": "https://steamcdn-a.akamaihd.net/steamcommunity/public/images/apps/415200/5efec1d53386721ca841a279c530ee6d809bee9a.jpg"
  },
  {
    "name": "Win_Both_IGTC_Custom_Team",
    "defaultvalue": 0,
    "displayName": "Adaptable ",
    "hidden": 0,
    "description": "Win the IGTC’s ‘Driver’ and ‘Team’ Championship in the same year with a customly created new team",
    "icon": "https://steamcdn-a.akamaihd.net/steamcommunity/public/images/apps/415200/258e5650ae469534b029d4d69de337787c86bc59.jpg",
    "icongray": "https://steamcdn-a.akamaihd.net/steamcommunity/public/images/apps/415200/5efec1d53386721ca841a279c530ee6d809bee9a.jpg"
  },
  {
    "name": "Will_Evans_Win_Race",
    "defaultvalue": 0,
    "displayName": "Where There’s a Will There’s a Way",
    "hidden": 0,
    "description": "Have the driver William Evans win a race",
    "icon": "https://steamcdn-a.akamaihd.net/steamcommunity/public/images/apps/415200/73810b707ef7ea5d46a7ea98b7c0e688805a6b83.jpg",
    "icongray": "https://steamcdn-a.akamaihd.net/steamcommunity/public/images/apps/415200/5efec1d53386721ca841a279c530ee6d809bee9a.jpg"
  },
  {
    "name": "Win_By_2017_ERS_Predator",
    "defaultvalue": 0,
    "displayName": "Hasty Hunters",
    "hidden": 0,
    "description": "Win the ERS ‘Team Championship’ as Predator Team Racing by 2017",
    "icon": "https://steamcdn-a.akamaihd.net/steamcommunity/public/images/apps/415200/df86ff3c2ddc8d280a103a97fdd21d138fe7524a.jpg",
    "icongray": "https://steamcdn-a.akamaihd.net/steamcommunity/public/images/apps/415200/5efec1d53386721ca841a279c530ee6d809bee9a.jpg"
  },
  {
    "name": "Win_By_2018_WMC_Kitano",
    "defaultvalue": 0,
    "displayName": "Waiting in the Wings",
    "hidden": 0,
    "description": "Win the WMC’s ‘Team Championship’ by the end of the 2018 season as Kitano Sport",
    "icon": "https://steamcdn-a.akamaihd.net/steamcommunity/public/images/apps/415200/0fef76f3ca180040c6b9add2dd6e499b66f5416e.jpg",
    "icongray": "https://steamcdn-a.akamaihd.net/steamcommunity/public/images/apps/415200/5efec1d53386721ca841a279c530ee6d809bee9a.jpg"
  },
  {
    "name": "Rafael_Win_2016_IGTC_Driver_as_Oranje",
    "defaultvalue": 0,
    "displayName": "Once a King, Always a King",
    "hidden": 0,
    "description": "Have the driver Rafael Rodrigues win the 2016 IGTC ‘Driver’s Championship’ as Oranje GT",
    "icon": "https://steamcdn-a.akamaihd.net/steamcommunity/public/images/apps/415200/2a291b843662abb46f6da6a2c6c691add34ad6ad.jpg",
    "icongray": "https://steamcdn-a.akamaihd.net/steamcommunity/public/images/apps/415200/5efec1d53386721ca841a279c530ee6d809bee9a.jpg"
  },
  {
    "name": "Challenged",
    "defaultvalue": 0,
    "displayName": "Challenged",
    "hidden": 0,
    "description": "Successfully complete your first challenge",
    "icon": "https://steamcdn-a.akamaihd.net/steamcommunity/public/images/apps/415200/0d9fc46d4748e2957a46644f78f7d20f193c6320.jpg",
    "icongray": "https://steamcdn-a.akamaihd.net/steamcommunity/public/images/apps/415200/27befb6b896347207bf7ef11713f442393bdf05a.jpg"
  },
  {
    "name": "Rookie",
    "defaultvalue": 0,
    "displayName": "Rookie",
    "hidden": 0,
    "description": "Complete all challenges in the 'Rookie' Tier",
    "icon": "https://steamcdn-a.akamaihd.net/steamcommunity/public/images/apps/415200/1b48148a50f41e28644363b31afb53912d2cd098.jpg",
    "icongray": "https://steamcdn-a.akamaihd.net/steamcommunity/public/images/apps/415200/27befb6b896347207bf7ef11713f442393bdf05a.jpg"
  },
  {
    "name": "Pro",
    "defaultvalue": 0,
    "displayName": "Pro",
    "hidden": 0,
    "description": "Complete all challenges in the 'Pro' Tier",
    "icon": "https://steamcdn-a.akamaihd.net/steamcommunity/public/images/apps/415200/471ccfcf4d628d4c03e1af482a4106c4c5774168.jpg",
    "icongray": "https://steamcdn-a.akamaihd.net/steamcommunity/public/images/apps/415200/27befb6b896347207bf7ef11713f442393bdf05a.jpg"
  },
  {
    "name": "All_Star",
    "defaultvalue": 0,
    "displayName": "All-Star",
    "hidden": 0,
    "description": "Complete all challenges in the 'All-Star' Tier",
    "icon": "https://steamcdn-a.akamaihd.net/steamcommunity/public/images/apps/415200/fbfae9676dde7bb98644ab5c35281ee74d1b6d89.jpg",
    "icongray": "https://steamcdn-a.akamaihd.net/steamcommunity/public/images/apps/415200/27befb6b896347207bf7ef11713f442393bdf05a.jpg"
  },
  {
    "name": "Achievement_3_1",
    "defaultvalue": 0,
    "displayName": "Endurance Champion",
    "hidden": 0,
    "description": "Win the IEC-A",
    "icon": "https://steamcdn-a.akamaihd.net/steamcommunity/public/images/apps/415200/006f5122560bf7abceddc136a710ea74965649ad.jpg",
    "icongray": "https://steamcdn-a.akamaihd.net/steamcommunity/public/images/apps/415200/27befb6b896347207bf7ef11713f442393bdf05a.jpg"
  },
  {
    "name": "Achievement_3_2",
    "defaultvalue": 0,
    "displayName": "There's Always Time",
    "hidden": 0,
    "description": "Win an endurance race after being at least 120 seconds behind the leader in IEC-A",
    "icon": "https://steamcdn-a.akamaihd.net/steamcommunity/public/images/apps/415200/e0f0c481b5565405a6a24bdc1cd271d99dd34856.jpg",
    "icongray": "https://steamcdn-a.akamaihd.net/steamcommunity/public/images/apps/415200/27befb6b896347207bf7ef11713f442393bdf05a.jpg"
  },
  {
    "name": "Achievement_3_3",
    "defaultvalue": 0,
    "displayName": "Highway to the Danger Zone",
    "hidden": 0,
    "description": "Finish a race with a driver in the danger zone",
    "icon": "https://steamcdn-a.akamaihd.net/steamcommunity/public/images/apps/415200/8fad556b22a74fbc95d006bc0ad707eb29de6f68.jpg",
    "icongray": "https://steamcdn-a.akamaihd.net/steamcommunity/public/images/apps/415200/27befb6b896347207bf7ef11713f442393bdf05a.jpg"
  },
  {
    "name": "Achievement_3_4",
    "defaultvalue": 0,
    "displayName": "Rising Tigers",
    "hidden": 0,
    "description": "Get promoted to the IEC-A as the Sangju Tigers",
    "icon": "https://steamcdn-a.akamaihd.net/steamcommunity/public/images/apps/415200/a3b8b60363d2c9a1a53713f1b88eaa02cb822120.jpg",
    "icongray": "https://steamcdn-a.akamaihd.net/steamcommunity/public/images/apps/415200/27befb6b896347207bf7ef11713f442393bdf05a.jpg"
  },
  {
    "name": "Achievement_3_5",
    "defaultvalue": 0,
    "displayName": "Dynamic Duo",
    "hidden": 0,
    "description": "Win an endurance racing with only 2 drivers having driven",
    "icon": "https://steamcdn-a.akamaihd.net/steamcommunity/public/images/apps/415200/99fce57e544119ad2529be0b5af6b7dc31e9f9a3.jpg",
    "icongray": "https://steamcdn-a.akamaihd.net/steamcommunity/public/images/apps/415200/27befb6b896347207bf7ef11713f442393bdf05a.jpg"
  },
  {
    "name": "Achievement_3_6",
    "defaultvalue": 0,
    "displayName": "Jack of All Trades",
    "hidden": 0,
    "description": "Win the IEC-A championship with each of the three ERS types",
    "icon": "https://steamcdn-a.akamaihd.net/steamcommunity/public/images/apps/415200/bd1107e2b7fb5c63f70727ef0dba4d61978cfcc3.jpg",
    "icongray": "https://steamcdn-a.akamaihd.net/steamcommunity/public/images/apps/415200/27befb6b896347207bf7ef11713f442393bdf05a.jpg"
  },
  {
    "name": "Achievement_3_7",
    "defaultvalue": 0,
    "displayName": "Fastest Crew in the World",
    "hidden": 0,
    "description": "Do a sub 1.92 second pit stop (must include a tyre change)",
    "icon": "https://steamcdn-a.akamaihd.net/steamcommunity/public/images/apps/415200/5be2a85e493b34f1b5255176af01062d2dba9e9c.jpg",
    "icongray": "https://steamcdn-a.akamaihd.net/steamcommunity/public/images/apps/415200/27befb6b896347207bf7ef11713f442393bdf05a.jpg"
  },
  {
    "name": "Achievement_3_8",
    "defaultvalue": 0,
    "displayName": "20/20 Vision",
    "hidden": 0,
    "description": "Have a pit crew where each active member has a 20 rating for their job",
    "icon": "https://steamcdn-a.akamaihd.net/steamcommunity/public/images/apps/415200/e9db9b5f197ca10eade060b74fb9022a4bc0cfcf.jpg",
    "icongray": "https://steamcdn-a.akamaihd.net/steamcommunity/public/images/apps/415200/27befb6b896347207bf7ef11713f442393bdf05a.jpg"
  }
]