{
  "Releases": [
    "Windows"
  ],
  "Name": "Satisfactory Experimental",
  "AppId": "CrabTest",
  "Namespace": "crab",
  "ItemId": "ef4a63daa7d4420e91420a72050be89d",
  "ImageUrl": "https://cdn1.epicgames.com/crab/item/Landscape_2560x1440_pipes_logo-2560x1440-d3c3d99d3622e947daad667fd45b9afb.png",
  "Dlcs": {}
}