{
  "Releases": [
    "Windows"
  ],
  "Name": "Tormentor X Punisher",
  "AppId": "Goby",
  "Namespace": "51c19c28a7024793b9e38174d0e1634b",
  "ItemId": "68cd14c349dd4678ac1e8bb113bbf0da",
  "ImageUrl": "https://cdn1.epicgames.com/51c19c28a7024793b9e38174d0e1634b/item/EGS_BIRD BATH_ATOMICROPS_LANDSCAPE_IMAGE-2560x1440-444a2ed936764c3a72a90f7c103d22fa.jpg",
  "Dlcs": {}
}