﻿{
  "Dlcs": {
    "526060": {
      "Name": "Assetto Corsa - Porsche Pack I",
      "ImageUrl": "https://steamcdn-a.akamaihd.net/steam/apps/526060/header.jpg?t=1477411930"
    },
    "540710": {
      "Name": "Assetto Corsa - Porsche Pack II",
      "ImageUrl": "https://steamcdn-a.akamaihd.net/steam/apps/540710/header.jpg?t=1479835015"
    },
    "540711": {
      "Name": "Assetto Corsa - Porsche Pack III",
      "ImageUrl": "https://steamcdn-a.akamaihd.net/steam/apps/540711/header.jpg?t=1490198295"
    },
    "347990": {
      "Name": "Assetto Corsa - Dream Pack 1",
      "ImageUrl": "https://steamcdn-a.akamaihd.net/steam/apps/347990/header.jpg?t=1447368577"
    },
    "404430": {
      "Name": "Assetto Corsa - Dream Pack 2",
      "ImageUrl": "https://steamcdn-a.akamaihd.net/steam/apps/404430/header.jpg?t=1447378163"
    },
    "423630": {
      "Name": "Assetto Corsa - Dream Pack 3",
      "ImageUrl": "https://steamcdn-a.akamaihd.net/steam/apps/423630/header.jpg?t=1450200485"
    },
    "467980": {
      "Name": "Assetto corsa - Japanese Pack",
      "ImageUrl": "https://steamcdn-a.akamaihd.net/steam/apps/467980/header.jpg?t=1463593828"
    },
    "493190": {
      "Name": "Assetto Corsa - Red Pack",
      "ImageUrl": "https://steamcdn-a.akamaihd.net/steam/apps/493190/header.jpg?t=1495576889"
    },
    "509350": {
      "Name": "Assetto Corsa -Tripl3 Pack",
      "ImageUrl": "https://steamcdn-a.akamaihd.net/steam/apps/509350/header.jpg?t=1472230722"
    },
    "619680": {
      "Name": "Assetto Corsa - Ready To Race Pack",
      "ImageUrl": "https://steamcdn-a.akamaihd.net/steam/apps/619680/header.jpg?t=1495576847"
    },
    "675590": {
      "Name": "Assetto Corsa - Ferrari 70th Anniversary Pack",
      "ImageUrl": "https://steamcdn-a.akamaihd.net/steam/apps/675590/header.jpg?t=1505837444"
    }
  },
  "Name": "Assetto Corsa",
  "AppId": "244210",
  "ImageUrl": "https://steamcdn-a.akamaihd.net/steam/apps/244210/header.jpg?t=1574932208",
  "Languages": [
    "english",
    "italian",
    "schinese",
    "tchinese"
  ],
  "Platforms": {
    "windows": true,
    "mac": false,
    "linux": false
  }
}