﻿{
  "Dlcs": {
    "1209530": {
      "Name": "F1® 2020: Seventy Edition DLC",
      "ImageUrl": "https://steamcdn-a.akamaihd.net/steam/apps/1209530/header.jpg?t=1594314569"
    },
    "1209531": {
      "Name": "F1® 2020: Deluxe Schumacher Edition DLC",
      "ImageUrl": "https://steamcdn-a.akamaihd.net/steam/apps/1209531/header.jpg?t=1594314587"
    },
    "1209532": {
      "Name": "F1® 2020: Keep Fighting Foundation DLC",
      "ImageUrl": "https://steamcdn-a.akamaihd.net/steam/apps/1209532/header.jpg?t=1597064977"
    }
  },
  "Name": "F1® 2020",
  "AppId": "1080110",
  "ImageUrl": "https://steamcdn-a.akamaihd.net/steam/apps/1080110/header.jpg?t=1598553609",
  "Languages": [
    "english",
    "french",
    "italian",
    "german",
    "spanish",
    "japanese",
    "polish",
    "portuguese",
    "russian",
    "dutch",
    "schinese"
  ],
  "Platforms": {
    "windows": true,
    "mac": false,
    "linux": false
  }
}