{
  "Releases": [
    "Windows"
  ],
  "Name": "World War Z",
  "AppId": "Wombat",
  "Namespace": "wombat",
  "ItemId": "ec6ed5344a904ea78729113d80818d18",
  "ImageUrl": "https://cdn1.epicgames.com/wombat/item/PrimaryPromoImage_2580x1450-2580x1450-5e1361a6f3375c53f02c60efb73cdf4d.jpg",
  "Dlcs": {
    "Map Pack 1 DLC": {
      "Name": "Map Pack 1 DLC",
      "ItemId": "66e96f5638974479be08fc2d322c27d9"
    },
    "Last Aid": {
      "Name": "Last Aid",
      "ItemId": "79f6b0fd2ae74add855fe38ed4b1e392"
    },
    "Last Aid - Weapon Skin Pack": {
      "Name": "Last Aid - Weapon Skin Pack",
      "ItemId": "7287bd04803840ff89ae508caed3e478"
    }
  }
}