﻿{
  "Dlcs": {},
  "Name": "Terraforming Mars",
  "AppId": "800270",
  "ImageUrl": "https://steamcdn-a.akamaihd.net/steam/apps/800270/header.jpg?t=1591966371",
  "Languages": [
    "english",
    "french",
    "italian",
    "german",
    "spanish",
    "swedish"
  ],
  "Platforms": {
    "windows": true,
    "mac": false,
    "linux": false
  }
}