﻿[
  {
    "name": "Achievement0",
    "defaultvalue": 0,
    "displayName": "Conqueror of the New World",
    "hidden": 0,
    "description": "Unlock all achievements for Monster Hunter: World.",
    "icon": "https://steamcdn-a.akamaihd.net/steamcommunity/public/images/apps/582010/c28921e56775afc7d4de5a2fa811736aaa0f43e0.jpg",
    "icongray": "https://steamcdn-a.akamaihd.net/steamcommunity/public/images/apps/582010/0d4eb4cd87634dc39fd1825441452a3e37365ed3.jpg"
  },
  {
    "name": "Achievement1",
    "defaultvalue": 0,
    "displayName": "Welcome to the New World",
    "hidden": 1,
    "icon": "https://steamcdn-a.akamaihd.net/steamcommunity/public/images/apps/582010/a1e07a657b94c6355b50c10b64906cc32d573857.jpg",
    "icongray": "https://steamcdn-a.akamaihd.net/steamcommunity/public/images/apps/582010/ca007416b07fc3076e1c4ec71d3ce56d60d9412c.jpg"
  },
  {
    "name": "Achievement2",
    "defaultvalue": 0,
    "displayName": "Nothing Stops This Commission",
    "hidden": 1,
    "icon": "https://steamcdn-a.akamaihd.net/steamcommunity/public/images/apps/582010/170256de23e0e0be24ac69f5510f74a887b036cc.jpg",
    "icongray": "https://steamcdn-a.akamaihd.net/steamcommunity/public/images/apps/582010/44fd2b57a002ae2a0e695307c8e091832df56a62.jpg"
  },
  {
    "name": "Achievement3",
    "defaultvalue": 0,
    "displayName": "Defender of Astera",
    "hidden": 1,
    "icon": "https://steamcdn-a.akamaihd.net/steamcommunity/public/images/apps/582010/10a7dd9995b8ffae25f90e4dddc014b03a09f2be.jpg",
    "icongray": "https://steamcdn-a.akamaihd.net/steamcommunity/public/images/apps/582010/d92415ba82280471fc4827937ecbdc352edebcf2.jpg"
  },
  {
    "name": "Achievement4",
    "defaultvalue": 0,
    "displayName": "Into the Deep",
    "hidden": 1,
    "icon": "https://steamcdn-a.akamaihd.net/steamcommunity/public/images/apps/582010/808120f8494bc41c0af898a39b4bb3b6abab5cce.jpg",
    "icongray": "https://steamcdn-a.akamaihd.net/steamcommunity/public/images/apps/582010/0e081a4e6395c9ed7b3609a932be794d7be6e519.jpg"
  },
  {
    "name": "Achievement5",
    "defaultvalue": 0,
    "displayName": "Death Begets Life",
    "hidden": 1,
    "icon": "https://steamcdn-a.akamaihd.net/steamcommunity/public/images/apps/582010/02f71cfd5e52044720f5e8794ad6c9928c48e79a.jpg",
    "icongray": "https://steamcdn-a.akamaihd.net/steamcommunity/public/images/apps/582010/ff6f6f2afdfa60defa2c491911727498f1b797c6.jpg"
  },
  {
    "name": "Achievement6",
    "defaultvalue": 0,
    "displayName": "The Empress of the Highlands",
    "hidden": 1,
    "icon": "https://steamcdn-a.akamaihd.net/steamcommunity/public/images/apps/582010/91828efa7e920b5c74ecf952803b3c78516300de.jpg",
    "icongray": "https://steamcdn-a.akamaihd.net/steamcommunity/public/images/apps/582010/f717a6d37079ce66e07b68056e599db79f14c41a.jpg"
  },
  {
    "name": "Achievement7",
    "defaultvalue": 0,
    "displayName": "One Shall Stand, One Shall Fall",
    "hidden": 1,
    "icon": "https://steamcdn-a.akamaihd.net/steamcommunity/public/images/apps/582010/73f84995b2ad08c0d2ad49302631768fe5190736.jpg",
    "icongray": "https://steamcdn-a.akamaihd.net/steamcommunity/public/images/apps/582010/ef848ea40e4f5834dd322f9cb70221f8977a65e1.jpg"
  },
  {
    "name": "Achievement8",
    "defaultvalue": 0,
    "displayName": "The Sapphire Star",
    "hidden": 1,
    "icon": "https://steamcdn-a.akamaihd.net/steamcommunity/public/images/apps/582010/1122a5179d2959b60b701493af25f7c67bf70253.jpg",
    "icongray": "https://steamcdn-a.akamaihd.net/steamcommunity/public/images/apps/582010/599373a44af0f8bdb72c8b13ced48cb712c2d9b9.jpg"
  },
  {
    "name": "Achievement9",
    "defaultvalue": 0,
    "displayName": "The Hunters Life for Me",
    "hidden": 0,
    "description": "Complete 50 optional quests.",
    "icon": "https://steamcdn-a.akamaihd.net/steamcommunity/public/images/apps/582010/9b08e865ae4eef6d4d0257a5f4be3116784ca961.jpg",
    "icongray": "https://steamcdn-a.akamaihd.net/steamcommunity/public/images/apps/582010/7efcac2138aa7b582d3965b3079861a84c6c1f48.jpg"
  },
  {
    "name": "Achievement10",
    "defaultvalue": 0,
    "displayName": "An Inquisitive Mind",
    "hidden": 0,
    "description": "Complete your first investigation.",
    "icon": "https://steamcdn-a.akamaihd.net/steamcommunity/public/images/apps/582010/23f855de051d3ae04c9fd22c9b27914ff6ba9dc1.jpg",
    "icongray": "https://steamcdn-a.akamaihd.net/steamcommunity/public/images/apps/582010/8aa456e843a330c94b4a6efda6ee646ed0f178b0.jpg"
  },
  {
    "name": "Achievement11",
    "defaultvalue": 0,
    "displayName": "The Franchise Hunter",
    "hidden": 0,
    "description": "Complete 50 investigations.",
    "icon": "https://steamcdn-a.akamaihd.net/steamcommunity/public/images/apps/582010/de8b396f3ed10fb980521aedefad59013d07932d.jpg",
    "icongray": "https://steamcdn-a.akamaihd.net/steamcommunity/public/images/apps/582010/63acb232633b4f16f54ae60e24b0882db75a43f2.jpg"
  },
  {
    "name": "Achievement12",
    "defaultvalue": 0,
    "displayName": "Step into the Arena",
    "hidden": 0,
    "description": "Complete your first arena quest.",
    "icon": "https://steamcdn-a.akamaihd.net/steamcommunity/public/images/apps/582010/5a3538742740121726da5cb3e844ea6600990829.jpg",
    "icongray": "https://steamcdn-a.akamaihd.net/steamcommunity/public/images/apps/582010/d151d2b1c60e3543d714669ef5d917747d34370e.jpg"
  },
  {
    "name": "Achievement13",
    "defaultvalue": 0,
    "displayName": "Nowhere to Go but Up",
    "hidden": 0,
    "description": "Complete 50 arena quests.",
    "icon": "https://steamcdn-a.akamaihd.net/steamcommunity/public/images/apps/582010/9266951e2eaa624189dc42af3b3232afd0ac480b.jpg",
    "icongray": "https://steamcdn-a.akamaihd.net/steamcommunity/public/images/apps/582010/7e92c584947788145926b039651fb35ec473980f.jpg"
  },
  {
    "name": "Achievement14",
    "defaultvalue": 0,
    "displayName": "New World Settler",
    "hidden": 0,
    "description": "Establish five camps.",
    "icon": "https://steamcdn-a.akamaihd.net/steamcommunity/public/images/apps/582010/92b18a8ec402a2490f118e9a88f13cafff7f7ed4.jpg",
    "icongray": "https://steamcdn-a.akamaihd.net/steamcommunity/public/images/apps/582010/200da6e7f45c297a90d11f0d2546205ec6fbd587.jpg"
  },
  {
    "name": "Achievement15",
    "defaultvalue": 0,
    "displayName": "The Art of Camouflage",
    "hidden": 0,
    "description": "Escape the Jagras pack by hiding in some shrubs.",
    "icon": "https://steamcdn-a.akamaihd.net/steamcommunity/public/images/apps/582010/e572edbfba03fb97c5dc2f2e280c31ec152aeecb.jpg",
    "icongray": "https://steamcdn-a.akamaihd.net/steamcommunity/public/images/apps/582010/247e598c7b8693c1b1d1a1838171daa78d06d003.jpg"
  },
  {
    "name": "Achievement16",
    "defaultvalue": 0,
    "displayName": "Angling for a Bite",
    "hidden": 0,
    "description": "Catch your first fish.",
    "icon": "https://steamcdn-a.akamaihd.net/steamcommunity/public/images/apps/582010/e4569c0007fc38a200758f4f61b75e33b84bf359.jpg",
    "icongray": "https://steamcdn-a.akamaihd.net/steamcommunity/public/images/apps/582010/7466f53e23dc2fd57432a4ec56fe19f80b169f93.jpg"
  },
  {
    "name": "Achievement17",
    "defaultvalue": 0,
    "displayName": "Mmm, So Tasty!",
    "hidden": 0,
    "description": "Cook your first well-done steak.",
    "icon": "https://steamcdn-a.akamaihd.net/steamcommunity/public/images/apps/582010/55b7b79c20623449e366a3e587056b03db5e734c.jpg",
    "icongray": "https://steamcdn-a.akamaihd.net/steamcommunity/public/images/apps/582010/ebe2e175cf6dfc7db2f7d238efbe40dddfc1c9c8.jpg"
  },
  {
    "name": "Achievement18",
    "defaultvalue": 0,
    "displayName": "The Bigger They Are...",
    "hidden": 0,
    "description": "Mount your first monster.",
    "icon": "https://steamcdn-a.akamaihd.net/steamcommunity/public/images/apps/582010/5b3b9995d7f819c99596f8869db19c8d12c0b1e7.jpg",
    "icongray": "https://steamcdn-a.akamaihd.net/steamcommunity/public/images/apps/582010/ce047890391db74bf88cee609fe8dbdc03dd7369.jpg"
  },
  {
    "name": "Achievement19",
    "defaultvalue": 0,
    "displayName": "A Living Fossil",
    "hidden": 1,
    "icon": "https://steamcdn-a.akamaihd.net/steamcommunity/public/images/apps/582010/3e17e45825e7f033698d493b99375ca9057ac8de.jpg",
    "icongray": "https://steamcdn-a.akamaihd.net/steamcommunity/public/images/apps/582010/c45170fc2c72c44cb57e6888d94ed79ad87c97e0.jpg"
  },
  {
    "name": "Achievement20",
    "defaultvalue": 0,
    "displayName": "Snuggles for All",
    "hidden": 1,
    "icon": "https://steamcdn-a.akamaihd.net/steamcommunity/public/images/apps/582010/d977daf9bbe78126edad1d79ecb680c4275343d8.jpg",
    "icongray": "https://steamcdn-a.akamaihd.net/steamcommunity/public/images/apps/582010/4fd2543bdbaa9b7bcd20cf7e12a4c23e06cd0299.jpg"
  },
  {
    "name": "Achievement21",
    "defaultvalue": 0,
    "displayName": "Bristles for All",
    "hidden": 1,
    "icon": "https://steamcdn-a.akamaihd.net/steamcommunity/public/images/apps/582010/b750d1a4f021bf3b1e9dd93818e96cead006d06a.jpg",
    "icongray": "https://steamcdn-a.akamaihd.net/steamcommunity/public/images/apps/582010/eaed30875f800f8bd151ab7d5adc9b655144b598.jpg"
  },
  {
    "name": "Achievement22",
    "defaultvalue": 0,
    "displayName": "Rainbow Bright",
    "hidden": 1,
    "icon": "https://steamcdn-a.akamaihd.net/steamcommunity/public/images/apps/582010/66c87222591b9eeac39c877b9074219f7c2f7b70.jpg",
    "icongray": "https://steamcdn-a.akamaihd.net/steamcommunity/public/images/apps/582010/c2fb677be7db22e6b975b2a175d66319b2bb4bff.jpg"
  },
  {
    "name": "Achievement23",
    "defaultvalue": 0,
    "displayName": "Commissioned Work",
    "hidden": 0,
    "description": "Obtain 100,000 research points.",
    "icon": "https://steamcdn-a.akamaihd.net/steamcommunity/public/images/apps/582010/bda0ee33c3d69de4a0540aa60377d117d8578f35.jpg",
    "icongray": "https://steamcdn-a.akamaihd.net/steamcommunity/public/images/apps/582010/fe84a73021810b88f879a392b20dfc4909ce0263.jpg"
  },
  {
    "name": "Achievement24",
    "defaultvalue": 0,
    "displayName": "Bourgeois Hunter",
    "hidden": 0,
    "description": "Possess 1,000,000 zenny.",
    "icon": "https://steamcdn-a.akamaihd.net/steamcommunity/public/images/apps/582010/24ea9003515465a82c00089b71831745cb7389a5.jpg",
    "icongray": "https://steamcdn-a.akamaihd.net/steamcommunity/public/images/apps/582010/9236b862dc48a8f999278361ebf8271b2b30cd39.jpg"
  },
  {
    "name": "Achievement25",
    "defaultvalue": 0,
    "displayName": "Impregnable Defense",
    "hidden": 0,
    "description": "Obtain five highly rare pieces of armor.",
    "icon": "https://steamcdn-a.akamaihd.net/steamcommunity/public/images/apps/582010/826cbd7a0f9494fe0941b62a1da348750b6576d6.jpg",
    "icongray": "https://steamcdn-a.akamaihd.net/steamcommunity/public/images/apps/582010/1522041314900ef961d2e0621ebc481f96a30309.jpg"
  },
  {
    "name": "Achievement26",
    "defaultvalue": 0,
    "displayName": "Power is Everything",
    "hidden": 0,
    "description": "Obtain five highly rare weapons.",
    "icon": "https://steamcdn-a.akamaihd.net/steamcommunity/public/images/apps/582010/1ca581c61c6c8e04a214df8c49735e52a0154e31.jpg",
    "icongray": "https://steamcdn-a.akamaihd.net/steamcommunity/public/images/apps/582010/8e66f852333e6c593ff05dfeb35e46ec240da46e.jpg"
  },
  {
    "name": "Achievement27",
    "defaultvalue": 0,
    "displayName": "Movin On Up",
    "hidden": 0,
    "description": "Move into an upgraded room.",
    "icon": "https://steamcdn-a.akamaihd.net/steamcommunity/public/images/apps/582010/70c38c10ed97f5a51c3269ac1c4d322eb7e93726.jpg",
    "icongray": "https://steamcdn-a.akamaihd.net/steamcommunity/public/images/apps/582010/e8776e40460508bfab6643ee4c59bcc97ebd19f2.jpg"
  },
  {
    "name": "Achievement28",
    "defaultvalue": 0,
    "displayName": "First Friends",
    "hidden": 0,
    "description": "Befriend your first Tailraider.",
    "icon": "https://steamcdn-a.akamaihd.net/steamcommunity/public/images/apps/582010/1a434db6ef66cffd5ae424adb89f123dff4d78e6.jpg",
    "icongray": "https://steamcdn-a.akamaihd.net/steamcommunity/public/images/apps/582010/98c389cb64a3378c911a4f1f966f6e34e668e222.jpg"
  },
  {
    "name": "Achievement29",
    "defaultvalue": 0,
    "displayName": "Bosom Buddies",
    "hidden": 0,
    "description": "Raise the proficiency of any Palico Gadget to level 10.",
    "icon": "https://steamcdn-a.akamaihd.net/steamcommunity/public/images/apps/582010/04d9de70fced3adf68ed1c20c7b6404a232888f6.jpg",
    "icongray": "https://steamcdn-a.akamaihd.net/steamcommunity/public/images/apps/582010/5b845945c8c63d3e073f5a9769d378de16a77b6b.jpg"
  },
  {
    "name": "Achievement30",
    "defaultvalue": 0,
    "displayName": "Monster Ph.D.",
    "hidden": 0,
    "description": "Max out the research level (up to high rank) for many monsters.",
    "icon": "https://steamcdn-a.akamaihd.net/steamcommunity/public/images/apps/582010/da00d5002d661d37feda60dc1a338212a45f2d5a.jpg",
    "icongray": "https://steamcdn-a.akamaihd.net/steamcommunity/public/images/apps/582010/a07cf40eeb16b371a1ed208c0c296b076ce62a6c.jpg"
  },
  {
    "name": "Achievement31",
    "defaultvalue": 0,
    "displayName": "Temper Temper",
    "hidden": 1,
    "icon": "https://steamcdn-a.akamaihd.net/steamcommunity/public/images/apps/582010/0c524255f8bd3c3af4b77b3ab7c6042e439957cd.jpg",
    "icongray": "https://steamcdn-a.akamaihd.net/steamcommunity/public/images/apps/582010/e50b6a0ba2a1a6c3114acca32049519f13948685.jpg"
  },
  {
    "name": "Achievement32",
    "defaultvalue": 0,
    "displayName": "Indomitable",
    "hidden": 1,
    "icon": "https://steamcdn-a.akamaihd.net/steamcommunity/public/images/apps/582010/1da29f2d7a705a2373da2f90b8951b5650dbd248.jpg",
    "icongray": "https://steamcdn-a.akamaihd.net/steamcommunity/public/images/apps/582010/06facb85d2ee884cb2f7bf4dcea65268609f2c2d.jpg"
  },
  {
    "name": "Achievement33",
    "defaultvalue": 0,
    "displayName": "Miniature Crown",
    "hidden": 0,
    "description": "Record your first miniature crown for monsters that appear from low or high rank.",
    "icon": "https://steamcdn-a.akamaihd.net/steamcommunity/public/images/apps/582010/e4c73c7e29668074e719b8ba8b51a87071e8352b.jpg",
    "icongray": "https://steamcdn-a.akamaihd.net/steamcommunity/public/images/apps/582010/5135d6ea3b06f26c9ac74b1f96c0ad3fae288d81.jpg"
  },
  {
    "name": "Achievement34",
    "defaultvalue": 0,
    "displayName": "Miniature Crown Collector",
    "hidden": 0,
    "description": "Obtain a miniature crown for 10 or more monsters that appear from low or high rank.",
    "icon": "https://steamcdn-a.akamaihd.net/steamcommunity/public/images/apps/582010/b2700338529c769f66f28943054a0067f1e512eb.jpg",
    "icongray": "https://steamcdn-a.akamaihd.net/steamcommunity/public/images/apps/582010/e91c67f03c559f27c86a6353778da8497babac06.jpg"
  },
  {
    "name": "Achievement35",
    "defaultvalue": 0,
    "displayName": "Miniature Crown Master",
    "hidden": 0,
    "description": "Obtain a miniature crown for many monsters in your hunting log.",
    "icon": "https://steamcdn-a.akamaihd.net/steamcommunity/public/images/apps/582010/5c7899666994872fc7fb8e14cbb362570576655a.jpg",
    "icongray": "https://steamcdn-a.akamaihd.net/steamcommunity/public/images/apps/582010/7f58905792fac753e7e044f71a453af1a62b9903.jpg"
  },
  {
    "name": "Achievement36",
    "defaultvalue": 0,
    "displayName": "Giant Crown",
    "hidden": 0,
    "description": "Record your first silver crown or higher for monsters that appear from low or high rank.",
    "icon": "https://steamcdn-a.akamaihd.net/steamcommunity/public/images/apps/582010/e2907e12be9e6e924e855f2db8c1c00b0ef215a1.jpg",
    "icongray": "https://steamcdn-a.akamaihd.net/steamcommunity/public/images/apps/582010/8255bd56850b7c9809c7b9fb917eecd47c18caa6.jpg"
  },
  {
    "name": "Achievement37",
    "defaultvalue": 0,
    "displayName": "Giant Crown Collector",
    "hidden": 0,
    "description": "Obtain a gold crown for 10 or more monsters that appear from low or high rank.",
    "icon": "https://steamcdn-a.akamaihd.net/steamcommunity/public/images/apps/582010/661f5bf8872138a78167a8aa44084c7d668489f0.jpg",
    "icongray": "https://steamcdn-a.akamaihd.net/steamcommunity/public/images/apps/582010/9a5e40075e51c0d74912e1eb512210aa8358c618.jpg"
  },
  {
    "name": "Achievement38",
    "defaultvalue": 0,
    "displayName": "Giant Crown Master",
    "hidden": 0,
    "description": "Obtain a gold crown for many monsters in your hunting log.",
    "icon": "https://steamcdn-a.akamaihd.net/steamcommunity/public/images/apps/582010/35ce1223896d88d7630d2905f52a7078628eed77.jpg",
    "icongray": "https://steamcdn-a.akamaihd.net/steamcommunity/public/images/apps/582010/75634cec0b6d95aca83796506d9f214b54044486.jpg"
  },
  {
    "name": "Achievement39",
    "defaultvalue": 0,
    "displayName": "Capture Novice",
    "hidden": 0,
    "description": "Capture your first monster.",
    "icon": "https://steamcdn-a.akamaihd.net/steamcommunity/public/images/apps/582010/caa59189c12c52030f0d14b90c0a2623dc9ecbec.jpg",
    "icongray": "https://steamcdn-a.akamaihd.net/steamcommunity/public/images/apps/582010/3927ec9d7007ba4b76504597051e9be8416a8cec.jpg"
  },
  {
    "name": "Achievement40",
    "defaultvalue": 0,
    "displayName": "Capture Pro",
    "hidden": 0,
    "description": "Capture 50 monsters.",
    "icon": "https://steamcdn-a.akamaihd.net/steamcommunity/public/images/apps/582010/81cd069f44da75443c23f65af7fdac4d3f84d6bc.jpg",
    "icongray": "https://steamcdn-a.akamaihd.net/steamcommunity/public/images/apps/582010/a32b6c2469a32889465a6ed4cad6a093042d82ad.jpg"
  },
  {
    "name": "Achievement41",
    "defaultvalue": 0,
    "displayName": "Elderslayer",
    "hidden": 0,
    "description": "Slay 50 elder dragons.",
    "icon": "https://steamcdn-a.akamaihd.net/steamcommunity/public/images/apps/582010/c6aed8d36ecfbe858e51ed21e73ef72f87dda187.jpg",
    "icongray": "https://steamcdn-a.akamaihd.net/steamcommunity/public/images/apps/582010/f172ab7c6ce0a931493f339f74e3f9de08328449.jpg"
  },
  {
    "name": "Achievement42",
    "defaultvalue": 0,
    "displayName": "Monster Slayer",
    "hidden": 0,
    "description": "Hunt 100 large monsters.",
    "icon": "https://steamcdn-a.akamaihd.net/steamcommunity/public/images/apps/582010/ecca9d856c1744c61b50c72062ec1d2e8d56ef6b.jpg",
    "icongray": "https://steamcdn-a.akamaihd.net/steamcommunity/public/images/apps/582010/9f964e79e2b0029223e5dbb517b3041476ab7fdf.jpg"
  },
  {
    "name": "Achievement43",
    "defaultvalue": 0,
    "displayName": "Monster Hunter",
    "hidden": 0,
    "description": "Hunt 500 large monsters.",
    "icon": "https://steamcdn-a.akamaihd.net/steamcommunity/public/images/apps/582010/57d92b4cd95b5c581a082055c7ec9c43bd693ce2.jpg",
    "icongray": "https://steamcdn-a.akamaihd.net/steamcommunity/public/images/apps/582010/0a13acb24482f30997864808d5d591014f488fa8.jpg"
  },
  {
    "name": "Achievement44",
    "defaultvalue": 0,
    "displayName": "HELP!",
    "hidden": 0,
    "description": "Fire an SOS flare for the first time.",
    "icon": "https://steamcdn-a.akamaihd.net/steamcommunity/public/images/apps/582010/59005a50f06b8aca450f1567053ffff1192ebd63.jpg",
    "icongray": "https://steamcdn-a.akamaihd.net/steamcommunity/public/images/apps/582010/581783129ce56bb8d93abcf27f876b1da75e14ff.jpg"
  },
  {
    "name": "Achievement45",
    "defaultvalue": 0,
    "displayName": "I Am the Reinforcements",
    "hidden": 0,
    "description": "Respond to an SOS flare, and help complete 10 quests.",
    "icon": "https://steamcdn-a.akamaihd.net/steamcommunity/public/images/apps/582010/2f1fcd19d9211583db1fd49d08cf23306b0f0133.jpg",
    "icongray": "https://steamcdn-a.akamaihd.net/steamcommunity/public/images/apps/582010/ee5d4aba5343fc2e2d107e63136dfb8b2feb0b49.jpg"
  },
  {
    "name": "Achievement46",
    "defaultvalue": 0,
    "displayName": "Hunters United",
    "hidden": 0,
    "description": "Complete a quest via multiplayer.",
    "icon": "https://steamcdn-a.akamaihd.net/steamcommunity/public/images/apps/582010/1f753f3edfc578c88d3c076f9f6fc4e0d272f4a9.jpg",
    "icongray": "https://steamcdn-a.akamaihd.net/steamcommunity/public/images/apps/582010/667ef144f47b859fb19c809357a20411d29f9f5e.jpg"
  },
  {
    "name": "Achievement47",
    "defaultvalue": 0,
    "displayName": "Hunters United Forever",
    "hidden": 0,
    "description": "Complete 100 quests via multiplayer.",
    "icon": "https://steamcdn-a.akamaihd.net/steamcommunity/public/images/apps/582010/4bf8679771de1418cb490fdf88783b3aa426576d.jpg",
    "icongray": "https://steamcdn-a.akamaihd.net/steamcommunity/public/images/apps/582010/c424dacafa57cefebfb5dd1ec15259ff0a5ddd12.jpg"
  },
  {
    "name": "Achievement48",
    "defaultvalue": 0,
    "displayName": "Spreading the Word",
    "hidden": 0,
    "description": "Collect over 50 Guild Cards.",
    "icon": "https://steamcdn-a.akamaihd.net/steamcommunity/public/images/apps/582010/108a304cd5b36c3dc1da81e94e4c2be456f57832.jpg",
    "icongray": "https://steamcdn-a.akamaihd.net/steamcommunity/public/images/apps/582010/636e95f269af734940971375083ca7822d5d06aa.jpg"
  },
  {
    "name": "Achievement49",
    "defaultvalue": 0,
    "displayName": "Established Hunter",
    "hidden": 0,
    "description": "Reach hunter rank 100.",
    "icon": "https://steamcdn-a.akamaihd.net/steamcommunity/public/images/apps/582010/fa430c2f5c33331a54a049c4a4e55d0cfb939b5e.jpg",
    "icongray": "https://steamcdn-a.akamaihd.net/steamcommunity/public/images/apps/582010/e7d0c5cc00434a33bf3817937bcf2cdc54c48579.jpg"
  },
  {
    "name": "Achievement50",
    "defaultvalue": 0,
    "displayName": "Conqueror of the Hinterlands",
    "hidden": 0,
    "description": "Unlock all achievements for Monster Hunter World: Iceborne.",
    "icon": "https://steamcdn-a.akamaihd.net/steamcommunity/public/images/apps/582010/bccb3a5a27fe38061f851921993ca9bed884d57f.jpg",
    "icongray": "https://steamcdn-a.akamaihd.net/steamcommunity/public/images/apps/582010/4a2a24e5587c16696077aa6bfb0b8f70ca6c5e49.jpg"
  },
  {
    "name": "Achievement51",
    "defaultvalue": 0,
    "displayName": "The Beginning of a New Expedition",
    "hidden": 1,
    "icon": "https://steamcdn-a.akamaihd.net/steamcommunity/public/images/apps/582010/765fa26a30f56f66b4624e4d2b38c18f7e5f17e8.jpg",
    "icongray": "https://steamcdn-a.akamaihd.net/steamcommunity/public/images/apps/582010/5adbe4f7bd30b4cc6c231b25d5e2aef4b4cfa771.jpg"
  },
  {
    "name": "Achievement52",
    "defaultvalue": 0,
    "displayName": "Time to Get Serious",
    "hidden": 1,
    "icon": "https://steamcdn-a.akamaihd.net/steamcommunity/public/images/apps/582010/135c2614efd1af0c1f844271e459064f7fdb24a7.jpg",
    "icongray": "https://steamcdn-a.akamaihd.net/steamcommunity/public/images/apps/582010/e95c6f9619425ab8f463db9495aff6b96918ba53.jpg"
  },
  {
    "name": "Achievement53",
    "defaultvalue": 0,
    "displayName": "The Elusive Elder Dragon",
    "hidden": 1,
    "icon": "https://steamcdn-a.akamaihd.net/steamcommunity/public/images/apps/582010/030ca55fd6d25ad11184a30eb150266d9454785c.jpg",
    "icongray": "https://steamcdn-a.akamaihd.net/steamcommunity/public/images/apps/582010/0737aecad60a04406e6f80eaa0846edc424267fe.jpg"
  },
  {
    "name": "Achievement54",
    "defaultvalue": 0,
    "displayName": "Indomitable Spirit",
    "hidden": 1,
    "icon": "https://steamcdn-a.akamaihd.net/steamcommunity/public/images/apps/582010/2cb2a603a0c7df9484010be08e567c0f4abae205.jpg",
    "icongray": "https://steamcdn-a.akamaihd.net/steamcommunity/public/images/apps/582010/d4f9f67a8bde4c56b67e01249e8f0729962292d9.jpg"
  },
  {
    "name": "Achievement55",
    "defaultvalue": 0,
    "displayName": "The Old Everwyrm",
    "hidden": 1,
    "icon": "https://steamcdn-a.akamaihd.net/steamcommunity/public/images/apps/582010/625d283bb632e64bc10915a5070d954c8691fe4e.jpg",
    "icongray": "https://steamcdn-a.akamaihd.net/steamcommunity/public/images/apps/582010/cda13554252055efd3115f0527c8b6a4259699d5.jpg"
  },
  {
    "name": "Achievement56",
    "defaultvalue": 0,
    "displayName": "An End and a Beginning",
    "hidden": 1,
    "icon": "https://steamcdn-a.akamaihd.net/steamcommunity/public/images/apps/582010/b75a17f18556fece132107768740df532ebc607d.jpg",
    "icongray": "https://steamcdn-a.akamaihd.net/steamcommunity/public/images/apps/582010/c5fc305e66b6c100f145690a9f5c5e1827c7d1d0.jpg"
  },
  {
    "name": "Achievement57",
    "defaultvalue": 0,
    "displayName": "To the Land of Discoveries",
    "hidden": 1,
    "icon": "https://steamcdn-a.akamaihd.net/steamcommunity/public/images/apps/582010/ee873f109437b926ad48aad29221002e65aa4c4e.jpg",
    "icongray": "https://steamcdn-a.akamaihd.net/steamcommunity/public/images/apps/582010/27ee8f8c78681594ff097e872c2947a844a79eb9.jpg"
  },
  {
    "name": "Achievement58",
    "defaultvalue": 0,
    "displayName": "Evolving Ecology",
    "hidden": 1,
    "icon": "https://steamcdn-a.akamaihd.net/steamcommunity/public/images/apps/582010/ab97480080991c32a8fb6d6416882dee3fd69ef8.jpg",
    "icongray": "https://steamcdn-a.akamaihd.net/steamcommunity/public/images/apps/582010/ceb1f34f62796558267f5b6a3672306d2cb867f5.jpg"
  },
  {
    "name": "Achievement59",
    "defaultvalue": 0,
    "displayName": "In Search of Rare Materials",
    "hidden": 1,
    "icon": "https://steamcdn-a.akamaihd.net/steamcommunity/public/images/apps/582010/336a6cc632fce98ebcb485392852807397f44eba.jpg",
    "icongray": "https://steamcdn-a.akamaihd.net/steamcommunity/public/images/apps/582010/143abe19eb6bcb85c3f3d176fec4e037d408fd0b.jpg"
  },
  {
    "name": "Achievement60",
    "defaultvalue": 0,
    "displayName": "Insatiable Investigator",
    "hidden": 1,
    "icon": "https://steamcdn-a.akamaihd.net/steamcommunity/public/images/apps/582010/c63d470d6f47c466cdabc33194a07c1317657895.jpg",
    "icongray": "https://steamcdn-a.akamaihd.net/steamcommunity/public/images/apps/582010/41a4c84c7614673650a52ee47961e740f6a2bc14.jpg"
  },
  {
    "name": "Achievement61",
    "defaultvalue": 0,
    "displayName": "Fate's Conclusion",
    "hidden": 1,
    "icon": "https://steamcdn-a.akamaihd.net/steamcommunity/public/images/apps/582010/760167c6d2baf6960f34b9faba674e63fb1698aa.jpg",
    "icongray": "https://steamcdn-a.akamaihd.net/steamcommunity/public/images/apps/582010/44fdf6c1270a6ca9ce779d8b7c020158df8bfa6e.jpg"
  },
  {
    "name": "Achievement62",
    "defaultvalue": 0,
    "displayName": "Master Explorer",
    "hidden": 0,
    "description": "Establish all camps in the Hoarfrost Reach.",
    "icon": "https://steamcdn-a.akamaihd.net/steamcommunity/public/images/apps/582010/eeb10f3b29de5cebf72e017676d9d8d87ff2559f.jpg",
    "icongray": "https://steamcdn-a.akamaihd.net/steamcommunity/public/images/apps/582010/a114b408b093fa6c933a8e408ef2882de30cf0c0.jpg"
  },
  {
    "name": "Achievement63",
    "defaultvalue": 0,
    "displayName": "Source of Relaxation",
    "hidden": 0,
    "description": "Spend some time in a natural hot spring.",
    "icon": "https://steamcdn-a.akamaihd.net/steamcommunity/public/images/apps/582010/18a8aabc8c01bf628b04fe81eb917547c1e9e5c3.jpg",
    "icongray": "https://steamcdn-a.akamaihd.net/steamcommunity/public/images/apps/582010/d3e8b27c08a2aff81166628146df2774cd58f242.jpg"
  },
  {
    "name": "Achievement64",
    "defaultvalue": 0,
    "displayName": "Clutch Claw Neophyte",
    "hidden": 0,
    "description": "Study the ways of the clutch claw.",
    "icon": "https://steamcdn-a.akamaihd.net/steamcommunity/public/images/apps/582010/44a5de531256977e656e95ccbb02d2ed5ecd2174.jpg",
    "icongray": "https://steamcdn-a.akamaihd.net/steamcommunity/public/images/apps/582010/91e48cc88b274bd411dfbfa2d0f9f666a08454a9.jpg"
  },
  {
    "name": "Achievement65",
    "defaultvalue": 0,
    "displayName": "Golden Gleam",
    "hidden": 1,
    "icon": "https://steamcdn-a.akamaihd.net/steamcommunity/public/images/apps/582010/f92e68b8a04536275caa708ab137b4e8e8dc2550.jpg",
    "icongray": "https://steamcdn-a.akamaihd.net/steamcommunity/public/images/apps/582010/99bb753f8f771ec998e51fc4cd50c7c10be285d4.jpg"
  },
  {
    "name": "Achievement66",
    "defaultvalue": 0,
    "displayName": "Friendly Pointer",
    "hidden": 1,
    "icon": "https://steamcdn-a.akamaihd.net/steamcommunity/public/images/apps/582010/8c9e7112fd77305e7db98fa199b6f09cbc527341.jpg",
    "icongray": "https://steamcdn-a.akamaihd.net/steamcommunity/public/images/apps/582010/9dca8427f887532db5ec309c476ab402f8a413ad.jpg"
  },
  {
    "name": "Achievement67",
    "defaultvalue": 0,
    "displayName": "Sweet Melody",
    "hidden": 1,
    "icon": "https://steamcdn-a.akamaihd.net/steamcommunity/public/images/apps/582010/ee9f4a1544b29cbc2dadfcb0a0f93cf88bb12fe6.jpg",
    "icongray": "https://steamcdn-a.akamaihd.net/steamcommunity/public/images/apps/582010/93154711f3a3a4a3c82134dc8ee0818c0dbb2ee6.jpg"
  },
  {
    "name": "Achievement68",
    "defaultvalue": 0,
    "displayName": "Submerged Mystery",
    "hidden": 1,
    "icon": "https://steamcdn-a.akamaihd.net/steamcommunity/public/images/apps/582010/b49e737d93c69d3047e76f3db873c80f2f8e98ad.jpg",
    "icongray": "https://steamcdn-a.akamaihd.net/steamcommunity/public/images/apps/582010/c78a563ac6f5869fceafb322c748c512231b5abc.jpg"
  },
  {
    "name": "Achievement69",
    "defaultvalue": 0,
    "displayName": "Celestial Illusion",
    "hidden": 1,
    "icon": "https://steamcdn-a.akamaihd.net/steamcommunity/public/images/apps/582010/195b150ff6964baca24eb9bc7da0f652a873ae00.jpg",
    "icongray": "https://steamcdn-a.akamaihd.net/steamcommunity/public/images/apps/582010/b6d17cfab43d58246770c9d3074887ecd04fc273.jpg"
  },
  {
    "name": "Achievement70",
    "defaultvalue": 0,
    "displayName": "Deft Digger",
    "hidden": 1,
    "icon": "https://steamcdn-a.akamaihd.net/steamcommunity/public/images/apps/582010/52bfb922954a6bde23f1c4fe48f24a3ad1d97d93.jpg",
    "icongray": "https://steamcdn-a.akamaihd.net/steamcommunity/public/images/apps/582010/5d38f5234b81c2c45b2fd20beffdcdc4f5ae38ac.jpg"
  },
  {
    "name": "Achievement71",
    "defaultvalue": 0,
    "displayName": "Creatures of the Earth",
    "hidden": 1,
    "icon": "https://steamcdn-a.akamaihd.net/steamcommunity/public/images/apps/582010/7d340b6f29aa63c1e3ef9305978f0e06e2f5b471.jpg",
    "icongray": "https://steamcdn-a.akamaihd.net/steamcommunity/public/images/apps/582010/77f2a093f3a32a8979432dcd8f23be731ca98dfd.jpg"
  },
  {
    "name": "Achievement72",
    "defaultvalue": 0,
    "displayName": "Unwavering Defense",
    "hidden": 0,
    "description": "Obtain five extremely rare pieces of armor.",
    "icon": "https://steamcdn-a.akamaihd.net/steamcommunity/public/images/apps/582010/06b9befc86ee7aa2b7ebb089c93016c06f89cf15.jpg",
    "icongray": "https://steamcdn-a.akamaihd.net/steamcommunity/public/images/apps/582010/13d1a98cf42068a4d6ba075370a567c37638eb74.jpg"
  },
  {
    "name": "Achievement73",
    "defaultvalue": 0,
    "displayName": "Devastating Offense",
    "hidden": 0,
    "description": "Obtain five extremely rare weapons.",
    "icon": "https://steamcdn-a.akamaihd.net/steamcommunity/public/images/apps/582010/d06fbb2242fc1dd58ff52ba111b6f66de06ce59e.jpg",
    "icongray": "https://steamcdn-a.akamaihd.net/steamcommunity/public/images/apps/582010/772d7d304a512a6edc9f4337396f932187928bde.jpg"
  },
  {
    "name": "Achievement74",
    "defaultvalue": 0,
    "displayName": "Personal Treasure",
    "hidden": 1,
    "icon": "https://steamcdn-a.akamaihd.net/steamcommunity/public/images/apps/582010/2942a56e55e3163f37238466f64161935aac1514.jpg",
    "icongray": "https://steamcdn-a.akamaihd.net/steamcommunity/public/images/apps/582010/24d6a548b49c3736c752da409fc0aa2f7dccf7d7.jpg"
  },
  {
    "name": "Achievement75",
    "defaultvalue": 0,
    "displayName": "First Ride",
    "hidden": 0,
    "description": "Use your first Raider Ride.",
    "icon": "https://steamcdn-a.akamaihd.net/steamcommunity/public/images/apps/582010/9bbdd36ddac55e4c4cec7edc884af29c663db5fb.jpg",
    "icongray": "https://steamcdn-a.akamaihd.net/steamcommunity/public/images/apps/582010/20c517052bd49efb47d7ad9e5549e837361c2e6e.jpg"
  },
  {
    "name": "Achievement76",
    "defaultvalue": 0,
    "displayName": "Experienced Rider",
    "hidden": 0,
    "description": "Use Raider Ride many times.",
    "icon": "https://steamcdn-a.akamaihd.net/steamcommunity/public/images/apps/582010/acdcc3490dc8fdc4b6ace2f70e6005dd72de9c3e.jpg",
    "icongray": "https://steamcdn-a.akamaihd.net/steamcommunity/public/images/apps/582010/b8c50715e4941a267ac14fcaa400f8b7f45b59b1.jpg"
  },
  {
    "name": "Achievement77",
    "defaultvalue": 0,
    "displayName": "Fledgling Collector",
    "hidden": 0,
    "description": "Find your first treasure.",
    "icon": "https://steamcdn-a.akamaihd.net/steamcommunity/public/images/apps/582010/aff6e77c422467247ff9459853aafd9c33391251.jpg",
    "icongray": "https://steamcdn-a.akamaihd.net/steamcommunity/public/images/apps/582010/045b0e70ddb9419b68c29e8c08eea586e792ef39.jpg"
  },
  {
    "name": "Achievement78",
    "defaultvalue": 0,
    "displayName": "Veteran Collector",
    "hidden": 0,
    "description": "Find all treasure within a single locale.",
    "icon": "https://steamcdn-a.akamaihd.net/steamcommunity/public/images/apps/582010/78638bc8ee681f2af93b09be183edbb21ba55b01.jpg",
    "icongray": "https://steamcdn-a.akamaihd.net/steamcommunity/public/images/apps/582010/fd3b855a98579492e9d515cbd9b925943d288744.jpg"
  },
  {
    "name": "Achievement79",
    "defaultvalue": 0,
    "displayName": "Ultimate Collector",
    "hidden": 0,
    "description": "Find all treasure.",
    "icon": "https://steamcdn-a.akamaihd.net/steamcommunity/public/images/apps/582010/abc74a946753dd0982b25d93b53eba74c148a179.jpg",
    "icongray": "https://steamcdn-a.akamaihd.net/steamcommunity/public/images/apps/582010/f65b3116b8b60a857638a0f41c4d92532868e948.jpg"
  },
  {
    "name": "Achievement80",
    "defaultvalue": 0,
    "displayName": "Remodeler",
    "hidden": 0,
    "description": "Change your room's interior for the first time.",
    "icon": "https://steamcdn-a.akamaihd.net/steamcommunity/public/images/apps/582010/f5b92d717d540a704f9f87d571ec7d80f6aed654.jpg",
    "icongray": "https://steamcdn-a.akamaihd.net/steamcommunity/public/images/apps/582010/ed77ddd68eb5c2f60a0923a2e30b0436afccb5a7.jpg"
  },
  {
    "name": "Achievement81",
    "defaultvalue": 0,
    "displayName": "Interior Decorator",
    "hidden": 0,
    "description": "Have 50 different types of room decor to choose from.",
    "icon": "https://steamcdn-a.akamaihd.net/steamcommunity/public/images/apps/582010/260267b92e449cae5b63fb00705415082031c797.jpg",
    "icongray": "https://steamcdn-a.akamaihd.net/steamcommunity/public/images/apps/582010/b21cb3587b26d19ded1447901961d64df1fcaf0f.jpg"
  },
  {
    "name": "Achievement82",
    "defaultvalue": 0,
    "displayName": "Architectural Artist",
    "hidden": 0,
    "description": "Have 120 different types of room decor to choose from.",
    "icon": "https://steamcdn-a.akamaihd.net/steamcommunity/public/images/apps/582010/39283d5f19fdabad89983a696363797e4e3be99c.jpg",
    "icongray": "https://steamcdn-a.akamaihd.net/steamcommunity/public/images/apps/582010/c28d9bbc66c7279762a97ebd5cedf025eb87610d.jpg"
  },
  {
    "name": "Achievement83",
    "defaultvalue": 0,
    "displayName": "Eager Engineer",
    "hidden": 0,
    "description": "Help the Steamworks 20 times.",
    "icon": "https://steamcdn-a.akamaihd.net/steamcommunity/public/images/apps/582010/6a269b2af84f65d472e98f16c2178c09d03b2845.jpg",
    "icongray": "https://steamcdn-a.akamaihd.net/steamcommunity/public/images/apps/582010/4948093f4a512083dfa47e12d38920601ff97b42.jpg"
  },
  {
    "name": "Achievement84",
    "defaultvalue": 0,
    "displayName": "Skilled Steamworker",
    "hidden": 0,
    "description": "Send the Steamworks into overdrive.",
    "icon": "https://steamcdn-a.akamaihd.net/steamcommunity/public/images/apps/582010/bd2419ab7062c76742c4f620651cd43e2c834302.jpg",
    "icongray": "https://steamcdn-a.akamaihd.net/steamcommunity/public/images/apps/582010/227004d1fd859a36c81a1f33db68451bdf7e191a.jpg"
  },
  {
    "name": "Achievement85",
    "defaultvalue": 0,
    "displayName": "Another Miniature Crown",
    "hidden": 0,
    "description": "Obtain your first miniature crown for capturing endemic life in master rank.",
    "icon": "https://steamcdn-a.akamaihd.net/steamcommunity/public/images/apps/582010/07bee3d2b2d0e7c92c93c91691075dcf482df0a9.jpg",
    "icongray": "https://steamcdn-a.akamaihd.net/steamcommunity/public/images/apps/582010/731eeadfa0c533c6cbf8c6f25fa06b7a29b91927.jpg"
  },
  {
    "name": "Achievement86",
    "defaultvalue": 0,
    "displayName": "Another Giant Crown",
    "hidden": 0,
    "description": "Obtain your first gold crown for capturing endemic life in master rank.",
    "icon": "https://steamcdn-a.akamaihd.net/steamcommunity/public/images/apps/582010/2de932977d56b36f5dcdd3d4b3e74474e6626b67.jpg",
    "icongray": "https://steamcdn-a.akamaihd.net/steamcommunity/public/images/apps/582010/f8d0929f59ca5e502bef19de5e7d95d0ce30c766.jpg"
  },
  {
    "name": "Achievement87",
    "defaultvalue": 0,
    "displayName": "Fledgling Observer",
    "hidden": 0,
    "description": "Complete your first request for the Lynian Researcher.",
    "icon": "https://steamcdn-a.akamaihd.net/steamcommunity/public/images/apps/582010/913815f5de64b0a6746c81b4dbfb0920a2ddf874.jpg",
    "icongray": "https://steamcdn-a.akamaihd.net/steamcommunity/public/images/apps/582010/b6978ecb76a039d87c18fe811fe9f2bfd7dedada.jpg"
  },
  {
    "name": "Achievement88",
    "defaultvalue": 0,
    "displayName": "Outstanding Observer",
    "hidden": 0,
    "description": "Complete many requests for the Lynian Researcher.",
    "icon": "https://steamcdn-a.akamaihd.net/steamcommunity/public/images/apps/582010/7415ae278011bb0c7dcc5e5ddafcf2ec7d1d5a0d.jpg",
    "icongray": "https://steamcdn-a.akamaihd.net/steamcommunity/public/images/apps/582010/2e3d857a6f2deaac24199f3d7a3cd4d7ef8b7c37.jpg"
  },
  {
    "name": "Achievement89",
    "defaultvalue": 0,
    "displayName": "Helpful Hunter",
    "hidden": 0,
    "description": "Aid a low rank or high rank hunter on 10 quests as a master rank hunter.",
    "icon": "https://steamcdn-a.akamaihd.net/steamcommunity/public/images/apps/582010/253f4b2221c3f984e23ff25f68ad3488d8b2473d.jpg",
    "icongray": "https://steamcdn-a.akamaihd.net/steamcommunity/public/images/apps/582010/f8ee423f9290efe725dd1c82dbb9226cd3ae71a6.jpg"
  },
  {
    "name": "Achievement90",
    "defaultvalue": 0,
    "displayName": "Master of Masters",
    "hidden": 0,
    "description": "Reach master rank 200.",
    "icon": "https://steamcdn-a.akamaihd.net/steamcommunity/public/images/apps/582010/cbe19ef842bc5214011ba535cb05fab529f9e974.jpg",
    "icongray": "https://steamcdn-a.akamaihd.net/steamcommunity/public/images/apps/582010/ded9f47c57f71b3a90d1f5e5725d7dbddf39ed9b.jpg"
  },
  {
    "name": "Achievement91",
    "defaultvalue": 0,
    "displayName": "Monster Master",
    "hidden": 0,
    "description": "Maximize the research level for almost all large monsters.",
    "icon": "https://steamcdn-a.akamaihd.net/steamcommunity/public/images/apps/582010/dd422d9c10dc537534ac60c56a309744f0bf2464.jpg",
    "icongray": "https://steamcdn-a.akamaihd.net/steamcommunity/public/images/apps/582010/6a5af9f222afce7a1d9b47cd45912c110e1ca76c.jpg"
  },
  {
    "name": "Achievement92",
    "defaultvalue": 0,
    "displayName": "True Miniature Crown Collector",
    "hidden": 0,
    "description": "Obtain a miniature crown for almost every monster in your hunting log.",
    "icon": "https://steamcdn-a.akamaihd.net/steamcommunity/public/images/apps/582010/d7c2e3162f32d48a8712db280afec33ca2ab35f5.jpg",
    "icongray": "https://steamcdn-a.akamaihd.net/steamcommunity/public/images/apps/582010/9e124302e7447cbee5da41a9a31a120bcc843766.jpg"
  },
  {
    "name": "Achievement93",
    "defaultvalue": 0,
    "displayName": "True Large Crown Collector",
    "hidden": 0,
    "description": "Obtain a gold crown for almost every monster in your hunting log.",
    "icon": "https://steamcdn-a.akamaihd.net/steamcommunity/public/images/apps/582010/e664ee22806bcfec84eb0c710711750f330edb68.jpg",
    "icongray": "https://steamcdn-a.akamaihd.net/steamcommunity/public/images/apps/582010/1fadac5e701e8fc8ec5254d6b2a86bea779ce859.jpg"
  },
  {
    "name": "Achievement94",
    "defaultvalue": 0,
    "displayName": "The True Hunt Begins",
    "hidden": 0,
    "description": "Hunt your first large monster in a master rank quest.",
    "icon": "https://steamcdn-a.akamaihd.net/steamcommunity/public/images/apps/582010/f9c980e8730f2cc4c65fc6a869bafe4bda342893.jpg",
    "icongray": "https://steamcdn-a.akamaihd.net/steamcommunity/public/images/apps/582010/31572773c3999c2d324b6eb733926ceb37fa6c94.jpg"
  },
  {
    "name": "Achievement95",
    "defaultvalue": 0,
    "displayName": "Hunter Prodigy",
    "hidden": 0,
    "description": "Hunt 100 large monsters in master rank quests.",
    "icon": "https://steamcdn-a.akamaihd.net/steamcommunity/public/images/apps/582010/5c8f61ea5affa24df1ed0915920fe0aab8a5bb2a.jpg",
    "icongray": "https://steamcdn-a.akamaihd.net/steamcommunity/public/images/apps/582010/bdebcf7222685f23cac5a7fe65f09f433c74ca65.jpg"
  },
  {
    "name": "Achievement96",
    "defaultvalue": 0,
    "displayName": "Master Capturer",
    "hidden": 0,
    "description": "Capture 50 large monsters in master rank quests.",
    "icon": "https://steamcdn-a.akamaihd.net/steamcommunity/public/images/apps/582010/e696d868cf62d8448bd31a815c6882834cd4a53f.jpg",
    "icongray": "https://steamcdn-a.akamaihd.net/steamcommunity/public/images/apps/582010/4ebdf0236d2ec53ec66e54268c4d1fa0b59c3e6e.jpg"
  },
  {
    "name": "Achievement97",
    "defaultvalue": 0,
    "displayName": "Master Slayer",
    "hidden": 0,
    "description": "Slay 50 elder dragons in master rank quests.",
    "icon": "https://steamcdn-a.akamaihd.net/steamcommunity/public/images/apps/582010/610f90af6f92a667e3b5486e886bb4e6200ac9ad.jpg",
    "icongray": "https://steamcdn-a.akamaihd.net/steamcommunity/public/images/apps/582010/a10db6c83b5c23a54d15914c275df5fcbd97dde9.jpg"
  },
  {
    "name": "Achievement98",
    "defaultvalue": 0,
    "displayName": "Confronting the Unknown",
    "hidden": 1,
    "icon": "https://steamcdn-a.akamaihd.net/steamcommunity/public/images/apps/582010/8f197143da649376182352c5e1b29ce61fcd1b44.jpg",
    "icongray": "https://steamcdn-a.akamaihd.net/steamcommunity/public/images/apps/582010/5c8048dceeb326da92cb0952470ac64e470b3a80.jpg"
  },
  {
    "name": "Achievement99",
    "defaultvalue": 0,
    "displayName": "Seen It All",
    "hidden": 1,
    "icon": "https://steamcdn-a.akamaihd.net/steamcommunity/public/images/apps/582010/eb263d347bebc1838bf41e26d6ece17ba105679a.jpg",
    "icongray": "https://steamcdn-a.akamaihd.net/steamcommunity/public/images/apps/582010/a3dba2f69834f1332e5b47f1a490450d8bb60d3c.jpg"
  }
]