{
  "Releases": [
    "Windows"
  ],
  "Name": "Tom Clancy's The Division 2",
  "AppId": "Impala",
  "Namespace": "impala",
  "ItemId": "7179d788901e40ea8b7ab8605815d8f0",
  "ImageUrl": "https://cdn1.epicgames.com/impala/item/Game-Page-Promo-2580x1450-99fd67a6a935b8c2436385b0c54e6f92.jpg",
  "Dlcs": {
    "a49776f1ad5d42eea57e109b40626971": {
      "Name": "Tom Clancy's The Division 2 - Y1 Season Pass",
      "ItemId": "e95267125c9f4278a23cdc448f25aa23"
    },
    "4dc81db3e2b64285bbbd9c630aae6c44": {
      "Name": "Tom Clancy's The Division 2 - Y2 Season Pass",
      "ItemId": "f2012dac14854ce98803922ecaec8038"
    }
  }
}