{
  "Releases": [
    "Windows"
  ],
  "Name": "Sherlock Holmes Crimes and Punishments",
  "AppId": "0afb9d54dd3743a582b48b506466d3f8",
  "Namespace": "23f3da2016b94461a7bd7e2eb46aa0f9",
  "ItemId": "96fda52d68f5425baaa9aba68ec59549",
  "ImageUrl": "https://cdn1.epicgames.com/23f3da2016b94461a7bd7e2eb46aa0f9/item/Diesel_productv2_sherlock-holmes-crimes-and-punishments_home_EGS_SherlockHolmesCrimesandPunishments_Frogwares_S3-1360x766-60bfd62d8de3b70ba9a73e41a715a2dd3b9e15a1-1360x766-e2e6caa7637328254a763d4900ea8fa3.jpg",
  "Dlcs": {}
}