{
  "Releases": [
    "Windows"
  ],
  "Name": "Just Cause 4",
  "AppId": "Kakopo",
  "Namespace": "ba8062bdcc1342c0b78743e3c6242575",
  "ItemId": "11fa5d6106524a3fa600b111ac243f58",
  "ImageUrl": "https://cdn1.epicgames.com/ba8062bdcc1342c0b78743e3c6242575/item/EGS_JustCause4StandardEdition_AvalancheStudios_Editions_S1-2560x1440-5c3b5edf8cb8b166fbc08b80df974f5f.jpg",
  "Dlcs": {
    "4f53f80e7b584c0fb78ca6412f089406": {
      "Name": "Darevil",
      "ItemId": "31b7eb380df644f69852721baaa2086b"
    },
    "0ed2a4cd32424c51875fc207248f0c5b": {
      "Name": "Demonios",
      "ItemId": "1e8b6e885a5d4c6abe8682ad19bcc75c"
    },
    "f8f75b1b01da4d08a8f9b7029cf5a7cb": {
      "Name": "KakopoDanger",
      "ItemId": "ac1c75ec95324aef8098154d627884b3"
    },
    "998d98c684af42fca92597a2bdb9202c": {
      "Name": "Renegade Pack",
      "ItemId": "5b0432d23fb443b0b848496223c376fb"
    },
    "2a6ebec91e0a432e946c6456c560de84": {
      "Name": "The Dragon",
      "ItemId": "850460c17ece45478650786b3a087842"
    },
    "3877fc68d20b410eb2d982542dc3e11e": {
      "Name": "KakopoToy",
      "ItemId": "9835db5011204a0fa3dfe7aa543dd048"
    },
    "dcb217758bdc479e999cf5b8ee3c617c": {
      "Name": "Kakopo Speed",
      "ItemId": "d5ca1a59f42a4645b72876f6290819c6"
    },
    "6ba588b46f4646e89bf08741334ffb6a": {
      "Name": "KakopoAssault",
      "ItemId": "d5cd3890371e47cbb7afa0316a321dac"
    },
    "12d9754fc8a5476cb2b849b5919b1fbf": {
      "Name": "KakopoSea",
      "ItemId": "90263bb5f2e8452f984d0df1d5a1fefc"
    },
    "1ef998074e18490aa3c6fd4b677fdd2b": {
      "Name": "KakopoShark",
      "ItemId": "f467c84491fe4d768201a23d59bd6240"
    },
    "8244b88bd73444c2ad8adb134fe7a372": {
      "Name": "KakopoBrawler",
      "ItemId": "35f0f1402708437f971c45fdd8aaa4de"
    },
    "1c5bf05512a2409d8986e78ecf3aa1be": {
      "Name": "KakopoSkystriker",
      "ItemId": "f1043493bdf9492e874a0bc5876908a9"
    },
    "f9673c218a4443a3a1a69b0e9cae2beb": {
      "Name": "KakopoNeon",
      "ItemId": "4bc500b2d08b49b0949d52e62e489688"
    },
    "cd3ebcc5587a459981a175f6022c999e": {
      "Name": "KakopoScorpion",
      "ItemId": "253e2dd66c524bdb87474b6055fb6d40"
    },
    "0a23cf28c5e0402e8e00a419a34aaf2a": {
      "Name": "Gold Gear Pack",
      "ItemId": "e86800a031374b40bbc89ce51b9d55ad"
    }
  }
}