{
  "Releases": [
    "Windows"
  ],
  "Name": "ARK Editor",
  "AppId": "ARKDevKit",
  "Namespace": "ark",
  "ItemId": "8077d89481064a9097dd4b8fe7bca090",
  "ImageUrl": "https://cdn1.epicgames.com/ark/item/ark-860x500-bcdfeebe35e569b1ea216e397f41b102.png",
  "Dlcs": {}
}