﻿{
  "Dlcs": {},
  "Name": "AudioSurf",
  "AppId": "12900",
  "ImageUrl": "https://steamcdn-a.akamaihd.net/steam/apps/12900/header.jpg?t=1568404797",
  "Languages": [
    "english",
    "russian"
  ],
  "Platforms": {
    "windows": true,
    "mac": false,
    "linux": false
  }
}