{
  "Releases": [
    "Windows"
  ],
  "Name": "Remnant: From the Ashes",
  "AppId": "b4a0d2d15acb4db894a599b810297543",
  "Namespace": "663e521f2a444199be58152fd93fa66e",
  "ItemId": "b0e071ce0bb54cba93ad02011ce40f76",
  "ImageUrl": "https://cdn1.epicgames.com/663e521f2a444199be58152fd93fa66e/item/EGS_RemnantFromtheAshes_GunfireGames_S1-2560x1440-7263019d76982af81d67ed2c1c0e7c7b.jpg",
  "Dlcs": {
    "Swamps of Corsus Audience": {
      "Name": "Swamps of Corsus Audience",
      "ItemId": "14d1517dbd7242bcb5cb94881ca1c28f"
    },
    "Subject 2923 Audience": {
      "Name": "Subject 2923 Audience",
      "ItemId": "56acef6d526e4b819caff773dd244635"
    }
  }
}