﻿[
  {
    "name": "ACH_1",
    "defaultvalue": 0,
    "displayName": "Long and Winding Road",
    "hidden": 0,
    "description": "Reach level 20.",
    "icon": "https://steamcdn-a.akamaihd.net/steamcommunity/public/images/apps/1085660/e1b14b0d33543c06d77417a8551be88f15e6efb2.jpg",
    "icongray": "https://steamcdn-a.akamaihd.net/steamcommunity/public/images/apps/1085660/6037c98bd9375c7d16d71dd01929b039c13a532c.jpg"
  },
  {
    "name": "ACH_2",
    "defaultvalue": 0,
    "displayName": "Zavala's Lieutenant",
    "hidden": 0,
    "description": "Acquire each Titan subclass.",
    "icon": "https://steamcdn-a.akamaihd.net/steamcommunity/public/images/apps/1085660/5540087553691173bc067c55768b79a637044456.jpg",
    "icongray": "https://steamcdn-a.akamaihd.net/steamcommunity/public/images/apps/1085660/5c12ed0c49393381e7103396dce0ba88ca917b86.jpg"
  },
  {
    "name": "ACH_3",
    "defaultvalue": 0,
    "displayName": "Cayde's Pathfinder",
    "hidden": 0,
    "description": "Acquire each Hunter subclass.",
    "icon": "https://steamcdn-a.akamaihd.net/steamcommunity/public/images/apps/1085660/1cd22cf508d30fe65be61b7baf1fa62d954c87ba.jpg",
    "icongray": "https://steamcdn-a.akamaihd.net/steamcommunity/public/images/apps/1085660/6037c98bd9375c7d16d71dd01929b039c13a532c.jpg"
  },
  {
    "name": "ACH_4",
    "defaultvalue": 0,
    "displayName": "Ikora's Protégé",
    "hidden": 0,
    "description": "Acquire each Warlock subclass.",
    "icon": "https://steamcdn-a.akamaihd.net/steamcommunity/public/images/apps/1085660/9480b165f730d3e3d0bb0f16a26fb4c4c2fa9544.jpg",
    "icongray": "https://steamcdn-a.akamaihd.net/steamcommunity/public/images/apps/1085660/5c12ed0c49393381e7103396dce0ba88ca917b86.jpg"
  },
  {
    "name": "ACH_5",
    "defaultvalue": 0,
    "displayName": "Show Me What You Got",
    "hidden": 0,
    "description": "Complete Introduction: Crucible.",
    "icon": "https://steamcdn-a.akamaihd.net/steamcommunity/public/images/apps/1085660/a5e0f57fa3bd4d0231aff178c9996ac044d06f09.jpg",
    "icongray": "https://steamcdn-a.akamaihd.net/steamcommunity/public/images/apps/1085660/5c12ed0c49393381e7103396dce0ba88ca917b86.jpg"
  },
  {
    "name": "ACH_6",
    "defaultvalue": 0,
    "displayName": "In A Flash",
    "hidden": 0,
    "description": "Complete a Flashpoint on Earth, Titan, Nessus, or Io.",
    "icon": "https://steamcdn-a.akamaihd.net/steamcommunity/public/images/apps/1085660/b20811d7df96b41476d435798a7e5689b8852f0b.jpg",
    "icongray": "https://steamcdn-a.akamaihd.net/steamcommunity/public/images/apps/1085660/6037c98bd9375c7d16d71dd01929b039c13a532c.jpg"
  },
  {
    "name": "ACH_7",
    "defaultvalue": 0,
    "displayName": "The People's Hero",
    "hidden": 0,
    "description": "Complete a Heroic public event.",
    "icon": "https://steamcdn-a.akamaihd.net/steamcommunity/public/images/apps/1085660/7616b498502c387938ccb2a2a2023d49eba5cd0b.jpg",
    "icongray": "https://steamcdn-a.akamaihd.net/steamcommunity/public/images/apps/1085660/5c12ed0c49393381e7103396dce0ba88ca917b86.jpg"
  },
  {
    "name": "ACH_8",
    "defaultvalue": 0,
    "displayName": "Heart of Darkness",
    "hidden": 0,
    "description": "Complete a Nightfall strike.",
    "icon": "https://steamcdn-a.akamaihd.net/steamcommunity/public/images/apps/1085660/748dd9b394020546ca104372b3150d5a7e9e3cce.jpg",
    "icongray": "https://steamcdn-a.akamaihd.net/steamcommunity/public/images/apps/1085660/5c12ed0c49393381e7103396dce0ba88ca917b86.jpg"
  },
  {
    "name": "ACH_9",
    "defaultvalue": 0,
    "displayName": "The Life Exotic",
    "hidden": 0,
    "description": "Collect 15 Red War exotic weapons or armor.",
    "icon": "https://steamcdn-a.akamaihd.net/steamcommunity/public/images/apps/1085660/3ab546cc51c9c7aad8cf0fcc9f9dca9f785bd816.jpg",
    "icongray": "https://steamcdn-a.akamaihd.net/steamcommunity/public/images/apps/1085660/5c12ed0c49393381e7103396dce0ba88ca917b86.jpg"
  },
  {
    "name": "ACH_10",
    "defaultvalue": 0,
    "displayName": "Challenge Accepted",
    "hidden": 0,
    "description": "Complete 30 challenges.",
    "icon": "https://steamcdn-a.akamaihd.net/steamcommunity/public/images/apps/1085660/159f68891ff3ac187e83e0f66348d665436fefb9.jpg",
    "icongray": "https://steamcdn-a.akamaihd.net/steamcommunity/public/images/apps/1085660/5c12ed0c49393381e7103396dce0ba88ca917b86.jpg"
  },
  {
    "name": "ACH_11",
    "defaultvalue": 0,
    "displayName": "Belly Of The Beast",
    "hidden": 0,
    "description": "Complete the Leviathan raid.",
    "icon": "https://steamcdn-a.akamaihd.net/steamcommunity/public/images/apps/1085660/95b023ae74ba688be3c4d82f4d9cbf4e85e04eba.jpg",
    "icongray": "https://steamcdn-a.akamaihd.net/steamcommunity/public/images/apps/1085660/5c12ed0c49393381e7103396dce0ba88ca917b86.jpg"
  },
  {
    "name": "ACH_12",
    "defaultvalue": 0,
    "displayName": "The Prestige",
    "hidden": 0,
    "description": "Complete the Leviathan raid on Prestige difficulty.",
    "icon": "https://steamcdn-a.akamaihd.net/steamcommunity/public/images/apps/1085660/6bd5eb21530d8938ee9b3cb2c73895da2dedc48a.jpg",
    "icongray": "https://steamcdn-a.akamaihd.net/steamcommunity/public/images/apps/1085660/5c12ed0c49393381e7103396dce0ba88ca917b86.jpg"
  },
  {
    "name": "ACH_13",
    "defaultvalue": 0,
    "displayName": "Lest Ye Be Judged",
    "hidden": 0,
    "description": "Encounter an Agent of the Nine somewhere in the system.",
    "icon": "https://steamcdn-a.akamaihd.net/steamcommunity/public/images/apps/1085660/9cc7c35d63d4785e0e30a9892d5622e9901a496f.jpg",
    "icongray": "https://steamcdn-a.akamaihd.net/steamcommunity/public/images/apps/1085660/5c12ed0c49393381e7103396dce0ba88ca917b86.jpg"
  },
  {
    "name": "ACH_14",
    "defaultvalue": 0,
    "displayName": "Legends Grow",
    "hidden": 0,
    "description": "Earn 5,000 Triumph points.",
    "icon": "https://steamcdn-a.akamaihd.net/steamcommunity/public/images/apps/1085660/a5c8f25b3907a38051a74c6e95f167d015c0bd1a.jpg",
    "icongray": "https://steamcdn-a.akamaihd.net/steamcommunity/public/images/apps/1085660/5c12ed0c49393381e7103396dce0ba88ca917b86.jpg"
  },
  {
    "name": "ACH_15",
    "defaultvalue": 0,
    "displayName": "Exotique",
    "hidden": 0,
    "description": "Collect 10 Forsaken Exotic weapons or armor.",
    "icon": "https://steamcdn-a.akamaihd.net/steamcommunity/public/images/apps/1085660/b02f2efe84cb78873686916145c9690e64913ab1.jpg",
    "icongray": "https://steamcdn-a.akamaihd.net/steamcommunity/public/images/apps/1085660/6037c98bd9375c7d16d71dd01929b039c13a532c.jpg"
  },
  {
    "name": "ACH_16",
    "defaultvalue": 0,
    "displayName": "Seal the Deal",
    "hidden": 0,
    "description": "Complete a Triumph Seal.",
    "icon": "https://steamcdn-a.akamaihd.net/steamcommunity/public/images/apps/1085660/1f66ad6310b7876fe279d3b42583a2f94c7ff0cb.jpg",
    "icongray": "https://steamcdn-a.akamaihd.net/steamcommunity/public/images/apps/1085660/5c12ed0c49393381e7103396dce0ba88ca917b86.jpg"
  },
  {
    "name": "ACH_17",
    "defaultvalue": 0,
    "displayName": "Fashion Statement",
    "hidden": 0,
    "description": "Complete a Collections Badge.",
    "icon": "https://steamcdn-a.akamaihd.net/steamcommunity/public/images/apps/1085660/80f910b5156eaa4d76d4c58eb75b3fd42160fe5e.jpg",
    "icongray": "https://steamcdn-a.akamaihd.net/steamcommunity/public/images/apps/1085660/5c12ed0c49393381e7103396dce0ba88ca917b86.jpg"
  },
  {
    "name": "ACH_18",
    "defaultvalue": 0,
    "displayName": "Heart of the Awoken",
    "hidden": 1,
    "icon": "https://steamcdn-a.akamaihd.net/steamcommunity/public/images/apps/1085660/ebc1f36a5e290faf1dd2aa4cdf808b7e828f6393.jpg",
    "icongray": "https://steamcdn-a.akamaihd.net/steamcommunity/public/images/apps/1085660/5c12ed0c49393381e7103396dce0ba88ca917b86.jpg"
  },
  {
    "name": "ACH_19",
    "defaultvalue": 0,
    "displayName": "An Exotic Journey",
    "hidden": 1,
    "icon": "https://steamcdn-a.akamaihd.net/steamcommunity/public/images/apps/1085660/b305368acfe23695c0ad2263169031edec829d3c.jpg",
    "icongray": "https://steamcdn-a.akamaihd.net/steamcommunity/public/images/apps/1085660/5c12ed0c49393381e7103396dce0ba88ca917b86.jpg"
  },
  {
    "name": "ACH_20",
    "defaultvalue": 0,
    "displayName": "High-Stakes Play",
    "hidden": 0,
    "description": "Win a Gambit match.",
    "icon": "https://steamcdn-a.akamaihd.net/steamcommunity/public/images/apps/1085660/be4e4a37b8b585b127190ada7a6b6a76e39a98d2.jpg",
    "icongray": "https://steamcdn-a.akamaihd.net/steamcommunity/public/images/apps/1085660/5c12ed0c49393381e7103396dce0ba88ca917b86.jpg"
  },
  {
    "name": "ACH_21",
    "defaultvalue": 0,
    "displayName": "Darkness Falls",
    "hidden": 0,
    "description": "Defeat a Forsaken Nightfall Boss.",
    "icon": "https://steamcdn-a.akamaihd.net/steamcommunity/public/images/apps/1085660/3d81fef77e3a7a227a74ce9a3c519fc94a91932e.jpg",
    "icongray": "https://steamcdn-a.akamaihd.net/steamcommunity/public/images/apps/1085660/5c12ed0c49393381e7103396dce0ba88ca917b86.jpg"
  },
  {
    "name": "ACH_22",
    "defaultvalue": 0,
    "displayName": "Nothing Left to Say",
    "hidden": 1,
    "icon": "https://steamcdn-a.akamaihd.net/steamcommunity/public/images/apps/1085660/748d4a4d6afdd6d9345f1ddb8bd740d4fc184f0f.jpg",
    "icongray": "https://steamcdn-a.akamaihd.net/steamcommunity/public/images/apps/1085660/5c12ed0c49393381e7103396dce0ba88ca917b86.jpg"
  },
  {
    "name": "ACH_23",
    "defaultvalue": 0,
    "displayName": "Wishing for the Best",
    "hidden": 0,
    "description": "Complete the \"Last Wish\" Raid.",
    "icon": "https://steamcdn-a.akamaihd.net/steamcommunity/public/images/apps/1085660/9ca90b9e26bcc56ae3c0625bc6c382e16cc87b85.jpg",
    "icongray": "https://steamcdn-a.akamaihd.net/steamcommunity/public/images/apps/1085660/6037c98bd9375c7d16d71dd01929b039c13a532c.jpg"
  }
]