﻿[
  {
    "appid": "431960",
    "itemdefid": "1000",
    "Timestamp": "2016-10-10T08:03:17.0694493Z",
    "modified": "20161010T080316Z",
    "date_created": "20161010T080316Z",
    "type": "item",
    "display_type": "",
    "name": "WaterFlow",
    "price": "1;VLV100",
    "quantity": 0,
    "description": "Fully customizable water flow animation with slideshow, multi monitor support and many different combinations.",
    "background_color": "131c27",
    "icon_url": "http://images.akamai.steamusercontent.com/ugc/264974925131438597/E76D68BBAA78500161DBE7959159E3DC7DC01431/",
    "icon_url_large": "http://images.akamai.steamusercontent.com/ugc/264974925131438597/E76D68BBAA78500161DBE7959159E3DC7DC01431/",
    "name_color": "FFFFFF",
    "store_tags": "interactive",
    "tradable": true,
    "marketable": true,
    "commodity": false,
    "drop_interval": 0,
    "drop_max_per_window": 0,
    "workshopid": "773771613",
    "item_quality": "0"
  },
  {
    "appid": "431960",
    "itemdefid": "1001",
    "Timestamp": "2017-01-12T15:29:03.6870979Z",
    "modified": "20170112T152903Z",
    "date_created": "20170112T152903Z",
    "type": "item",
    "display_type": "",
    "name": "Dragon",
    "price": "1;VLV200",
    "quantity": 0,
    "description": "Fully animated dragon with customizable body parts who flies around the mountains or sits in the grass. Customizable lighting with full day and night cycle or using your real world time.",
    "background_color": "131c27",
    "icon_url": "http://images.akamai.steamusercontent.com/ugc/255969629388826862/C692B345094DDBDDE9E07462A12DFC88FF980B1F/",
    "icon_url_large": "http://images.akamai.steamusercontent.com/ugc/255969629388826862/C692B345094DDBDDE9E07462A12DFC88FF980B1F/",
    "name_color": "FFFFFF",
    "store_tags": "interactive;3d",
    "tradable": false,
    "marketable": false,
    "commodity": false,
    "drop_interval": 0,
    "drop_max_per_window": 0,
    "workshopid": "783540679",
    "item_quality": "0"
  },
  {
    "appid": "431960",
    "itemdefid": "1002",
    "Timestamp": "2017-01-12T15:29:03.7981711Z",
    "modified": "20170112T152903Z",
    "date_created": "20170112T152903Z",
    "type": "item",
    "display_type": "",
    "name": "Space Trail",
    "price": "1;VLV200",
    "quantity": 0,
    "description": "Customizable particle trail that follows your mouse. Build your own unique trail effect and set a slideshow that blends between backgrounds and mouse trails.",
    "background_color": "131c27",
    "icon_url": "http://images.akamai.steamusercontent.com/ugc/110734919451632889/7E6FB5AE36C66C51642EF9D64EB38394EAB2BC43/",
    "icon_url_large": "http://images.akamai.steamusercontent.com/ugc/110734919451632889/7E6FB5AE36C66C51642EF9D64EB38394EAB2BC43/",
    "name_color": "FFFFFF",
    "store_tags": "interactive",
    "tradable": false,
    "marketable": false,
    "commodity": false,
    "drop_interval": 0,
    "drop_max_per_window": 0,
    "workshopid": "831074483",
    "item_quality": "0"
  },
  {
    "appid": "431960",
    "itemdefid": "1003",
    "Timestamp": "2017-01-12T15:29:03.8852282Z",
    "modified": "20170112T152903Z",
    "date_created": "20170112T152903Z",
    "type": "item",
    "display_type": "",
    "name": "Space Twirl",
    "price": "1;VLV200",
    "quantity": 0,
    "description": "Animated and customizable space twirl. Choose between multiple settings and combine various special effects to create your own unique twirl.",
    "background_color": "131c27",
    "icon_url": "http://images.akamai.steamusercontent.com/ugc/103980560160045056/FBC9B3E447F3F6B34256206D9938FE8A432BAA4D/",
    "icon_url_large": "http://images.akamai.steamusercontent.com/ugc/103980560160045056/FBC9B3E447F3F6B34256206D9938FE8A432BAA4D/",
    "name_color": "FFFFFF",
    "store_tags": "interactive",
    "tradable": false,
    "marketable": false,
    "commodity": false,
    "drop_interval": 0,
    "drop_max_per_window": 0,
    "workshopid": "836202597",
    "item_quality": "0"
  },
  {
    "appid": "431960",
    "itemdefid": "1004",
    "Timestamp": "2018-03-23T21:06:18Z",
    "modified": "20180323T210618Z",
    "date_created": "20180323T210618Z",
    "type": "item",
    "display_type": "",
    "name": "3D Earth Time Lapse PC",
    "price": "1;VLV250",
    "quantity": 0,
    "description": "3D EARTH TIME LAPSE PC is an interactive wallpaper that presents our beautiful globe. Like the International Space Station (ISS), you can fly around the earth, but here you can control speed, direction and altitude.\n\nYou can find more details about its features here: http://steamcommunity.com/sharedfiles/filedetails/?id=1313879147 \n\nNew interactive wallpapers are around the corner, please stay with us ;)\nhttp://www.facebook.com/3DM.LIVE.WALLPAPERS",
    "background_color": "131c27",
    "icon_url": "http://images.akamai.steamusercontent.com/ugc/918043438272367846/B7A3C5168C695E47FD8AA860F974BEDE370908A1/",
    "icon_url_large": "http://images.akamai.steamusercontent.com/ugc/918043438272367846/B7A3C5168C695E47FD8AA860F974BEDE370908A1/",
    "name_color": "FFFFFF",
    "store_tags": "interactive;3d",
    "tradable": false,
    "marketable": false,
    "commodity": false,
    "drop_interval": 0,
    "drop_max_per_window": 0,
    "workshopid": "1313879147",
    "item_quality": "0"
  },
  {
    "appid": "431960",
    "itemdefid": "1005",
    "Timestamp": "2018-03-23T22:55:20Z",
    "modified": "20180323T225520Z",
    "date_created": "20180323T225520Z",
    "type": "item",
    "display_type": "",
    "name": "Melancholy",
    "price": "1;VLV200",
    "quantity": 0,
    "description": "This is a chill wallpaper with minor and subtle movements. The effect around the eyes is animated and the cables and phone are slowly levitating.\n\nArtwork by: ただのサボ, used with permission.",
    "background_color": "131c27",
    "icon_url": "http://images.akamai.steamusercontent.com/ugc/860612122499510154/C988B32B148394AF5C83DF5B59EFA221A56A04D1/",
    "icon_url_large": "http://images.akamai.steamusercontent.com/ugc/860612122499510154/C988B32B148394AF5C83DF5B59EFA221A56A04D1/",
    "name_color": "FFFFFF",
    "store_tags": "2d;anime",
    "tradable": false,
    "marketable": false,
    "commodity": false,
    "drop_interval": 0,
    "drop_max_per_window": 0,
    "workshopid": "1188338969",
    "item_quality": "0"
  }
]