﻿{
  "Dlcs": {
    "323130": {
      "Name": "",
      "ImageUrl": ""
    }
  },
  "Name": "Half-Life",
  "AppId": "70",
  "ImageUrl": "https://steamcdn-a.akamaihd.net/steam/apps/70/header.jpg?t=1591048039",
  "Languages": [
    "english",
    "french",
    "german",
    "italian",
    "spanish",
    "schinese",
    "tchinese",
    "korean"
  ],
  "Platforms": {
    "windows": true,
    "mac": true,
    "linux": true
  }
}