﻿{
  "Dlcs": {
    "1356730": {
      "Name": "Warframe Inaros Prime Access: Devour Pack",
      "ImageUrl": "https://steamcdn-a.akamaihd.net/steam/apps/1356730/header.jpg?t=1594750235"
    },
    "1356731": {
      "Name": "Warframe Inaros Prime Access: Sandstorm Pack",
      "ImageUrl": "https://steamcdn-a.akamaihd.net/steam/apps/1356731/header.jpg?t=1594750366"
    },
    "1356732": {
      "Name": "Warframe Inaros Prime Access: Scarab Swarm Pack",
      "ImageUrl": "https://steamcdn-a.akamaihd.net/steam/apps/1356732/header.jpg?t=1594750418"
    },
    "1356733": {
      "Name": "Warframe Inaros Prime Access: Accessories Pack",
      "ImageUrl": "https://steamcdn-a.akamaihd.net/steam/apps/1356733/header.jpg?t=1594750140"
    },
    "1390110": {
      "Name": "Warframe: Initiate Pack",
      "ImageUrl": "https://steamcdn-a.akamaihd.net/steam/apps/1390110/header.jpg?t=1598391622"
    },
    "1390130": {
      "Name": "Warframe: Deimos Neophyte Supporter Pack",
      "ImageUrl": "https://steamcdn-a.akamaihd.net/steam/apps/1390130/header.jpg?t=1598391737"
    },
    "1390131": {
      "Name": "Warframe: Deimos Hive Supporter Pack",
      "ImageUrl": "https://steamcdn-a.akamaihd.net/steam/apps/1390131/header.jpg?t=1598391804"
    },
    "1390132": {
      "Name": "Warframe: Deimos Swarm Supporter Pack",
      "ImageUrl": "https://steamcdn-a.akamaihd.net/steam/apps/1390132/header.jpg?t=1598391977"
    }
  },
  "Name": "Warframe",
  "AppId": "230410",
  "ImageUrl": "https://steamcdn-a.akamaihd.net/steam/apps/230410/header.jpg?t=1598404828",
  "Languages": [
    "english",
    "german",
    "french",
    "italian",
    "korean",
    "spanish",
    "schinese",
    "russian",
    "japanese",
    "polish",
    "portuguese",
    "tchinese",
    "turkish",
    "ukrainian"
  ],
  "Platforms": {
    "windows": true,
    "mac": false,
    "linux": false
  }
}