﻿[
  {
    "name": "map_discover_60",
    "defaultvalue": 0,
    "displayName": "I Am a GPS",
    "hidden": 0,
    "description": "Discover more than 60% of the map",
    "icon": "https://steamcdn-a.akamaihd.net/steamcommunity/public/images/apps/227300/bb72187895dba634f933cd102d246b98694757dc.jpg",
    "icongray": "https://steamcdn-a.akamaihd.net/steamcommunity/public/images/apps/227300/ba50490fffba8e13897f2c2557299ce620ff7fc8.jpg"
  },
  {
    "name": "map_discover_100",
    "defaultvalue": 0,
    "displayName": "Pathfinder",
    "hidden": 0,
    "description": "Discover 100% of the map",
    "icon": "https://steamcdn-a.akamaihd.net/steamcommunity/public/images/apps/227300/e23d08a2fb9d06deb3652cc7afb63ce907579f79.jpg",
    "icongray": "https://steamcdn-a.akamaihd.net/steamcommunity/public/images/apps/227300/9efdd4d236830fdafc1b8e4c34d59047e3813637.jpg"
  },
  {
    "name": "use_train",
    "defaultvalue": 0,
    "displayName": "Choo-Choo",
    "hidden": 0,
    "description": "Use the train to cross the channel",
    "icon": "https://steamcdn-a.akamaihd.net/steamcommunity/public/images/apps/227300/88e8103c20cfa029fcfe8b0026676d8d8957e5f3.jpg",
    "icongray": "https://steamcdn-a.akamaihd.net/steamcommunity/public/images/apps/227300/28c98a7ae9c84470a81d6953243c0a4f4bb6fbae.jpg"
  },
  {
    "name": "use_boat",
    "defaultvalue": 0,
    "displayName": "Sardine",
    "hidden": 0,
    "description": "Utilize a boat",
    "icon": "https://steamcdn-a.akamaihd.net/steamcommunity/public/images/apps/227300/584bb8b8400a8b83f03e7033e91e462f84a96e5e.jpg",
    "icongray": "https://steamcdn-a.akamaihd.net/steamcommunity/public/images/apps/227300/c2b2ce4ed4759da10017598e16a744e97639eb6e.jpg"
  },
  {
    "name": "discover_all_agencies",
    "defaultvalue": 0,
    "displayName": "Head Hunter",
    "hidden": 0,
    "description": "Discover all recruitment agencies",
    "icon": "https://steamcdn-a.akamaihd.net/steamcommunity/public/images/apps/227300/cda2c41f030452597063b653fe40c686adfa434a.jpg",
    "icongray": "https://steamcdn-a.akamaihd.net/steamcommunity/public/images/apps/227300/7ebc8c39d1e55ff364ad8bb77883c719c5b88c4b.jpg"
  },
  {
    "name": "use_all_ports",
    "defaultvalue": 0,
    "displayName": "Successfully Docked",
    "hidden": 0,
    "description": "Use all ports in the game (counts sea and train ports)",
    "icon": "https://steamcdn-a.akamaihd.net/steamcommunity/public/images/apps/227300/9d2062969b9f120f687d5552361f14a214e0d39b.jpg",
    "icongray": "https://steamcdn-a.akamaihd.net/steamcommunity/public/images/apps/227300/8071f9e2a3ca70704760f063345b0f9cc7aa4093.jpg"
  },
  {
    "name": "buy_truck_online",
    "defaultvalue": 0,
    "displayName": "From the Comfort of Your Home",
    "hidden": 0,
    "description": "Buy a truck online",
    "icon": "https://steamcdn-a.akamaihd.net/steamcommunity/public/images/apps/227300/9f7f7cf70eb1200a2e5ca7ae77fcb3a06fb5eb8e.jpg",
    "icongray": "https://steamcdn-a.akamaihd.net/steamcommunity/public/images/apps/227300/7157fd531ead92e865d79dc44ac078f394964108.jpg"
  },
  {
    "name": "metallic_multi_color_paint",
    "defaultvalue": 0,
    "displayName": "My Precious",
    "hidden": 0,
    "description": "Design and apply to your truck a custom multi-color metallic paint",
    "icon": "https://steamcdn-a.akamaihd.net/steamcommunity/public/images/apps/227300/6f39d7c7b02afe20cc1b9393adc446a0114cf004.jpg",
    "icongray": "https://steamcdn-a.akamaihd.net/steamcommunity/public/images/apps/227300/ca52f252f98889569ccb92ae4f189833207cfaf4.jpg"
  },
  {
    "name": "999_km_with_each_brand",
    "defaultvalue": 0,
    "displayName": "Test Drive Limited",
    "hidden": 0,
    "description": "Drive at least 999 km during jobs with each truck brand featured in the game. Only your owned trucks are counted. (MAN, DAF, Mercedes-Benz, Renault, Iveco, Scania, Volvo)",
    "icon": "https://steamcdn-a.akamaihd.net/steamcommunity/public/images/apps/227300/767a165943781afba48a940ab5f6ba3419fde55b.jpg",
    "icongray": "https://steamcdn-a.akamaihd.net/steamcommunity/public/images/apps/227300/9b1d13f464cbf49b12800a16f116402bdf2c68ed.jpg"
  },
  {
    "name": "job_urgent",
    "defaultvalue": 0,
    "displayName": "Just in Time!",
    "hidden": 0,
    "description": "Take an urgent delivery for a minimum of 550 km and complete it with less than 30 minutes remaining",
    "icon": "https://steamcdn-a.akamaihd.net/steamcommunity/public/images/apps/227300/ab986302a2aa21ca650bfa207daf19251f277f27.jpg",
    "icongray": "https://steamcdn-a.akamaihd.net/steamcommunity/public/images/apps/227300/7f8b96e723fe52f2d4b2f3884b4f6286d137a98b.jpg"
  },
  {
    "name": "job_2000_km",
    "defaultvalue": 0,
    "displayName": "Long Hauler",
    "hidden": 0,
    "description": "Complete a delivery that was greater than 2,000 km",
    "icon": "https://steamcdn-a.akamaihd.net/steamcommunity/public/images/apps/227300/99ba3758a37d8e5d9aa4ab3b1c6a3175e1f18e28.jpg",
    "icongray": "https://steamcdn-a.akamaihd.net/steamcommunity/public/images/apps/227300/367238ee1050a9c3684d10899efd2a3400e9ebf9.jpg"
  },
  {
    "name": "job_15_companies",
    "defaultvalue": 0,
    "displayName": "Reliable Contractor",
    "hidden": 0,
    "description": "Perform jobs for at least 15 different companies in the game",
    "icon": "https://steamcdn-a.akamaihd.net/steamcommunity/public/images/apps/227300/cc2e4eae5aa15218fdb5edbd90512f5a608072bd.jpg",
    "icongray": "https://steamcdn-a.akamaihd.net/steamcommunity/public/images/apps/227300/b5ce36d7a844d1a271c42fcd481db7e148d6ffd0.jpg"
  },
  {
    "name": "job_no_ferry",
    "defaultvalue": 0,
    "displayName": "Profit Hunter",
    "hidden": 0,
    "description": "Complete a job worth over €130,000 and minimum 2,200 km",
    "icon": "https://steamcdn-a.akamaihd.net/steamcommunity/public/images/apps/227300/e98acf4c9782e358a4b1bd4adc55dc27e17dfedc.jpg",
    "icongray": "https://steamcdn-a.akamaihd.net/steamcommunity/public/images/apps/227300/5d65cd0dacce3851cda952ee2b4ee861a879fe5c.jpg"
  },
  {
    "name": "job_all_trailer_types",
    "defaultvalue": 0,
    "displayName": "Experience Beats All!",
    "hidden": 0,
    "description": "Complete deliveries with all trailer types (Machinery, ADR cargo, Container, Refrigerated, Liquid cargo, Fragile cargo, Construction, Bulk cargo)",
    "icon": "https://steamcdn-a.akamaihd.net/steamcommunity/public/images/apps/227300/60fd6d294cf7d2ef39e8fecf20e411f2ad198430.jpg",
    "icongray": "https://steamcdn-a.akamaihd.net/steamcommunity/public/images/apps/227300/5593bf7724e9c9d1954dfbd0f2cc742bb69be8bc.jpg"
  },
  {
    "name": "perfect_delivery",
    "defaultvalue": 0,
    "displayName": "Job Is Only Worth It If It's Done Well!",
    "hidden": 0,
    "description": "Complete a perfect delivery (no damage, no fines, in-time) for a job that is at least 1,000 km",
    "icon": "https://steamcdn-a.akamaihd.net/steamcommunity/public/images/apps/227300/afb95e7876de69c84260572d9dcb7f24df2d7aa2.jpg",
    "icongray": "https://steamcdn-a.akamaihd.net/steamcommunity/public/images/apps/227300/8f36cb32655b130c15c11c3920137bb67ac98699.jpg"
  },
  {
    "name": "5_jobs_in_a_row",
    "defaultvalue": 0,
    "displayName": "Careerist",
    "hidden": 0,
    "description": "Complete 5 jobs in a row - in-time, without taking any damage to cargo and without using autoparking",
    "icon": "https://steamcdn-a.akamaihd.net/steamcommunity/public/images/apps/227300/93c762512c4615d3a0d34190ac2a838a7d93f5d7.jpg",
    "icongray": "https://steamcdn-a.akamaihd.net/steamcommunity/public/images/apps/227300/bab7e32cfeddf8b547b399d9faf860ea0bafe338.jpg"
  },
  {
    "name": "use_automatic_parking",
    "defaultvalue": 0,
    "displayName": "Friends Are Always Here to Help You",
    "hidden": 0,
    "description": "Use automatic parking",
    "icon": "https://steamcdn-a.akamaihd.net/steamcommunity/public/images/apps/227300/e6c4891b8062c9a7408cb48679354fd18cd23ef3.jpg",
    "icongray": "https://steamcdn-a.akamaihd.net/steamcommunity/public/images/apps/227300/9e7d9bc03946f6a0691cff81309170100c73dc9b.jpg"
  },
  {
    "name": "jobs_30_cargo",
    "defaultvalue": 0,
    "displayName": "All Is Possible",
    "hidden": 0,
    "description": "Take and complete jobs with at least 30 different cargo",
    "icon": "https://steamcdn-a.akamaihd.net/steamcommunity/public/images/apps/227300/29d97afbe4d6014c69da3d681f7d63f4de2070e4.jpg",
    "icongray": "https://steamcdn-a.akamaihd.net/steamcommunity/public/images/apps/227300/fc2016f1909603e63f839159eee974805e48eff2.jpg"
  },
  {
    "name": "jobs_20k_xp",
    "defaultvalue": 0,
    "displayName": "Minimaxer",
    "hidden": 0,
    "description": "Gain 20,000 XP for several consecutive jobs with the total distance below 10,000 km",
    "icon": "https://steamcdn-a.akamaihd.net/steamcommunity/public/images/apps/227300/e94e39e583f4cb0601928c4110c1f6b28784c2b3.jpg",
    "icongray": "https://steamcdn-a.akamaihd.net/steamcommunity/public/images/apps/227300/6ed467e72e39cd75f6394c283f793f0ffc6d8b6a.jpg"
  },
  {
    "name": "quick_travel_to_hq",
    "defaultvalue": 0,
    "displayName": "Honey, I'm Home",
    "hidden": 0,
    "description": "Use quick travel to return to your headquarters",
    "icon": "https://steamcdn-a.akamaihd.net/steamcommunity/public/images/apps/227300/92ef2509a3bf9ecd0c92c4a475b8c1d9d990ff7c.jpg",
    "icongray": "https://steamcdn-a.akamaihd.net/steamcommunity/public/images/apps/227300/713a347bcf3c928b814fae43c5d22ceeab5d5291.jpg"
  },
  {
    "name": "garages_in_hq_country",
    "defaultvalue": 0,
    "displayName": "National Company",
    "hidden": 0,
    "description": "Own a garage in every city in your headquarter country",
    "icon": "https://steamcdn-a.akamaihd.net/steamcommunity/public/images/apps/227300/48b2b940a2db1d0fe3286cc8d2630e1900f0c1d8.jpg",
    "icongray": "https://steamcdn-a.akamaihd.net/steamcommunity/public/images/apps/227300/5ef33af9fb3ab5c44629b1ac5c25dd553a0f0136.jpg"
  },
  {
    "name": "garage_in_every_city",
    "defaultvalue": 0,
    "displayName": "Property Magnate",
    "hidden": 0,
    "description": "Own a garage in every city",
    "icon": "https://steamcdn-a.akamaihd.net/steamcommunity/public/images/apps/227300/e9ded6c9a7f45e3542a1a1688a49bfe820f57f4e.jpg",
    "icongray": "https://steamcdn-a.akamaihd.net/steamcommunity/public/images/apps/227300/823d70ce6007d0305618f1dd5f6d3906890f8dd1.jpg"
  },
  {
    "name": "large_garage_productivity",
    "defaultvalue": 0,
    "displayName": "Working with the Elite",
    "hidden": 0,
    "description": "Achieve 100% of productivity for at least 5 large garages at the same time",
    "icon": "https://steamcdn-a.akamaihd.net/steamcommunity/public/images/apps/227300/95b44964bca12a9abe56dbfde6fe9556d443f5de.jpg",
    "icongray": "https://steamcdn-a.akamaihd.net/steamcommunity/public/images/apps/227300/f77af263bb8bbe06b506c83e541a048372a863b9.jpg"
  },
  {
    "name": "daily_profit",
    "defaultvalue": 0,
    "displayName": "Swimming in Success",
    "hidden": 0,
    "description": "Reach an average daily profit of €450,000",
    "icon": "https://steamcdn-a.akamaihd.net/steamcommunity/public/images/apps/227300/696647f8e1ef8833df592eb7d77f902aca322c02.jpg",
    "icongray": "https://steamcdn-a.akamaihd.net/steamcommunity/public/images/apps/227300/811cb5797bd2c71c789626e069898fcbb9df8657.jpg"
  },
  {
    "name": "productivity_all_garages",
    "defaultvalue": 0,
    "displayName": "Performance Optimizer",
    "hidden": 0,
    "description": "Achieve at least 75% of the average garage productivity for 10 large garages in your company.",
    "icon": "https://steamcdn-a.akamaihd.net/steamcommunity/public/images/apps/227300/095cbfc965089015d9f6dcfb9f598e42eaa974bc.jpg",
    "icongray": "https://steamcdn-a.akamaihd.net/steamcommunity/public/images/apps/227300/7ddafac86833b6845dbebe950de525f8641bdb88.jpg"
  },
  {
    "name": "maxed_male_female",
    "defaultvalue": 0,
    "displayName": "Aspects of Professionalism",
    "hidden": 0,
    "description": "Have at least 10 female and 10 male employees of maximum level in your company",
    "icon": "https://steamcdn-a.akamaihd.net/steamcommunity/public/images/apps/227300/32e7c68b60e959dd9e01bb42eeaa6870eab9dd78.jpg",
    "icongray": "https://steamcdn-a.akamaihd.net/steamcommunity/public/images/apps/227300/78524397e844891970601bec0f18f44ce31fcba6.jpg"
  },
  {
    "name": "use_rest_stop",
    "defaultvalue": 0,
    "displayName": "Zzzzz",
    "hidden": 0,
    "description": "Use a rest stop",
    "icon": "https://steamcdn-a.akamaihd.net/steamcommunity/public/images/apps/227300/23b9b8772b177c79ab7c2195d167e5ca91bda995.jpg",
    "icongray": "https://steamcdn-a.akamaihd.net/steamcommunity/public/images/apps/227300/f5f39644c032b007e05894dea72c8b6c1f4d96a0.jpg"
  },
  {
    "name": "use_gas_station",
    "defaultvalue": 0,
    "displayName": "Diesel, No Petrol!",
    "hidden": 0,
    "description": "Use a filling station",
    "icon": "https://steamcdn-a.akamaihd.net/steamcommunity/public/images/apps/227300/a7d7c238f75ce5408fafa8b9f246148cb9974092.jpg",
    "icongray": "https://steamcdn-a.akamaihd.net/steamcommunity/public/images/apps/227300/b80c72253db280c655f1b5209d315301c844fb7c.jpg"
  },
  {
    "name": "sc_volvo_cargo",
    "defaultvalue": 0,
    "displayName": "Volvo Trucks Lover",
    "hidden": 0,
    "description": "Deliver truck cargo from Volvo Trucks factory (requires Scandinavia DLC)",
    "icon": "https://steamcdn-a.akamaihd.net/steamcommunity/public/images/apps/227300/9cb831452b7db706c7168db3b58beb9d44700af0.jpg",
    "icongray": "https://steamcdn-a.akamaihd.net/steamcommunity/public/images/apps/227300/461fb742cfb752ae3edf9c6ba5d8cca4dc024bba.jpg"
  },
  {
    "name": "sc_scania_cargo",
    "defaultvalue": 0,
    "displayName": "Scania Trucks Lover",
    "hidden": 0,
    "description": "Deliver truck cargo from Scania factory (requires Scandinavia DLC)",
    "icon": "https://steamcdn-a.akamaihd.net/steamcommunity/public/images/apps/227300/80e8d7453ddaf91162001c949a7be00c48a04d39.jpg",
    "icongray": "https://steamcdn-a.akamaihd.net/steamcommunity/public/images/apps/227300/4ddfa2eb43226f5a76c3b2f8191716c24b3ef4b8.jpg"
  },
  {
    "name": "sc_deliver_marinas",
    "defaultvalue": 0,
    "displayName": "Sailor",
    "hidden": 0,
    "description": "Deliver yachts to all Scandinavian marinas (requires Scandinavia and High Power Cargo Pack DLCs)",
    "icon": "https://steamcdn-a.akamaihd.net/steamcommunity/public/images/apps/227300/7636d77d5865410ae722ded70192f9d2cf649766.jpg",
    "icongray": "https://steamcdn-a.akamaihd.net/steamcommunity/public/images/apps/227300/69aae7aeff2552e8b79a735501b7153b1053831d.jpg"
  },
  {
    "name": "sc_container_ports",
    "defaultvalue": 0,
    "displayName": "Whatever Floats Your Boat",
    "hidden": 0,
    "description": "Deliver cargo to all container ports (requires Scandinavia DLC)",
    "icon": "https://steamcdn-a.akamaihd.net/steamcommunity/public/images/apps/227300/ffb54dedd2dc1fcbb46f10697be6a5fe334b20bf.jpg",
    "icongray": "https://steamcdn-a.akamaihd.net/steamcommunity/public/images/apps/227300/024f24b04b1905067b5bb644a87e8020937cba2b.jpg"
  },
  {
    "name": "sc_cows_to_farm",
    "defaultvalue": 0,
    "displayName": "Cattle Drive",
    "hidden": 0,
    "description": "Complete a livestock delivery to Scandinavia (requires Scandinavia DLC)",
    "icon": "https://steamcdn-a.akamaihd.net/steamcommunity/public/images/apps/227300/197c956f77a020607b3c04d834b189aa9307ef56.jpg",
    "icongray": "https://steamcdn-a.akamaihd.net/steamcommunity/public/images/apps/227300/864eb5138da1679c58b57e24b24b03604a7e23f2.jpg"
  },
  {
    "name": "sc_visit_cities",
    "defaultvalue": 0,
    "displayName": "Sightseer",
    "hidden": 0,
    "description": "Discover all Scandinavian cities (requires Scandinavia DLC)",
    "icon": "https://steamcdn-a.akamaihd.net/steamcommunity/public/images/apps/227300/61bd6e036446a4901cc72a043c216ef2b6957745.jpg",
    "icongray": "https://steamcdn-a.akamaihd.net/steamcommunity/public/images/apps/227300/178ccd0ba434a085786a0d317d974b1d2bd980e4.jpg"
  },
  {
    "name": "sc_quarries_cargo",
    "defaultvalue": 0,
    "displayName": "Miner",
    "hidden": 0,
    "description": "Complete delivery jobs to all quarries in Scandinavia (requires Scandinavia DLC)",
    "icon": "https://steamcdn-a.akamaihd.net/steamcommunity/public/images/apps/227300/4b6204db46b096ec6f46dc3b2dd152ea2657fe4e.jpg",
    "icongray": "https://steamcdn-a.akamaihd.net/steamcommunity/public/images/apps/227300/58fa6ffd8774dc5548d12f703d7d9ed38feba788.jpg"
  },
  {
    "name": "sc_oresund_bridge",
    "defaultvalue": 0,
    "displayName": "Aquaphobia",
    "hidden": 0,
    "description": "Travel across the Øresund Bridge between København and Malmö (requires Scandinavia DLC)",
    "icon": "https://steamcdn-a.akamaihd.net/steamcommunity/public/images/apps/227300/157c2a5e7c9f25c86cba9d9e40a351a701d59053.jpg",
    "icongray": "https://steamcdn-a.akamaihd.net/steamcommunity/public/images/apps/227300/74433ed7d6e4ec5421219849b1e7937e84fa378b.jpg"
  },
  {
    "name": "fr_visit_cities",
    "defaultvalue": 0,
    "displayName": "Bon Voyage!",
    "hidden": 0,
    "description": "Discover all French cities (requires Vive la France ! DLC)",
    "icon": "https://steamcdn-a.akamaihd.net/steamcommunity/public/images/apps/227300/5b41db6ef6dee0aada08127cb61607ba8ffd8f0b.jpg",
    "icongray": "https://steamcdn-a.akamaihd.net/steamcommunity/public/images/apps/227300/f28f0aa1eb4b8e9275c7c5dfd06d8c34da784581.jpg"
  },
  {
    "name": "fr_landmarks",
    "defaultvalue": 0,
    "displayName": "Landmark Tour",
    "hidden": 0,
    "description": "Discover following landmarks of France: Carcassonne, Brotonne bridge, Tiger tank, Peyrat-le-Château, Château de Ventadour, Château d'Ussé (requires Vive la France ! DLC)",
    "icon": "https://steamcdn-a.akamaihd.net/steamcommunity/public/images/apps/227300/d81ad99b64c45025620b1cc5c61ef3ee4fd83f57.jpg",
    "icongray": "https://steamcdn-a.akamaihd.net/steamcommunity/public/images/apps/227300/a6c1c2d6369f7703fdec9967efe2ef892ab34ffd.jpg"
  },
  {
    "name": "fr_nucplants",
    "defaultvalue": 0,
    "displayName": "Go Nuclear!",
    "hidden": 0,
    "description": "Deliver cargo to five nuclear plants in France (requires Vive la France ! DLC)",
    "icon": "https://steamcdn-a.akamaihd.net/steamcommunity/public/images/apps/227300/1cb2d63c76f17360ff53ec3b6f026ccf8b643c50.jpg",
    "icongray": "https://steamcdn-a.akamaihd.net/steamcommunity/public/images/apps/227300/71578cf8321f5171d968de5b7e1526c33d00afcb.jpg"
  },
  {
    "name": "fr_airports",
    "defaultvalue": 0,
    "displayName": "Check-in, Check-out",
    "hidden": 0,
    "description": "Deliver cargo to all cargo airport terminals in France (requires Vive la France ! DLC)",
    "icon": "https://steamcdn-a.akamaihd.net/steamcommunity/public/images/apps/227300/c61aee8d17f53f16c839685529588f9c5efbb71c.jpg",
    "icongray": "https://steamcdn-a.akamaihd.net/steamcommunity/public/images/apps/227300/11e4711eb0365cdc614993a5037e2b5e12b1f44c.jpg"
  },
  {
    "name": "fr_truckstop",
    "defaultvalue": 0,
    "displayName": "Gas Must Flow!",
    "hidden": 0,
    "description": "Deliver diesel, lpg or petrol to all truck stops in France (requires Vive la France ! DLC)",
    "icon": "https://steamcdn-a.akamaihd.net/steamcommunity/public/images/apps/227300/feeb314d70c675319f9c0d2cec2864cc06918a86.jpg",
    "icongray": "https://steamcdn-a.akamaihd.net/steamcommunity/public/images/apps/227300/6cc0577d7efe035d33d1227d9428ca04caf80f1d.jpg"
  },
  {
    "name": "hc_firstjob",
    "defaultvalue": 0,
    "displayName": "Time for Big Hauling",
    "hidden": 0,
    "description": "Deliver first Heavy Cargo (requires Heavy Cargo Pack DLC)",
    "icon": "https://steamcdn-a.akamaihd.net/steamcommunity/public/images/apps/227300/a6d9d51e4005ac28d7030b926e3e5331fd81f1e0.jpg",
    "icongray": "https://steamcdn-a.akamaihd.net/steamcommunity/public/images/apps/227300/5b64e83318206e8ff29a3ce823894231766681a4.jpg"
  },
  {
    "name": "hc_threeperf",
    "defaultvalue": 0,
    "displayName": "Keep Calm and Haul Heavy",
    "hidden": 0,
    "description": "Complete a perfect delivery (no damage, no fines, in-time) of 3 consecutive Heavy Cargo Pack jobs (requires Heavy Cargo Pack DLC)",
    "icon": "https://steamcdn-a.akamaihd.net/steamcommunity/public/images/apps/227300/a25ee08143db9692619679f4b024ebf40bd09d36.jpg",
    "icongray": "https://steamcdn-a.akamaihd.net/steamcommunity/public/images/apps/227300/76fdf0e5552c9ea78bf7baa346ed8dff831ce1b5.jpg"
  },
  {
    "name": "hc_1000xps",
    "defaultvalue": 0,
    "displayName": "You Bet I Can Park It!",
    "hidden": 0,
    "description": "Collect 1,000 XP from parking on Heavy Cargo Pack deliveries (requires Heavy Cargo Pack DLC)",
    "icon": "https://steamcdn-a.akamaihd.net/steamcommunity/public/images/apps/227300/628fc38fb390f12cd353b653dca94acfeac4d62f.jpg",
    "icongray": "https://steamcdn-a.akamaihd.net/steamcommunity/public/images/apps/227300/4d44f09173bf0404eab47383d32005ebebb2dfa9.jpg"
  },
  {
    "name": "hc_250t5jobs",
    "defaultvalue": 0,
    "displayName": "No Pain No Gain",
    "hidden": 0,
    "description": "Deliver total of 250 tons of cargo on 5 consecutive jobs (requires Heavy Cargo Pack DLC)",
    "icon": "https://steamcdn-a.akamaihd.net/steamcommunity/public/images/apps/227300/d9b05ffae548c1b2a53cef2b1b7d18df41a345a0.jpg",
    "icongray": "https://steamcdn-a.akamaihd.net/steamcommunity/public/images/apps/227300/6ce0af805b7c3a418889cada916561f6c5479544.jpg"
  },
  {
    "name": "hc_allcargos",
    "defaultvalue": 0,
    "displayName": "I Thought This Should Be Heavy?!",
    "hidden": 0,
    "description": "Complete a delivery of all heavy cargoes in Euro Truck Simulator 2 (requires Heavy Cargo Pack DLC)",
    "icon": "https://steamcdn-a.akamaihd.net/steamcommunity/public/images/apps/227300/55c1444020ac2486436d23f68fea9caa8906e2fe.jpg",
    "icongray": "https://steamcdn-a.akamaihd.net/steamcommunity/public/images/apps/227300/3696eb003c3edd721c1079a731ee5b7b8ce9b31e.jpg"
  },
  {
    "name": "it_visit_cities",
    "defaultvalue": 0,
    "displayName": "Imperator",
    "hidden": 0,
    "description": "Discover all Italian cities (requires Italia DLC)",
    "icon": "https://steamcdn-a.akamaihd.net/steamcommunity/public/images/apps/227300/2d49e561456da97fb112e8160b9e144f052fe98c.jpg",
    "icongray": "https://steamcdn-a.akamaihd.net/steamcommunity/public/images/apps/227300/42982796f44c53548b87999056f4d996cefa848e.jpg"
  },
  {
    "name": "it_garages",
    "defaultvalue": 0,
    "displayName": "True Sicilian",
    "hidden": 0,
    "description": "Own a garage in every Sicilian city (requires Italia DLC)",
    "icon": "https://steamcdn-a.akamaihd.net/steamcommunity/public/images/apps/227300/01785e08f8be44853d4abcbf47b1923d36a88ad3.jpg",
    "icongray": "https://steamcdn-a.akamaihd.net/steamcommunity/public/images/apps/227300/bddcee38ff4a901235e1b7261d0ce9fd3798fce0.jpg"
  },
  {
    "name": "it_shipyards",
    "defaultvalue": 0,
    "displayName": "Captain",
    "hidden": 0,
    "description": "Deliver cargo to all Italian shipyards (requires Italia DLC)",
    "icon": "https://steamcdn-a.akamaihd.net/steamcommunity/public/images/apps/227300/33683850f809d2683040ca1ad5e55efca85e14f9.jpg",
    "icongray": "https://steamcdn-a.akamaihd.net/steamcommunity/public/images/apps/227300/ecc22064a198f1a163d5e9e889610e6f92e67c00.jpg"
  },
  {
    "name": "it_volcanoes",
    "defaultvalue": 0,
    "displayName": "Mind the Lava",
    "hidden": 0,
    "description": "Visit Etna and Vesuvius volcanoes (requires Italia DLC)",
    "icon": "https://steamcdn-a.akamaihd.net/steamcommunity/public/images/apps/227300/96aad33fdccae462fe71dcee58aba1d5e48d048c.jpg",
    "icongray": "https://steamcdn-a.akamaihd.net/steamcommunity/public/images/apps/227300/b498dd2f47920a3d0ec0be3c42946ae3ec2a0641.jpg"
  },
  {
    "name": "it_roads_to_rome",
    "defaultvalue": 0,
    "displayName": "Many Roads Lead to Rome",
    "hidden": 0,
    "description": "Enter Rome from all corridors that lead to it (requires Italia DLC)",
    "icon": "https://steamcdn-a.akamaihd.net/steamcommunity/public/images/apps/227300/628482ec6ecb0fb10bde955ad02f8076a0d77fc8.jpg",
    "icongray": "https://steamcdn-a.akamaihd.net/steamcommunity/public/images/apps/227300/ce04d2339c151f2fc41cc617a0eefd98d43721ba.jpg"
  },
  {
    "name": "it_quarry",
    "defaultvalue": 0,
    "displayName": "Michelangelo",
    "hidden": 0,
    "description": "Complete a delivery from Carrara quarry (requires Italia DLC)",
    "icon": "https://steamcdn-a.akamaihd.net/steamcommunity/public/images/apps/227300/4501e7777a965d8a9ec4a1237dce47122701d756.jpg",
    "icongray": "https://steamcdn-a.akamaihd.net/steamcommunity/public/images/apps/227300/7bc9380dbe57adb1250eb41b84970cbff702f8ff.jpg"
  },
  {
    "name": "st_first_cargo",
    "defaultvalue": 0,
    "displayName": "Size Matters",
    "hidden": 0,
    "description": "Deliver first oversize cargo (requires Special Transport DLC)",
    "icon": "https://steamcdn-a.akamaihd.net/steamcommunity/public/images/apps/227300/6e0249dc7ac12a0d5e43814ac1b1182cf65af1e2.jpg",
    "icongray": "https://steamcdn-a.akamaihd.net/steamcommunity/public/images/apps/227300/46f0454bcc1af57712d94ca86ac40cb50cd028da.jpg"
  },
  {
    "name": "st_all_cargos",
    "defaultvalue": 0,
    "displayName": "The Bigger the Better",
    "hidden": 0,
    "description": "Complete delivery of all oversize cargoes (requires Special Transport DLC)",
    "icon": "https://steamcdn-a.akamaihd.net/steamcommunity/public/images/apps/227300/77b7975f96e7928c082793a9d545a9ca078de31b.jpg",
    "icongray": "https://steamcdn-a.akamaihd.net/steamcommunity/public/images/apps/227300/aa61ee098160010d2115fdf7b5f3976fe055c09d.jpg"
  },
  {
    "name": "st_all_routes",
    "defaultvalue": 0,
    "displayName": "Driver Exceptionnel",
    "hidden": 0,
    "description": "Complete deliveries on all oversize routes in current map (requires Special Transport DLC)",
    "icon": "https://steamcdn-a.akamaihd.net/steamcommunity/public/images/apps/227300/0c0d88b961b53029b987814564354fbcf5e27cf2.jpg",
    "icongray": "https://steamcdn-a.akamaihd.net/steamcommunity/public/images/apps/227300/5febcbe9b9e106bfef3de5db5b4e3edac6bdfbdd.jpg"
  },
  {
    "name": "st_no_damage",
    "defaultvalue": 0,
    "displayName": "Not a Big Problem",
    "hidden": 0,
    "description": "Complete 3 consecutive oversize jobs without any damage (requires Special Transport DLC)",
    "icon": "https://steamcdn-a.akamaihd.net/steamcommunity/public/images/apps/227300/04807d1373b411306548a540c6e28b38c846a70f.jpg",
    "icongray": "https://steamcdn-a.akamaihd.net/steamcommunity/public/images/apps/227300/95a8eac00b02f12851d65a8258018ae1e3206d9e.jpg"
  },
  {
    "name": "st_silo",
    "defaultvalue": 0,
    "displayName": "Giant",
    "hidden": 0,
    "description": "Complete delivery of the Silo cargo (requires Special Transport DLC)",
    "icon": "https://steamcdn-a.akamaihd.net/steamcommunity/public/images/apps/227300/0625748ac0101f0dc2d7f2def1eb536a82b9914b.jpg",
    "icongray": "https://steamcdn-a.akamaihd.net/steamcommunity/public/images/apps/227300/191539c73d12210d11396b8705c6cd5d0d2940dd.jpg"
  },
  {
    "name": "st_cat_785c",
    "defaultvalue": 0,
    "displayName": "Big Brother",
    "hidden": 0,
    "description": "Complete delivery of the Haul Truck Chassis (requires Special Transport DLC)",
    "icon": "https://steamcdn-a.akamaihd.net/steamcommunity/public/images/apps/227300/2825e9a40be54a2686c3f8c01d5809b0d52cf379.jpg",
    "icongray": "https://steamcdn-a.akamaihd.net/steamcommunity/public/images/apps/227300/e69a1268a4919523cdc62c18281b61938cd63926.jpg"
  },
  {
    "name": "st_pilot_boat",
    "defaultvalue": 0,
    "displayName": "Not a Canoe",
    "hidden": 0,
    "description": "Complete delivery of the Service Boat (requires Special Transport DLC)",
    "icon": "https://steamcdn-a.akamaihd.net/steamcommunity/public/images/apps/227300/87616b7a507cf4c17c09ae1e8a9c65d7c3929e3c.jpg",
    "icongray": "https://steamcdn-a.akamaihd.net/steamcommunity/public/images/apps/227300/6508dc1e02f3d15d1a42bbd1e082e766e18f8f36.jpg"
  },
  {
    "name": "st_mass",
    "defaultvalue": 0,
    "displayName": "Mass-to-don",
    "hidden": 0,
    "description": "Deliver at least 195 tons of oversized cargo in just 3 consecutive deliveries (requires Special Transport DLC)",
    "icon": "https://steamcdn-a.akamaihd.net/steamcommunity/public/images/apps/227300/6f6fc6a6a8d3c67e9f37af8b2e07ac92880c45f9.jpg",
    "icongray": "https://steamcdn-a.akamaihd.net/steamcommunity/public/images/apps/227300/d8710cfd613c7685ee0695aa709dc8d82fe7288c.jpg"
  },
  {
    "name": "ba_visit_cities",
    "defaultvalue": 0,
    "displayName": "Baltic Tourist",
    "hidden": 0,
    "description": "Discover all Beyond the Baltic Sea DLC cities (requires Beyond the Baltic Sea DLC)",
    "icon": "https://steamcdn-a.akamaihd.net/steamcommunity/public/images/apps/227300/bb7934adb02102488dbba778c311ca3a8be6629c.jpg",
    "icongray": "https://steamcdn-a.akamaihd.net/steamcommunity/public/images/apps/227300/54344452ec41be0530fe9d2aa8abcf6f3234b2f1.jpg"
  },
  {
    "name": "ba_job_countries",
    "defaultvalue": 0,
    "displayName": "Grand Tour",
    "hidden": 0,
    "description": "Complete perfect deliveries (no damage, no fines, on time) between the following countries: Russia - Lithuania; Lithuania - Latvia; Latvia - Estonia; Estonia - Russia; Russia - Finland. Any order or direction counts (requires Beyond the Baltic Sea DLC)",
    "icon": "https://steamcdn-a.akamaihd.net/steamcommunity/public/images/apps/227300/8ce8a58c698e36a564d525ff676d98fc8857eca3.jpg",
    "icongray": "https://steamcdn-a.akamaihd.net/steamcommunity/public/images/apps/227300/d68f1ac7ea3fdd390d8d8b5b6b925a3d92501ec6.jpg"
  },
  {
    "name": "ba_to_russia",
    "defaultvalue": 0,
    "displayName": "Exclave Transit",
    "hidden": 0,
    "description": "Complete 5 deliveries from Kaliningrad to any other Russian city (requires Beyond the Baltic Sea DLC)",
    "icon": "https://steamcdn-a.akamaihd.net/steamcommunity/public/images/apps/227300/47422761c1cb8670d013b8999dc21b94f1d51911.jpg",
    "icongray": "https://steamcdn-a.akamaihd.net/steamcommunity/public/images/apps/227300/f2a0f9d800d9ebd52161978a1630b2b62ab1f3b7.jpg"
  },
  {
    "name": "ba_concrete",
    "defaultvalue": 0,
    "displayName": "Concrete Jungle",
    "hidden": 0,
    "description": "Complete 10 deliveries from concrete plants (requires Beyond the Baltic Sea DLC)",
    "icon": "https://steamcdn-a.akamaihd.net/steamcommunity/public/images/apps/227300/7ea5c54b959974d869101e4c5d62e3af055ae50b.jpg",
    "icongray": "https://steamcdn-a.akamaihd.net/steamcommunity/public/images/apps/227300/01e66fd5dabb0c29a239ecdbcb1a91b3da7c27fd.jpg"
  },
  {
    "name": "ba_industry",
    "defaultvalue": 0,
    "displayName": "Industry Standard",
    "hidden": 0,
    "description": "Make at least two deliveries to each locomotive, furniture and paper mill factories (requires Beyond the Baltic Sea DLC)",
    "icon": "https://steamcdn-a.akamaihd.net/steamcommunity/public/images/apps/227300/c09c044111c2a197ba71eae2d8e8a7011b2169d3.jpg",
    "icongray": "https://steamcdn-a.akamaihd.net/steamcommunity/public/images/apps/227300/20a74e75af53d816eb4edd5f0a1cb58af024b1de.jpg"
  },
  {
    "name": "ba_farm",
    "defaultvalue": 0,
    "displayName": "Like a Farmer",
    "hidden": 0,
    "description": "Deliver cargo to each farm in Beyond the Baltic Sea DLC (requires Beyond the Baltic Sea DLC)",
    "icon": "https://steamcdn-a.akamaihd.net/steamcommunity/public/images/apps/227300/4a631835d46bc1ca4bb4ac5b37edea5eb057c348.jpg",
    "icongray": "https://steamcdn-a.akamaihd.net/steamcommunity/public/images/apps/227300/5fd489a44775ed07b362740a4a442d8cfadd9ae1.jpg"
  },
  {
    "name": "it_visit_sardinia",
    "defaultvalue": 0,
    "displayName": "All Around the Blue Island",
    "hidden": 0,
    "description": "Discover all Sardinian cities (requires Italia DLC)",
    "icon": "https://steamcdn-a.akamaihd.net/steamcommunity/public/images/apps/227300/6e616278c2bc8001cc69dbb88ac33dbe9d8e8e76.jpg",
    "icongray": "https://steamcdn-a.akamaihd.net/steamcommunity/public/images/apps/227300/89f82a9825ec7607df6e8e7cd27e00a6bfaeb991.jpg"
  },
  {
    "name": "fr_visit_corsica",
    "defaultvalue": 0,
    "displayName": "All Around the Isle of Beauty",
    "hidden": 0,
    "description": "Discover all Corsican cities (requires Vive la France ! DLC)",
    "icon": "https://steamcdn-a.akamaihd.net/steamcommunity/public/images/apps/227300/d73dc0a65036e19902d5b784f415dd1f2d57ff83.jpg",
    "icongray": "https://steamcdn-a.akamaihd.net/steamcommunity/public/images/apps/227300/929d7b5735ddce2948e17f21c9ed85b5dcf57c79.jpg"
  },
  {
    "name": "be_visit_cities",
    "defaultvalue": 0,
    "displayName": "Balkan Explorer",
    "hidden": 0,
    "description": "Discover all cities in Romania, Bulgaria and Turkey (requires Road to the Black Sea DLC)",
    "icon": "https://steamcdn-a.akamaihd.net/steamcommunity/public/images/apps/227300/34f1b272bb18747b7717a7bb601bfb3472fb8f33.jpg",
    "icongray": "https://steamcdn-a.akamaihd.net/steamcommunity/public/images/apps/227300/c988613a1d1224b7b1fa25d28c951338a61e3d48.jpg"
  },
  {
    "name": "be_border_crossings",
    "defaultvalue": 0,
    "displayName": "Ranger",
    "hidden": 0,
    "description": "Visit all border crossings between Romania, Bulgaria and Turkey (requires Road to the Black Sea DLC)",
    "icon": "https://steamcdn-a.akamaihd.net/steamcommunity/public/images/apps/227300/be0c8b7ece7ed443bd762348813c3be2cd9b06a8.jpg",
    "icongray": "https://steamcdn-a.akamaihd.net/steamcommunity/public/images/apps/227300/9de2b4b4c8d1bf4ab27797fffc01457e791c9c2e.jpg"
  },
  {
    "name": "be_blke_ferry",
    "defaultvalue": 0,
    "displayName": "Ferryman",
    "hidden": 0,
    "description": "Use a river ferry (requires Road to the Black Sea DLC)",
    "icon": "https://steamcdn-a.akamaihd.net/steamcommunity/public/images/apps/227300/e3d2dbeb7eeffb2c9f1fa921efd4231425dd0b17.jpg",
    "icongray": "https://steamcdn-a.akamaihd.net/steamcommunity/public/images/apps/227300/006b8f983c57c65546f131d3d41bc4d80f6107da.jpg"
  },
  {
    "name": "be_landmarks",
    "defaultvalue": 0,
    "displayName": "Taking the Scenic Route",
    "hidden": 0,
    "description": "Visit the following landmarks and locations: Iron Gates, Bran Castle (Romania), Pomorie Beach, Wall of Heroes in Varna (Bulgaria), Lake Küçükçekmece in Istanbul (Turkey) (requires Road to the Black Sea DLC)",
    "icon": "https://steamcdn-a.akamaihd.net/steamcommunity/public/images/apps/227300/a081b4f7babf6c30853ef7b78b2a8f1ea19c0c57.jpg",
    "icongray": "https://steamcdn-a.akamaihd.net/steamcommunity/public/images/apps/227300/018a3a9e116fa984631d1b155e5c5de8a064a78e.jpg"
  },
  {
    "name": "be_istanbul_jobs",
    "defaultvalue": 0,
    "displayName": "Turkish Delight",
    "hidden": 0,
    "description": "Complete 3 deliveries from Istanbul which are at least 2,500 km long (requires Road to the Black Sea and Going East DLCs)",
    "icon": "https://steamcdn-a.akamaihd.net/steamcommunity/public/images/apps/227300/d479c925d16c40a1a65437871e24c8ac344173cb.jpg",
    "icongray": "https://steamcdn-a.akamaihd.net/steamcommunity/public/images/apps/227300/01bf5eece3f492c7983b846ab1aa0ab01b9d17f5.jpg"
  },
  {
    "name": "be_black_sea",
    "defaultvalue": 0,
    "displayName": "Along the Black Sea",
    "hidden": 0,
    "description": "Complete perfect deliveries (no damage, no fines, on time) between these coastal cities: Istanbul-Burgas, Burgas-Varna, Varna-Mangalia, Mangalia-Constanța. Any order or direction counts (requires Road to the Black Sea DLC)",
    "icon": "https://steamcdn-a.akamaihd.net/steamcommunity/public/images/apps/227300/f120f2ad8a08aa9f4be888f0573207905c1a1ab7.jpg",
    "icongray": "https://steamcdn-a.akamaihd.net/steamcommunity/public/images/apps/227300/9ba1b98cb0d9dddf66d22eacbf00033255a41fb5.jpg"
  },
  {
    "name": "be_express",
    "defaultvalue": 0,
    "displayName": "Orient Express",
    "hidden": 0,
    "description": "Complete deliveries between following cities, in this order and direction: Paris-Strasbourg, Strasbourg-Munich, Munich-Vienna, Vienna-Budapest, Budapest-Bucharest, Bucharest-Istanbul (requires Road to the Black Sea and Going East DLCs)",
    "icon": "https://steamcdn-a.akamaihd.net/steamcommunity/public/images/apps/227300/775df321da7e22164847cf7ad4912013ddfa81c9.jpg",
    "icongray": "https://steamcdn-a.akamaihd.net/steamcommunity/public/images/apps/227300/c2e3603f027613f1a589dced8158fdde1b228b8b.jpg"
  }
]