﻿[
  {
    "name": "5_jobs_in_a_row-progress",
    "defaultvalue": 0,
    "displayName": ""
  },
  {
    "name": "job_15_companies-progress",
    "defaultvalue": 0,
    "displayName": ""
  },
  {
    "name": "jobs_30_cargo-progress",
    "defaultvalue": 0,
    "displayName": ""
  },
  {
    "name": "999_km_with_each_brand-progress",
    "defaultvalue": 0,
    "displayName": ""
  },
  {
    "name": "sc_deliver_marinas-progress",
    "defaultvalue": 0,
    "displayName": ""
  },
  {
    "name": "sc_container_ports-progress",
    "defaultvalue": 0,
    "displayName": ""
  },
  {
    "name": "sc_quarries_cargo-progress",
    "defaultvalue": 0,
    "displayName": ""
  },
  {
    "name": "sc_visit_cities-progress",
    "defaultvalue": 0,
    "displayName": ""
  },
  {
    "name": "fr_visit_cities-progress",
    "defaultvalue": 0,
    "displayName": ""
  },
  {
    "name": "fr_landmarks-progress",
    "defaultvalue": 0,
    "displayName": ""
  },
  {
    "name": "fr_nucplants-progress",
    "defaultvalue": 0,
    "displayName": ""
  },
  {
    "name": "fr_airports-progress",
    "defaultvalue": 0,
    "displayName": ""
  },
  {
    "name": "fr_truckstop-progress",
    "defaultvalue": 0,
    "displayName": ""
  },
  {
    "name": "hc_1000xps-progress",
    "defaultvalue": 0,
    "displayName": ""
  },
  {
    "name": "hc_allcargos-progress",
    "defaultvalue": 0,
    "displayName": ""
  },
  {
    "name": "it_visit_cities-progress",
    "defaultvalue": 0,
    "displayName": ""
  },
  {
    "name": "it_shipyards-progress",
    "defaultvalue": 0,
    "displayName": ""
  },
  {
    "name": "it_volcanoes-progress",
    "defaultvalue": 0,
    "displayName": ""
  },
  {
    "name": "it_roads_to_rome-progress",
    "defaultvalue": 0,
    "displayName": ""
  },
  {
    "name": "st_all_cargos-progress",
    "defaultvalue": 0,
    "displayName": ""
  },
  {
    "name": "st_no_damage-progress",
    "defaultvalue": 0,
    "displayName": ""
  },
  {
    "name": "job_all_trailer_types-progress",
    "defaultvalue": 0,
    "displayName": ""
  },
  {
    "name": "ba_visit_cities-progress",
    "defaultvalue": 0,
    "displayName": ""
  },
  {
    "name": "ba_job_countries-progress",
    "defaultvalue": 0,
    "displayName": ""
  },
  {
    "name": "ba_to_russia-progress",
    "defaultvalue": 0,
    "displayName": ""
  },
  {
    "name": "ba_concrete-progress",
    "defaultvalue": 0,
    "displayName": ""
  },
  {
    "name": "ba_industry-progress",
    "defaultvalue": 0,
    "displayName": ""
  },
  {
    "name": "ba_farm-progress",
    "defaultvalue": 0,
    "displayName": ""
  },
  {
    "name": "it_visit_sardinia-progress",
    "defaultvalue": 0,
    "displayName": ""
  },
  {
    "name": "fr_visit_corsica-progress",
    "defaultvalue": 0,
    "displayName": ""
  },
  {
    "name": "be_visit_cities-progress",
    "defaultvalue": 0,
    "displayName": ""
  },
  {
    "name": "be_border_crossings-progress",
    "defaultvalue": 0,
    "displayName": ""
  },
  {
    "name": "be_landmarks-progress",
    "defaultvalue": 0,
    "displayName": ""
  },
  {
    "name": "be_istanbul_jobs-progress",
    "defaultvalue": 0,
    "displayName": ""
  },
  {
    "name": "be_black_sea-progress",
    "defaultvalue": 0,
    "displayName": ""
  },
  {
    "name": "be_express-progress",
    "defaultvalue": 0,
    "displayName": ""
  }
]