{
  "Releases": [
    "Windows"
  ],
  "Name": "Shadowrun: Dragonfall - Director\u2019s Cut",
  "AppId": "5b41454974be4d5883056ba298e53675",
  "Namespace": "805a1b31b65f4c3db221ab242f894482",
  "ItemId": "fd1d31227d1d405eb68a9a3bbdd029d0",
  "ImageUrl": "https://cdn1.epicgames.com/805a1b31b65f4c3db221ab242f894482/item/EGS_ShadowrunDragonfallDirectorCut_HarebrainedSchemes_S1-2560x1440-97729d8febc2d0cee01869eabde8216b.jpg",
  "Dlcs": {}
}