﻿[
  {
    "appid": "359320",
    "itemdefid": "5000",
    "Timestamp": "2019-11-01T17:18:39Z",
    "modified": "20191101T171839Z",
    "date_created": "20191016T112130Z",
    "type": "bundle",
    "display_type": "currency",
    "name": "05000 ARX",
    "bundle": "1x5000",
    "price": "1;USD399,EUR349,GBP299,RUB25000",
    "use_bundle_price": true,
    "quantity": 0,
    "description": "Purchase 5,000 ARX.\n\nARX can be used to purchase game extras in Elite Dangerous. You can spend ARX on a variety of ship customisations, Commander accessories, weapon colours and much more. ARX can be purchased in packages of varying amounts, with packages of 8,400 or larger containing bonus ARX. Requires Elite Dangerous on applicable platform (sold separately).\n\nARX are limited by user account and platform and can only be used in Elite Dangerous. Prior to purchasing ARX, please ensure that you are logged into the Steam account linked to your Frontier account.",
    "description_german": "5.000 ARX kaufen.\n\nMit ARX kann man in Elite Dangerous Spielextras erwerben: eine Reihe von Personalisierungsmöglichkeiten für das Schiff, Accessoires für den Kommandanten, Waffenfarben und vieles mehr. ARX werden in Paketen mit verschiedenen Beträgen angeboten, bei Paketen ab 8.400 ARX gibt es einen Bonus. Elite Dangerous auf einer geeigneten Plattform ist erforderlich (separat erhältlich).\n\nARX haben ein Limit pro Benutzerkonto und Plattform und können nur in Elite Dangerous verwendet werden. Bitte stelle vor dem Erwerb von ARX sicher, dass du bei dem Steam-Konto angemeldet bist, das mit deinem Frontier-Konto verknüpft ist.",
    "description_french": "Acheter 5 000 ARX. \n\nL'ARX est une devise d'Elite Dangerous permettant de se procurer des bonus en jeu, comme des personnalisations de vaisseau, des accessoires de commandant, des couleurs d'armes et bien plus encore. Les ARX s'achètent en packs de quantités variables, et les packs de plus de 8 400 ARX contiennent des ARX bonus. Nécessite de posséder le jeu Elite Dangerous sur une plateforme compatible (vendu séparément).\n\nLes ARX sont limités à un compte spécifique sur une plateforme précise. Ils peuvent uniquement être utilisés dans Elite Dangerous. Avant d'acheter des ARX, assurez-vous d'être connecté au compte Steam associé à votre compte Frontier.",
    "description_spanish": "Compra 5000 arx.\n\nPuedes usar arx para comprar extras del juego en Elite Dangerous. Puedes gastarlo en personalizaciones de la nave, accesorios de comandante, colores de arma y mucho más. ¡Hay distintos paquetes con distintas cantidades! Además, ¡a partir de 8400 obtendrás arx de bonificación! Es necesario Elite Dangerous en la plataforma aplicable (se vende por separado).\n\nEl arx está limitado por la cuenta de usuario y la plataforma, y solo se puede utilizar en Elite Dangerous. Antes de comprar arx, asegúrate de que has iniciado sesión en la cuenta de Steam vinculada a tu cuenta de Frontier.",
    "description_russian": "Приобрести 5000 ARX.\n\nНа средства ARX можно приобрести дополнения к игре Elite Dangerous. ARX можно тратить на различные модификации корабля, аксессуары для командира, расцветки орудий и многое другое. Доступны различные комплекты средств ARX. При покупке от 8400 ARX вы получите бонусные средства. Требуется наличие игры Elite Dangerous для соответствующей платформы (продается отдельно).\n\nARX для каждого пользователя и платфомы считаются отдельно. Их можно использовать только в Elite Dangerous. Перед покупкой ARX убедитесь, что вы вошли в аккаунт Steam, связанный с вашей учетной записью Frontier.",
    "description_brazilian": "Compre 5.000 ARX.\n\nARX podem ser usados para adquirir extras do jogo em Elite Dangerous. É possível gastar ARX em diversas personalizações da nave, acessórios de Comandante, cores de armas e muito mais. ARX podem ser adquiridos em pacotes de quantias variáveis, com pacotes de 8.400 ou mais oferecendo bônus de ARX. Exige Elite Dangerous na plataforma relevante (vendido separadamente).\n\ns ARX são limitados por conta do usuário e por plataforma e só podem ser usados no Elite Dangerous. Antes de comprar os ARX, verifique se você está conectado à conta Steam vinculada à sua conta Frontier.",
    "background_color": "111111",
    "icon_url": "https://frontier-platform-hosting.s3.amazonaws.com/elite-dangerous/steam/ED_ARX_steam_store_1_300x300.jpg",
    "icon_url_large": "https://frontier-platform-hosting.s3.amazonaws.com/elite-dangerous/steam/ED_ARX_steam_store_1_2048x2048.jpg",
    "name_color": "FFFFFF",
    "store_tags": "virtual currency",
    "tradable": false,
    "marketable": false,
    "commodity": false
  },
  {
    "appid": "359320",
    "itemdefid": "8400",
    "Timestamp": "2019-11-01T17:18:49Z",
    "modified": "20191101T171849Z",
    "date_created": "20191016T112130Z",
    "type": "bundle",
    "display_type": "currency",
    "name": "08400 (+420 Bonus) ARX",
    "bundle": "1x8820",
    "price": "1;USD699,EUR599,GBP499,RUB42500",
    "use_bundle_price": true,
    "quantity": 0,
    "description": "Purchase 8400 (+420 Bonus) ARX.\n\nARX can be used to purchase game extras in Elite Dangerous. You can spend ARX on a variety of ship customisations, Commander accessories, weapon colours and much more. ARX can be purchased in packages of varying amounts, with packages of 8,400 or larger containing bonus ARX. Requires Elite Dangerous on applicable platform (sold separately).\n\nARX are limited by user account and platform and can only be used in Elite Dangerous. Prior to purchasing ARX, please ensure that you are logged into the Steam account linked to your Frontier account.",
    "description_german": "8.400 (+420 Bonus) ARX kaufen.\n\nMit ARX kann man in Elite Dangerous Spielextras erwerben: eine Reihe von Personalisierungsmöglichkeiten für das Schiff, Accessoires für den Kommandanten, Waffenfarben und vieles mehr. ARX werden in Paketen mit verschiedenen Beträgen angeboten, bei Paketen ab 8.400 ARX gibt es einen Bonus. Elite Dangerous auf einer geeigneten Plattform ist erforderlich (separat erhältlich).\n\nARX haben ein Limit pro Benutzerkonto und Plattform und können nur in Elite Dangerous verwendet werden. Bitte stelle vor dem Erwerb von ARX sicher, dass du bei dem Steam-Konto angemeldet bist, das mit deinem Frontier-Konto verknüpft ist.",
    "description_french": "Acheter 8400 (+420) ARX.\n\nL'ARX est une devise d'Elite Dangerous permettant de se procurer des bonus en jeu, comme des personnalisations de vaisseau, des accessoires de commandant, des couleurs d'armes et bien plus encore. Les ARX s'achètent en packs de quantités variables, et les packs de plus de 8 400 ARX contiennent des ARX bonus. Nécessite de posséder le jeu Elite Dangerous sur une plateforme compatible (vendu séparément).\n\nLes ARX sont limités à un compte spécifique sur une plateforme précise. Ils peuvent uniquement être utilisés dans Elite Dangerous. Avant d'acheter des ARX, assurez-vous d'être connecté au compte Steam associé à votre compte Frontier.",
    "description_spanish": "Compra 8400 ARX (+420 de bonificación).\n\nPuedes usar arx para comprar extras del juego en Elite Dangerous. Puedes gastarlo en personalizaciones de la nave, accesorios de comandante, colores de arma y mucho más. ¡Hay distintos paquetes con distintas cantidades! Además, ¡a partir de 8400 obtendrás arx de bonificación! Es necesario Elite Dangerous en la plataforma aplicable (se vende por separado).\n\nEl arx está limitado por la cuenta de usuario y la plataforma, y solo se puede utilizar en Elite Dangerous. Antes de comprar arx, asegúrate de que has iniciado sesión en la cuenta de Steam vinculada a tu cuenta de Frontier.",
    "description_russian": "Приобрести 8400 (+420 бонусных) ARX.\n\nНа средства ARX можно приобрести дополнения к игре Elite Dangerous. ARX можно тратить на различные модификации корабля, аксессуары для командира, расцветки орудий и многое другое. Доступны различные комплекты средств ARX. При покупке от 8400 ARX вы получите бонусные средства. Требуется наличие игры Elite Dangerous для соответствующей платформы (продается отдельно).\n\nARX для каждого пользователя и платфомы считаются отдельно. Их можно использовать только в Elite Dangerous. Перед покупкой ARX убедитесь, что вы вошли в аккаунт Steam, связанный с вашей учетной записью Frontier.",
    "description_brazilian": "Compre 8.400 (+420 Bônus) ARX.\n\nARX podem ser usados para adquirir extras do jogo em Elite Dangerous. É possível gastar ARX em diversas personalizações da nave, acessórios de Comandante, cores de armas e muito mais. ARX podem ser adquiridos em pacotes de quantias variáveis, com pacotes de 8.400 ou mais oferecendo bônus de ARX. Exige Elite Dangerous na plataforma relevante (vendido separadamente).\n\ns ARX são limitados por conta do usuário e por plataforma e só podem ser usados no Elite Dangerous. Antes de comprar os ARX, verifique se você está conectado à conta Steam vinculada à sua conta Frontier.",
    "background_color": "111111",
    "icon_url": "https://frontier-platform-hosting.s3.amazonaws.com/elite-dangerous/steam/ED_ARX_steam_store_2_300x300.jpg",
    "icon_url_large": "https://frontier-platform-hosting.s3.amazonaws.com/elite-dangerous/steam/ED_ARX_steam_store_2_2048x2048.jpg",
    "name_color": "FFFFFF",
    "store_tags": "virtual currency",
    "tradable": false,
    "marketable": false,
    "commodity": false
  },
  {
    "appid": "359320",
    "itemdefid": "16800",
    "Timestamp": "2019-11-15T15:12:09Z",
    "modified": "20191115T151209Z",
    "date_created": "20191016T112130Z",
    "type": "bundle",
    "display_type": "currency",
    "name": "16800 (+900 Bonus) ARX",
    "bundle": "1x17700",
    "price": "1;USD1299,EUR1149,GBP959,RUB80000",
    "use_bundle_price": true,
    "quantity": 0,
    "description": "Purchase 16800 (+900 Bonus) ARX.\n\nARX can be used to purchase game extras in Elite Dangerous. You can spend ARX on a variety of ship customisations, Commander accessories, weapon colours and much more. ARX can be purchased in packages of varying amounts, with packages of 8,400 or larger containing bonus ARX. Requires Elite Dangerous on applicable platform (sold separately).\n\nARX are limited by user account and platform and can only be used in Elite Dangerous. Prior to purchasing ARX, please ensure that you are logged into the Steam account linked to your Frontier account.",
    "description_german": "16.800 (+900 Bonus) ARX kaufen.\n\nMit ARX kann man in Elite Dangerous Spielextras erwerben: eine Reihe von Personalisierungsmöglichkeiten für das Schiff, Accessoires für den Kommandanten, Waffenfarben und vieles mehr. ARX werden in Paketen mit verschiedenen Beträgen angeboten, bei Paketen ab 8.400 ARX gibt es einen Bonus. Elite Dangerous auf einer geeigneten Plattform ist erforderlich (separat erhältlich).\n\nARX haben ein Limit pro Benutzerkonto und Plattform und können nur in Elite Dangerous verwendet werden. Bitte stelle vor dem Erwerb von ARX sicher, dass du bei dem Steam-Konto angemeldet bist, das mit deinem Frontier-Konto verknüpft ist.",
    "description_french": "Acheter 16 800 (+900) ARX.\n\nL'ARX est une devise d'Elite Dangerous permettant de se procurer des bonus en jeu, comme des personnalisations de vaisseau, des accessoires de commandant, des couleurs d'armes et bien plus encore. Les ARX s'achètent en packs de quantités variables, et les packs de plus de 8 400 ARX contiennent des ARX bonus. Nécessite de posséder le jeu Elite Dangerous sur une plateforme compatible (vendu séparément).\n\nLes ARX sont limités à un compte spécifique sur une plateforme précise. Ils peuvent uniquement être utilisés dans Elite Dangerous. Avant d'acheter des ARX, assurez-vous d'être connecté au compte Steam associé à votre compte Frontier.",
    "description_spanish": "Compra 16800 ARX (+900 de bonificación).\n\nPuedes usar arx para comprar extras del juego en Elite Dangerous. Puedes gastarlo en personalizaciones de la nave, accesorios de comandante, colores de arma y mucho más. ¡Hay distintos paquetes con distintas cantidades! Además, ¡a partir de 8400 obtendrás arx de bonificación! Es necesario Elite Dangerous en la plataforma aplicable (se vende por separado).\n\nEl arx está limitado por la cuenta de usuario y la plataforma, y solo se puede utilizar en Elite Dangerous. Antes de comprar arx, asegúrate de que has iniciado sesión en la cuenta de Steam vinculada a tu cuenta de Frontier.",
    "description_russian": "Приобрести 16800 ARX (+900 бонусных) ARX.\n\nНа средства ARX можно приобрести дополнения к игре Elite Dangerous. ARX можно тратить на различные модификации корабля, аксессуары для командира, расцветки орудий и многое другое. Доступны различные комплекты средств ARX. При покупке от 8400 ARX вы получите бонусные средства. Требуется наличие игры Elite Dangerous для соответствующей платформы (продается отдельно).\n\nARX для каждого пользователя и платфомы считаются отдельно. Их можно использовать только в Elite Dangerous. Перед покупкой ARX убедитесь, что вы вошли в аккаунт Steam, связанный с вашей учетной записью Frontier.",
    "description_brazilian": "Compre 16.800 ARX (+900 Bônus) ARX.\n\nARX podem ser usados para adquirir extras do jogo em Elite Dangerous. É possível gastar ARX em diversas personalizações da nave, acessórios de Comandante, cores de armas e muito mais. ARX podem ser adquiridos em pacotes de quantias variáveis, com pacotes de 8.400 ou mais oferecendo bônus de ARX. Exige Elite Dangerous na plataforma relevante (vendido separadamente).\n\ns ARX são limitados por conta do usuário e por plataforma e só podem ser usados no Elite Dangerous. Antes de comprar os ARX, verifique se você está conectado à conta Steam vinculada à sua conta Frontier.",
    "background_color": "111111",
    "icon_url": "https://frontier-platform-hosting.s3.amazonaws.com/elite-dangerous/steam/ED_ARX_steam_store_3_300x300.jpg",
    "icon_url_large": "https://frontier-platform-hosting.s3.amazonaws.com/elite-dangerous/steam/ED_ARX_steam_store_3_2048x2048.jpg",
    "name_color": "FFFFFF",
    "store_tags": "virtual currency",
    "tradable": false,
    "marketable": false,
    "commodity": false
  },
  {
    "appid": "359320",
    "itemdefid": "25500",
    "Timestamp": "2019-11-15T15:10:01Z",
    "modified": "20191115T151001Z",
    "date_created": "20191016T112130Z",
    "type": "bundle",
    "display_type": "currency",
    "name": "25500 (+1300 Bonus) ARX",
    "bundle": "1x26800",
    "price": "1;USD1899,EUR1599,GBP1259,RUB108000",
    "use_bundle_price": true,
    "quantity": 0,
    "description": "Purchase 25500 (+1300 Bonus) ARX.\n\nARX can be used to purchase game extras in Elite Dangerous. You can spend ARX on a variety of ship customisations, Commander accessories, weapon colours and much more. ARX can be purchased in packages of varying amounts, with packages of 8,400 or larger containing bonus ARX. Requires Elite Dangerous on applicable platform (sold separately).\n\nARX are limited by user account and platform and can only be used in Elite Dangerous. Prior to purchasing ARX, please ensure that you are logged into the Steam account linked to your Frontier account.",
    "description_german": "25.500 (+1300 Bonus) ARX kaufen.\n\nMit ARX kann man in Elite Dangerous Spielextras erwerben: eine Reihe von Personalisierungsmöglichkeiten für das Schiff, Accessoires für den Kommandanten, Waffenfarben und vieles mehr. ARX werden in Paketen mit verschiedenen Beträgen angeboten, bei Paketen ab 8.400 ARX gibt es einen Bonus. Elite Dangerous auf einer geeigneten Plattform ist erforderlich (separat erhältlich).\n\nARX haben ein Limit pro Benutzerkonto und Plattform und können nur in Elite Dangerous verwendet werden. Bitte stelle vor dem Erwerb von ARX sicher, dass du bei dem Steam-Konto angemeldet bist, das mit deinem Frontier-Konto verknüpft ist.",
    "description_french": "Acheter 25 500 (+1300) ARX.\n\nL'ARX est une devise d'Elite Dangerous permettant de se procurer des bonus en jeu, comme des personnalisations de vaisseau, des accessoires de commandant, des couleurs d'armes et bien plus encore. Les ARX s'achètent en packs de quantités variables, et les packs de plus de 8 400 ARX contiennent des ARX bonus. Nécessite de posséder le jeu Elite Dangerous sur une plateforme compatible (vendu séparément).\n\nLes ARX sont limités à un compte spécifique sur une plateforme précise. Ils peuvent uniquement être utilisés dans Elite Dangerous. Avant d'acheter des ARX, assurez-vous d'être connecté au compte Steam associé à votre compte Frontier.",
    "description_spanish": "Compra 25500 ARX (+1300 de bonificación).\n\nPuedes usar arx para comprar extras del juego en Elite Dangerous. Puedes gastarlo en personalizaciones de la nave, accesorios de comandante, colores de arma y mucho más. ¡Hay distintos paquetes con distintas cantidades! Además, ¡a partir de 8400 obtendrás arx de bonificación! Es necesario Elite Dangerous en la plataforma aplicable (se vende por separado).\n\nEl arx está limitado por la cuenta de usuario y la plataforma, y solo se puede utilizar en Elite Dangerous. Antes de comprar arx, asegúrate de que has iniciado sesión en la cuenta de Steam vinculada a tu cuenta de Frontier.",
    "description_russian": "Приобрести 25500 ARX (+1300 бонусных) ARX.\n\nНа средства ARX можно приобрести дополнения к игре Elite Dangerous. ARX можно тратить на различные модификации корабля, аксессуары для командира, расцветки орудий и многое другое. Доступны различные комплекты средств ARX. При покупке от 8400 ARX вы получите бонусные средства. Требуется наличие игры Elite Dangerous для соответствующей платформы (продается отдельно).\n\nARX для каждого пользователя и платфомы считаются отдельно. Их можно использовать только в Elite Dangerous. Перед покупкой ARX убедитесь, что вы вошли в аккаунт Steam, связанный с вашей учетной записью Frontier.",
    "description_brazilian": "Compre 25.500 ARX (+1300 Bônus) ARX.\n\nARX podem ser usados para adquirir extras do jogo em Elite Dangerous. É possível gastar ARX em diversas personalizações da nave, acessórios de Comandante, cores de armas e muito mais. ARX podem ser adquiridos em pacotes de quantias variáveis, com pacotes de 8.400 ou mais oferecendo bônus de ARX. Exige Elite Dangerous na plataforma relevante (vendido separadamente).\n\ns ARX são limitados por conta do usuário e por plataforma e só podem ser usados no Elite Dangerous. Antes de comprar os ARX, verifique se você está conectado à conta Steam vinculada à sua conta Frontier.",
    "background_color": "111111",
    "icon_url": "https://frontier-platform-hosting.s3.amazonaws.com/elite-dangerous/steam/ED_ARX_steam_store_4_300x300.jpg",
    "icon_url_large": "https://frontier-platform-hosting.s3.amazonaws.com/elite-dangerous/steam/ED_ARX_steam_store_4_2048x2048.jpg",
    "name_color": "FFFFFF",
    "store_tags": "virtual currency",
    "tradable": false,
    "marketable": false,
    "commodity": false
  },
  {
    "appid": "359320",
    "itemdefid": "51000",
    "Timestamp": "2019-11-01T17:19:11Z",
    "modified": "20191101T171911Z",
    "date_created": "20191016T112130Z",
    "type": "bundle",
    "display_type": "currency",
    "name": "51000 (+3000 Bonus) ARX",
    "bundle": "1x54000",
    "price": "1;USD3799,EUR2999,GBP2499,RUB205000",
    "use_bundle_price": true,
    "quantity": 0,
    "description": "Purchase 51000 (+3000 Bonus) ARX.\n\nARX can be used to purchase game extras in Elite Dangerous. You can spend ARX on a variety of ship customisations, Commander accessories, weapon colours and much more. ARX can be purchased in packages of varying amounts, with packages of 8,400 or larger containing bonus ARX. Requires Elite Dangerous on applicable platform (sold separately).\n\nARX are limited by user account and platform and can only be used in Elite Dangerous. Prior to purchasing ARX, please ensure that you are logged into the Steam account linked to your Frontier account.",
    "description_german": "51.000 (+3000 Bonus) ARX kaufen.\n\nMit ARX kann man in Elite Dangerous Spielextras erwerben: eine Reihe von Personalisierungsmöglichkeiten für das Schiff, Accessoires für den Kommandanten, Waffenfarben und vieles mehr. ARX werden in Paketen mit verschiedenen Beträgen angeboten, bei Paketen ab 8.400 ARX gibt es einen Bonus. Elite Dangerous auf einer geeigneten Plattform ist erforderlich (separat erhältlich).\n\nARX haben ein Limit pro Benutzerkonto und Plattform und können nur in Elite Dangerous verwendet werden. Bitte stelle vor dem Erwerb von ARX sicher, dass du bei dem Steam-Konto angemeldet bist, das mit deinem Frontier-Konto verknüpft ist.",
    "description_french": "Acheter 51 000 (+3000) ARX.\n\nL'ARX est une devise d'Elite Dangerous permettant de se procurer des bonus en jeu, comme des personnalisations de vaisseau, des accessoires de commandant, des couleurs d'armes et bien plus encore. Les ARX s'achètent en packs de quantités variables, et les packs de plus de 8 400 ARX contiennent des ARX bonus. Nécessite de posséder le jeu Elite Dangerous sur une plateforme compatible (vendu séparément).\n\nLes ARX sont limités à un compte spécifique sur une plateforme précise. Ils peuvent uniquement être utilisés dans Elite Dangerous. Avant d'acheter des ARX, assurez-vous d'être connecté au compte Steam associé à votre compte Frontier.",
    "description_spanish": "Compra 51000 ARX (+3000 de bonificación).\n\nPuedes usar arx para comprar extras del juego en Elite Dangerous. Puedes gastarlo en personalizaciones de la nave, accesorios de comandante, colores de arma y mucho más. ¡Hay distintos paquetes con distintas cantidades! Además, ¡a partir de 8400 obtendrás arx de bonificación! Es necesario Elite Dangerous en la plataforma aplicable (se vende por separado).\n\nEl arx está limitado por la cuenta de usuario y la plataforma, y solo se puede utilizar en Elite Dangerous. Antes de comprar arx, asegúrate de que has iniciado sesión en la cuenta de Steam vinculada a tu cuenta de Frontier.",
    "description_russian": "Приобрести 51000 ARX (+3000 бонусных) ARX.\n\nНа средства ARX можно приобрести дополнения к игре Elite Dangerous. ARX можно тратить на различные модификации корабля, аксессуары для командира, расцветки орудий и многое другое. Доступны различные комплекты средств ARX. При покупке от 8400 ARX вы получите бонусные средства. Требуется наличие игры Elite Dangerous для соответствующей платформы (продается отдельно).\n\nARX для каждого пользователя и платфомы считаются отдельно. Их можно использовать только в Elite Dangerous. Перед покупкой ARX убедитесь, что вы вошли в аккаунт Steam, связанный с вашей учетной записью Frontier.",
    "description_brazilian": "Compre 51.000 ARX (+3000 Bônus) ARX.\n\nARX podem ser usados para adquirir extras do jogo em Elite Dangerous. É possível gastar ARX em diversas personalizações da nave, acessórios de Comandante, cores de armas e muito mais. ARX podem ser adquiridos em pacotes de quantias variáveis, com pacotes de 8.400 ou mais oferecendo bônus de ARX. Exige Elite Dangerous na plataforma relevante (vendido separadamente).\n\ns ARX são limitados por conta do usuário e por plataforma e só podem ser usados no Elite Dangerous. Antes de comprar os ARX, verifique se você está conectado à conta Steam vinculada à sua conta Frontier.",
    "background_color": "111111",
    "icon_url": "https://frontier-platform-hosting.s3.amazonaws.com/elite-dangerous/steam/ED_ARX_steam_store_5_300x300.jpg",
    "icon_url_large": "https://frontier-platform-hosting.s3.amazonaws.com/elite-dangerous/steam/ED_ARX_steam_store_5_2048x2048.jpg",
    "name_color": "FFFFFF",
    "store_tags": "virtual currency",
    "tradable": false,
    "marketable": false,
    "commodity": false
  },
  {
    "appid": "359320",
    "itemdefid": "85000",
    "Timestamp": "2019-11-01T17:19:18Z",
    "modified": "20191101T171918Z",
    "date_created": "20191016T112130Z",
    "type": "bundle",
    "display_type": "currency",
    "name": "85000 (+15000 Bonus) ARX",
    "bundle": "1x100000",
    "price": "1;USD5999,EUR5499,GBP4499,RUB373000",
    "use_bundle_price": true,
    "quantity": 0,
    "description": "Purchase 85000 (+15000 Bonus) ARX.\n\nARX can be used to purchase game extras in Elite Dangerous. You can spend ARX on a variety of ship customisations, Commander accessories, weapon colours and much more. ARX can be purchased in packages of varying amounts, with packages of 8,400 or larger containing bonus ARX. Requires Elite Dangerous on applicable platform (sold separately).\n\nARX are limited by user account and platform and can only be used in Elite Dangerous. Prior to purchasing ARX, please ensure that you are logged into the Steam account linked to your Frontier account.",
    "description_german": "85.000 (+15.000 Bonus) ARX kaufen.\n\nMit ARX kann man in Elite Dangerous Spielextras erwerben: eine Reihe von Personalisierungsmöglichkeiten für das Schiff, Accessoires für den Kommandanten, Waffenfarben und vieles mehr. ARX werden in Paketen mit verschiedenen Beträgen angeboten, bei Paketen ab 8.400 ARX gibt es einen Bonus. Elite Dangerous auf einer geeigneten Plattform ist erforderlich (separat erhältlich).\n\nARX haben ein Limit pro Benutzerkonto und Plattform und können nur in Elite Dangerous verwendet werden. Bitte stelle vor dem Erwerb von ARX sicher, dass du bei dem Steam-Konto angemeldet bist, das mit deinem Frontier-Konto verknüpft ist.",
    "description_french": "Acheter 85 000 (+15 000) ARX.\n\nL'ARX est une devise d'Elite Dangerous permettant de se procurer des bonus en jeu, comme des personnalisations de vaisseau, des accessoires de commandant, des couleurs d'armes et bien plus encore. Les ARX s'achètent en packs de quantités variables, et les packs de plus de 8 400 ARX contiennent des ARX bonus. Nécessite de posséder le jeu Elite Dangerous sur une plateforme compatible (vendu séparément).\n\nLes ARX sont limités à un compte spécifique sur une plateforme précise. Ils peuvent uniquement être utilisés dans Elite Dangerous. Avant d'acheter des ARX, assurez-vous d'être connecté au compte Steam associé à votre compte Frontier.",
    "description_spanish": "Compra 85000 ARX (+15000 de bonificación).\n\nPuedes usar arx para comprar extras del juego en Elite Dangerous. Puedes gastarlo en personalizaciones de la nave, accesorios de comandante, colores de arma y mucho más. ¡Hay distintos paquetes con distintas cantidades! Además, ¡a partir de 8400 obtendrás arx de bonificación! Es necesario Elite Dangerous en la plataforma aplicable (se vende por separado).\n\nEl arx está limitado por la cuenta de usuario y la plataforma, y solo se puede utilizar en Elite Dangerous. Antes de comprar arx, asegúrate de que has iniciado sesión en la cuenta de Steam vinculada a tu cuenta de Frontier.",
    "description_russian": "Приобрести 85000 ARX (+15000 бонусных) ARX.\n\nНа средства ARX можно приобрести дополнения к игре Elite Dangerous. ARX можно тратить на различные модификации корабля, аксессуары для командира, расцветки орудий и многое другое. Доступны различные комплекты средств ARX. При покупке от 8400 ARX вы получите бонусные средства. Требуется наличие игры Elite Dangerous для соответствующей платформы (продается отдельно).\n\nARX для каждого пользователя и платфомы считаются отдельно. Их можно использовать только в Elite Dangerous. Перед покупкой ARX убедитесь, что вы вошли в аккаунт Steam, связанный с вашей учетной записью Frontier.",
    "description_brazilian": "Compre 85.000 ARX (+15.000 Bônus) ARX.\n\nARX podem ser usados para adquirir extras do jogo em Elite Dangerous. É possível gastar ARX em diversas personalizações da nave, acessórios de Comandante, cores de armas e muito mais. ARX podem ser adquiridos em pacotes de quantias variáveis, com pacotes de 8.400 ou mais oferecendo bônus de ARX. Exige Elite Dangerous na plataforma relevante (vendido separadamente).\n\ns ARX são limitados por conta do usuário e por plataforma e só podem ser usados no Elite Dangerous. Antes de comprar os ARX, verifique se você está conectado à conta Steam vinculada à sua conta Frontier.",
    "background_color": "111111",
    "icon_url": "https://frontier-platform-hosting.s3.amazonaws.com/elite-dangerous/steam/ED_ARX_steam_store_6_300x300.jpg",
    "icon_url_large": "https://frontier-platform-hosting.s3.amazonaws.com/elite-dangerous/steam/ED_ARX_steam_store_6_2048x2048.jpg",
    "name_color": "FFFFFF",
    "store_tags": "virtual currency",
    "tradable": false,
    "marketable": false,
    "commodity": false
  }
]