﻿[
  {
    "name": "TIMBER",
    "defaultvalue": 0,
    "displayName": "Timber!!",
    "hidden": 0,
    "description": "Chop down your first tree.",
    "icon": "https://steamcdn-a.akamaihd.net/steamcommunity/public/images/apps/105600/0fbb33098c9da39d1d4771d8209afface9c46e81.jpg",
    "icongray": "https://steamcdn-a.akamaihd.net/steamcommunity/public/images/apps/105600/215ab323d2700314c7e46077e4d8609f2ff6e1d4.jpg"
  },
  {
    "name": "NO_HOBO",
    "defaultvalue": 0,
    "displayName": "No Hobo",
    "hidden": 0,
    "description": "Build a house suitable enough for your first town NPC, such as the guide, to move into.",
    "icon": "https://steamcdn-a.akamaihd.net/steamcommunity/public/images/apps/105600/65bbc5ea6a030b963d9a06e5e1b315c3872837a3.jpg",
    "icongray": "https://steamcdn-a.akamaihd.net/steamcommunity/public/images/apps/105600/d7991d4cfd2277daf7717a5ec9710a20137ec547.jpg"
  },
  {
    "name": "OBTAIN_HAMMER",
    "defaultvalue": 0,
    "displayName": "Stop! Hammer Time!",
    "hidden": 0,
    "description": "Obtain your first hammer via crafting or otherwise.",
    "icon": "https://steamcdn-a.akamaihd.net/steamcommunity/public/images/apps/105600/4760436e9973519098bb2cc419339d24e56af139.jpg",
    "icongray": "https://steamcdn-a.akamaihd.net/steamcommunity/public/images/apps/105600/43638a5dcbe4106165c36e688048ac4b48ec19d6.jpg"
  },
  {
    "name": "OOO_SHINY",
    "defaultvalue": 0,
    "displayName": "Ooo! Shiny!",
    "hidden": 0,
    "description": "Mine your first nugget of ore with a pickaxe.",
    "icon": "https://steamcdn-a.akamaihd.net/steamcommunity/public/images/apps/105600/57b929ffd1a732ffc49abc6c53387e08bac4cbbb.jpg",
    "icongray": "https://steamcdn-a.akamaihd.net/steamcommunity/public/images/apps/105600/a6ca1f5a2805564872fd658d3518d9679987e7ea.jpg"
  },
  {
    "name": "HEART_BREAKER",
    "defaultvalue": 0,
    "displayName": "Heart Breaker",
    "hidden": 0,
    "description": "Discover and smash your first heart crystal underground.",
    "icon": "https://steamcdn-a.akamaihd.net/steamcommunity/public/images/apps/105600/8243e4a0f7f803cd06cf37d64d11e04697afe30c.jpg",
    "icongray": "https://steamcdn-a.akamaihd.net/steamcommunity/public/images/apps/105600/fec5b945a914710f4c0a4d306c84cd1c202b123e.jpg"
  },
  {
    "name": "HEAVY_METAL",
    "defaultvalue": 0,
    "displayName": "Heavy Metal",
    "hidden": 0,
    "description": "Obtain an anvil made from iron or lead.",
    "icon": "https://steamcdn-a.akamaihd.net/steamcommunity/public/images/apps/105600/f727271437793b278c809a067fa2334ea2846f34.jpg",
    "icongray": "https://steamcdn-a.akamaihd.net/steamcommunity/public/images/apps/105600/aa3f77b9245edd057fc9939045457e189ebc7b4a.jpg"
  },
  {
    "name": "I_AM_LOOT",
    "defaultvalue": 0,
    "displayName": "I Am Loot!",
    "hidden": 0,
    "description": "Discover a golden chest underground and take a peek at its contents.",
    "icon": "https://steamcdn-a.akamaihd.net/steamcommunity/public/images/apps/105600/6705287adc42e2741d632c2d714424b2aa3e5716.jpg",
    "icongray": "https://steamcdn-a.akamaihd.net/steamcommunity/public/images/apps/105600/c520b63981069eb7e71172116e4d90edeea7e4a0.jpg"
  },
  {
    "name": "STAR_POWER",
    "defaultvalue": 0,
    "displayName": "Star Power",
    "hidden": 0,
    "description": "Craft a mana crystal out of fallen stars, and consume it.",
    "icon": "https://steamcdn-a.akamaihd.net/steamcommunity/public/images/apps/105600/738ca7765e32895918979d31d600d19254b14190.jpg",
    "icongray": "https://steamcdn-a.akamaihd.net/steamcommunity/public/images/apps/105600/780cc0a0ed919094689e2f7785dfc9b1d13f5fed.jpg"
  },
  {
    "name": "HOLD_ON_TIGHT",
    "defaultvalue": 0,
    "displayName": "Hold on Tight!",
    "hidden": 0,
    "description": "Equip your first grappling hook.",
    "icon": "https://steamcdn-a.akamaihd.net/steamcommunity/public/images/apps/105600/0e2a5e080563ce9c30cf3b45dd155d18640f0bf6.jpg",
    "icongray": "https://steamcdn-a.akamaihd.net/steamcommunity/public/images/apps/105600/46f83676ab1490b0b68a2241c1eeaf906f49bd49.jpg"
  },
  {
    "name": "EYE_ON_YOU",
    "defaultvalue": 0,
    "displayName": "Eye on You",
    "hidden": 0,
    "description": "Defeat the Eye of Cthulhu, an ocular menace who only appears at night.",
    "icon": "https://steamcdn-a.akamaihd.net/steamcommunity/public/images/apps/105600/b10b068163125e13444e2cdb145c1a200c7ad607.jpg",
    "icongray": "https://steamcdn-a.akamaihd.net/steamcommunity/public/images/apps/105600/f4ab794679e941f840a57c0a22dd7a744b621a7a.jpg"
  },
  {
    "name": "SMASHING_POPPET",
    "defaultvalue": 0,
    "displayName": "Smashing, Poppet!",
    "hidden": 0,
    "description": "Using explosives or your trusty hammer, smash a Shadow Orb or Crimson Heart in the evil parts of your world.",
    "icon": "https://steamcdn-a.akamaihd.net/steamcommunity/public/images/apps/105600/7f9006b20f6615ef0e93c72cade8fb26c3818db7.jpg",
    "icongray": "https://steamcdn-a.akamaihd.net/steamcommunity/public/images/apps/105600/b8d1c66a82961f679321d361c0c917b6984ba02c.jpg"
  },
  {
    "name": "WORM_FODDER",
    "defaultvalue": 0,
    "displayName": "Worm Fodder",
    "hidden": 0,
    "description": "Defeat the Eater of Worlds, a massive worm whom dwells in the corruption.",
    "icon": "https://steamcdn-a.akamaihd.net/steamcommunity/public/images/apps/105600/624b8391794e2f02f067295d634d648d6cb0e4a9.jpg",
    "icongray": "https://steamcdn-a.akamaihd.net/steamcommunity/public/images/apps/105600/456fa5f8871b686071517894ee7fba53c50a07d9.jpg"
  },
  {
    "name": "MASTERMIND",
    "defaultvalue": 0,
    "displayName": "Mastermind",
    "hidden": 0,
    "description": "Defeat the Brain of Cthuhlu, an enourmous demon brain which haunts the creeping crimson.",
    "icon": "https://steamcdn-a.akamaihd.net/steamcommunity/public/images/apps/105600/53b00566871f426e2e2a341de81b143c0fd1be9d.jpg",
    "icongray": "https://steamcdn-a.akamaihd.net/steamcommunity/public/images/apps/105600/27bccf4571b9b3d9e5ed937a7f4301bdf04ba32b.jpg"
  },
  {
    "name": "WHERES_MY_HONEY",
    "defaultvalue": 0,
    "displayName": "Where's My Honey?",
    "hidden": 0,
    "description": "Discover a large bee's hive deep in the jungle.",
    "icon": "https://steamcdn-a.akamaihd.net/steamcommunity/public/images/apps/105600/b4b56f2efddc04d7c234de521f58a9ee9e697327.jpg",
    "icongray": "https://steamcdn-a.akamaihd.net/steamcommunity/public/images/apps/105600/42a043392ef650a17df5202884652e6e4b8d73ea.jpg"
  },
  {
    "name": "STING_OPERATION",
    "defaultvalue": 0,
    "displayName": "Sting Operation",
    "hidden": 0,
    "description": "Defeat the Queen Bee, the matriarch of the jungle hives.",
    "icon": "https://steamcdn-a.akamaihd.net/steamcommunity/public/images/apps/105600/a8ed027c602baf83e6f3d59ba074eec87b1dd2d7.jpg",
    "icongray": "https://steamcdn-a.akamaihd.net/steamcommunity/public/images/apps/105600/c2dc31e752a7949e713bf8547604db81b4299b7d.jpg"
  },
  {
    "name": "BONED",
    "defaultvalue": 0,
    "displayName": "Boned",
    "hidden": 0,
    "description": "Defeat Skeletron, the cursed guardian of the dungeon.",
    "icon": "https://steamcdn-a.akamaihd.net/steamcommunity/public/images/apps/105600/11b9d704b496f6586f952e93c2158d38dd169377.jpg",
    "icongray": "https://steamcdn-a.akamaihd.net/steamcommunity/public/images/apps/105600/a5920e4de2afd1dfeed66d7669f349a61c9f29bb.jpg"
  },
  {
    "name": "DUNGEON_HEIST",
    "defaultvalue": 0,
    "displayName": "Dungeon Heist",
    "hidden": 0,
    "description": "Steal a key from dungeon's undead denizens, and unlock one of their precious golden chests.",
    "icon": "https://steamcdn-a.akamaihd.net/steamcommunity/public/images/apps/105600/ba1daa2f08355bf11e2494b01db49f47fa4f43c7.jpg",
    "icongray": "https://steamcdn-a.akamaihd.net/steamcommunity/public/images/apps/105600/5b9a4093d1f8c8262399f71daf5ea2d949d8c1c7.jpg"
  },
  {
    "name": "ITS_GETTING_HOT_IN_HERE",
    "defaultvalue": 0,
    "displayName": "It's Getting Hot in Here",
    "hidden": 0,
    "description": "Spelunk deep enough to reach the molten underworld.",
    "icon": "https://steamcdn-a.akamaihd.net/steamcommunity/public/images/apps/105600/58efa6a9a0ae6a955c6a82874961b08c8e4def60.jpg",
    "icongray": "https://steamcdn-a.akamaihd.net/steamcommunity/public/images/apps/105600/64b938e19a5dbbe762e0e407b7bac933e6dcc42d.jpg"
  },
  {
    "name": "MINER_FOR_FIRE",
    "defaultvalue": 0,
    "displayName": "Miner for Fire",
    "hidden": 0,
    "description": "Craft a molten pickaxe using the hottest of materials.",
    "icon": "https://steamcdn-a.akamaihd.net/steamcommunity/public/images/apps/105600/bbb5c58dea957db42faaa276c697599f0354f06c.jpg",
    "icongray": "https://steamcdn-a.akamaihd.net/steamcommunity/public/images/apps/105600/0abf772214e1de738eb095f105e87c014f539d97.jpg"
  },
  {
    "name": "STILL_HUNGRY",
    "defaultvalue": 0,
    "displayName": "Still Hungry",
    "hidden": 0,
    "description": "Defeat the Wall of Flesh, the master and core of the world who arises after a great, burning sacrifice.",
    "icon": "https://steamcdn-a.akamaihd.net/steamcommunity/public/images/apps/105600/02ba42d3df19dc2cd81a6bf4ee29c7ce446e4360.jpg",
    "icongray": "https://steamcdn-a.akamaihd.net/steamcommunity/public/images/apps/105600/111897a2360d0c1f399d070f0d6a6d2d5554c448.jpg"
  },
  {
    "name": "ITS_HARD",
    "defaultvalue": 0,
    "displayName": "It's Hard!",
    "hidden": 0,
    "description": "Unleash the ancient spirits of light and darkness across your world, enabling much stronger foes and showering the world with dazzling treasures (and rainbows!).",
    "icon": "https://steamcdn-a.akamaihd.net/steamcommunity/public/images/apps/105600/dc65c66c704560c7a940fab6d5023490f7102fb3.jpg",
    "icongray": "https://steamcdn-a.akamaihd.net/steamcommunity/public/images/apps/105600/fcc6d9d4e6fd59d1da778f96efbaa7df4e9053d8.jpg"
  },
  {
    "name": "BEGONE_EVIL",
    "defaultvalue": 0,
    "displayName": "Begone, Evil!",
    "hidden": 0,
    "description": "Smash a demon or crimson altar with a powerful, holy hammer.",
    "icon": "https://steamcdn-a.akamaihd.net/steamcommunity/public/images/apps/105600/c3917d676fc752415849de9f132549d05ba0ca4c.jpg",
    "icongray": "https://steamcdn-a.akamaihd.net/steamcommunity/public/images/apps/105600/20e720e5b07babbbc93481b4ccaa4c0168ddc3d2.jpg"
  },
  {
    "name": "EXTRA_SHINY",
    "defaultvalue": 0,
    "displayName": "Extra Shiny!",
    "hidden": 0,
    "description": "Mine a powerful ore that has been newly blessed upon your world.",
    "icon": "https://steamcdn-a.akamaihd.net/steamcommunity/public/images/apps/105600/9d573b4067856938a1c13c9c93f3dec66c0c3f72.jpg",
    "icongray": "https://steamcdn-a.akamaihd.net/steamcommunity/public/images/apps/105600/dda0a5f3579e08dc09b49591d0c10f3266af1edf.jpg"
  },
  {
    "name": "HEAD_IN_THE_CLOUDS",
    "defaultvalue": 0,
    "displayName": "Head in the Clouds",
    "hidden": 0,
    "description": "Equip a pair of wings.",
    "icon": "https://steamcdn-a.akamaihd.net/steamcommunity/public/images/apps/105600/55cb91ab9841f538742277b897189ab19aaefc8b.jpg",
    "icongray": "https://steamcdn-a.akamaihd.net/steamcommunity/public/images/apps/105600/a7bf41d4a8e34e2a322a22af48592bbf3d5dd503.jpg"
  },
  {
    "name": "LIKE_A_BOSS",
    "defaultvalue": 0,
    "displayName": "Like a Boss",
    "hidden": 0,
    "description": "Obtain a boss-summoning item.",
    "icon": "https://steamcdn-a.akamaihd.net/steamcommunity/public/images/apps/105600/e5e0bffeb00c720091439eb8336fea7d77f147c5.jpg",
    "icongray": "https://steamcdn-a.akamaihd.net/steamcommunity/public/images/apps/105600/efb2a686c7730a07d3ac2ffeaa5460d9c69a9619.jpg"
  },
  {
    "name": "BUCKETS_OF_BOLTS",
    "defaultvalue": 0,
    "displayName": "Buckets of Bolts",
    "hidden": 0,
    "description": "Defeat the three nocturnal mechanical menaces: the Twins, the Destroyer, and Skeletron Prime.",
    "icon": "https://steamcdn-a.akamaihd.net/steamcommunity/public/images/apps/105600/27536dd7b5ee4de46b85be337d0c792d685b14f5.jpg",
    "icongray": "https://steamcdn-a.akamaihd.net/steamcommunity/public/images/apps/105600/11c5ee02a102d797ca34f74245b6f4e2d33121ed.jpg"
  },
  {
    "name": "DRAX_ATTAX",
    "defaultvalue": 0,
    "displayName": "Drax Attax",
    "hidden": 0,
    "description": "Craft a drax or pickaxe axe using hallowed bars, and the souls of the three mechanical bosses.",
    "icon": "https://steamcdn-a.akamaihd.net/steamcommunity/public/images/apps/105600/d3955ec8610cc6a7229866780451467ab0e5c5a2.jpg",
    "icongray": "https://steamcdn-a.akamaihd.net/steamcommunity/public/images/apps/105600/65b04a560e6d035bf2488cabf6eb9fab36121d1f.jpg"
  },
  {
    "name": "PHOTOSYNTHESIS",
    "defaultvalue": 0,
    "displayName": "Photosynthesis",
    "hidden": 0,
    "description": "Mine chlorophyte, an organic ore found deep among the thickest of flora.",
    "icon": "https://steamcdn-a.akamaihd.net/steamcommunity/public/images/apps/105600/2a4c26b8eca5e09cabcd64a50b76115d2679796a.jpg",
    "icongray": "https://steamcdn-a.akamaihd.net/steamcommunity/public/images/apps/105600/a7db8206e7bcecf947d6ba3514a7784d700e776b.jpg"
  },
  {
    "name": "GET_A_LIFE",
    "defaultvalue": 0,
    "displayName": "Get a Life",
    "hidden": 0,
    "description": "Consume a life fruit, which grows in the thick of subterranean jungle grass.",
    "icon": "https://steamcdn-a.akamaihd.net/steamcommunity/public/images/apps/105600/e54172f81aaaac5bdabededcb8e52b8c2d2f7f8e.jpg",
    "icongray": "https://steamcdn-a.akamaihd.net/steamcommunity/public/images/apps/105600/c2292cc9fd71f85cb02134ab0b1b160eb58aac44.jpg"
  },
  {
    "name": "THE_GREAT_SOUTHERN_PLANTKILL",
    "defaultvalue": 0,
    "displayName": "The Great Southern Plantkill",
    "hidden": 0,
    "description": "Defeat Plantera, the overgrown monstrosity of the jungle's depths.",
    "icon": "https://steamcdn-a.akamaihd.net/steamcommunity/public/images/apps/105600/4b52e1dd35f600a9f82f7958abe2a467d68351e7.jpg",
    "icongray": "https://steamcdn-a.akamaihd.net/steamcommunity/public/images/apps/105600/ad356178e23bc02c5347217c5e1fdf1e53a9fcad.jpg"
  },
  {
    "name": "TEMPLE_RAIDER",
    "defaultvalue": 0,
    "displayName": "Temple Raider",
    "hidden": 0,
    "description": "Breach the impenetrable walls of the jungle temple.",
    "icon": "https://steamcdn-a.akamaihd.net/steamcommunity/public/images/apps/105600/cd11c08ea1a436e8156e1d3ebeccd1c9ba5cb22f.jpg",
    "icongray": "https://steamcdn-a.akamaihd.net/steamcommunity/public/images/apps/105600/e3190b1bb96ed0611d670bbadaae4906a2af8273.jpg"
  },
  {
    "name": "LIHZAHRDIAN_IDOL",
    "defaultvalue": 0,
    "displayName": "Lihzahrdian Idol",
    "hidden": 0,
    "description": "Defeat Golem, the stone-faced ritualistic idol of the lihzahrd tribe.",
    "icon": "https://steamcdn-a.akamaihd.net/steamcommunity/public/images/apps/105600/3d8a29010ed3e22203cb4f0d52167c88f9c91a5c.jpg",
    "icongray": "https://steamcdn-a.akamaihd.net/steamcommunity/public/images/apps/105600/8e1ebae754aceb1afdaa23bd6d98f44577f50d5b.jpg"
  },
  {
    "name": "ROBBING_THE_GRAVE",
    "defaultvalue": 0,
    "displayName": "Robbing the Grave",
    "hidden": 0,
    "description": "Obtain a rare treasure from a difficult monster in the dungeon.",
    "icon": "https://steamcdn-a.akamaihd.net/steamcommunity/public/images/apps/105600/45884dee9cec706f27db75fbe4567da42d235836.jpg",
    "icongray": "https://steamcdn-a.akamaihd.net/steamcommunity/public/images/apps/105600/33a8b86b6798f9a068b7d5fa2040377b950ac248.jpg"
  },
  {
    "name": "BIG_BOOTY",
    "defaultvalue": 0,
    "displayName": "Big Booty",
    "hidden": 0,
    "description": "Unlock one of the dungeon's large, mysterious chests with a special key.",
    "icon": "https://steamcdn-a.akamaihd.net/steamcommunity/public/images/apps/105600/c7415e2bf7cbef15558b41c70bb1e306e5682e27.jpg",
    "icongray": "https://steamcdn-a.akamaihd.net/steamcommunity/public/images/apps/105600/fab3cbe2a2838c4b45cff7c1345207381759f01f.jpg"
  },
  {
    "name": "FISH_OUT_OF_WATER",
    "defaultvalue": 0,
    "displayName": "Fish Out of Water",
    "hidden": 0,
    "description": "Defeat Duke Fishron, mutant terror of the sea.",
    "icon": "https://steamcdn-a.akamaihd.net/steamcommunity/public/images/apps/105600/3efe3c4fcbfa43a355df16292f307232559fb3ec.jpg",
    "icongray": "https://steamcdn-a.akamaihd.net/steamcommunity/public/images/apps/105600/2f7c0c5af413c687f6d2d2c85535643cc946278f.jpg"
  },
  {
    "name": "OBSESSIVE_DEVOTION",
    "defaultvalue": 0,
    "displayName": "Obsessive Devotion",
    "hidden": 0,
    "description": "Defeat the Ancient Cultist, fanatical leader of the dungeon coven.",
    "icon": "https://steamcdn-a.akamaihd.net/steamcommunity/public/images/apps/105600/b9436b13653d95dd441c8a96213e6a4dfbc6b72f.jpg",
    "icongray": "https://steamcdn-a.akamaihd.net/steamcommunity/public/images/apps/105600/72d866929276b478e2f074bee1e5bf1919d47588.jpg"
  },
  {
    "name": "STAR_DESTROYER",
    "defaultvalue": 0,
    "displayName": "Star Destroyer",
    "hidden": 0,
    "description": "Defeat the four celestial towers of the moon.",
    "icon": "https://steamcdn-a.akamaihd.net/steamcommunity/public/images/apps/105600/da3155b9d24c435c244f7c099914586bac0b9853.jpg",
    "icongray": "https://steamcdn-a.akamaihd.net/steamcommunity/public/images/apps/105600/fd4782809e8e761df20a066d73c6e59a37eda578.jpg"
  },
  {
    "name": "CHAMPION_OF_TERRARIA",
    "defaultvalue": 0,
    "displayName": "Champion of Terraria",
    "hidden": 0,
    "description": "Defeat the Moon Lord.",
    "icon": "https://steamcdn-a.akamaihd.net/steamcommunity/public/images/apps/105600/c91f1b034b7ce14a89a377320eddaf29f18143f1.jpg",
    "icongray": "https://steamcdn-a.akamaihd.net/steamcommunity/public/images/apps/105600/84d49737dac6efb43404cfad460f5cf1e4e23f22.jpg"
  },
  {
    "name": "BLOODBATH",
    "defaultvalue": 0,
    "displayName": "Bloodbath",
    "hidden": 0,
    "description": "Survive a blood moon, a nocturnal event where the rivers run red and monsters swarm aplenty.",
    "icon": "https://steamcdn-a.akamaihd.net/steamcommunity/public/images/apps/105600/ce64b32e5385e779e3c615b2f36a966f8cdf4405.jpg",
    "icongray": "https://steamcdn-a.akamaihd.net/steamcommunity/public/images/apps/105600/d570053a6fc1e3eb18e08832b945299bcd32f133.jpg"
  },
  {
    "name": "SLIPPERY_SHINOBI",
    "defaultvalue": 0,
    "displayName": "Slippery Shinobi",
    "hidden": 0,
    "description": "Defeat King Slime, the lord of all things slimy.",
    "icon": "https://steamcdn-a.akamaihd.net/steamcommunity/public/images/apps/105600/839662b6bd88d0babf10cb9e7d5bafd9d89f3efc.jpg",
    "icongray": "https://steamcdn-a.akamaihd.net/steamcommunity/public/images/apps/105600/ff2ed08c73b61064aff96fbb11e3ef7a37cf5cc9.jpg"
  },
  {
    "name": "GOBLIN_PUNTER",
    "defaultvalue": 0,
    "displayName": "Goblin Punter",
    "hidden": 0,
    "description": "Triumph over a goblin invasion, a ragtag regiment of crude, barbaric, pointy-eared warriors and their shadowflame sorcerers.",
    "icon": "https://steamcdn-a.akamaihd.net/steamcommunity/public/images/apps/105600/984d8201f226319980b9a5f13b0a17455587d187.jpg",
    "icongray": "https://steamcdn-a.akamaihd.net/steamcommunity/public/images/apps/105600/748af6880cb3fcd471f8219cf53e120da140021b.jpg"
  },
  {
    "name": "WALK_THE_PLANK",
    "defaultvalue": 0,
    "displayName": "Walk the Plank",
    "hidden": 0,
    "description": "Triumph over a pirate invasion, a group of pillagers from the sea out for your booty... and your life!",
    "icon": "https://steamcdn-a.akamaihd.net/steamcommunity/public/images/apps/105600/ce10d46dae4218e320e2ae46188507aa39ddf12b.jpg",
    "icongray": "https://steamcdn-a.akamaihd.net/steamcommunity/public/images/apps/105600/67904eae5050a56f21c7ccf11e0980cd8db8210c.jpg"
  },
  {
    "name": "KILL_THE_SUN",
    "defaultvalue": 0,
    "displayName": "Kill the Sun",
    "hidden": 0,
    "description": "Survive a solar eclipse, a day darker than night filled with creatures of horror.",
    "icon": "https://steamcdn-a.akamaihd.net/steamcommunity/public/images/apps/105600/b528155244502c33c5bf0b8d8cee3e08e9637216.jpg",
    "icongray": "https://steamcdn-a.akamaihd.net/steamcommunity/public/images/apps/105600/30e1e79d2e2a2c398cf6a2f5b56341fd7d2ae51b.jpg"
  },
  {
    "name": "DO_YOU_WANT_TO_SLAY_A_SNOWMAN",
    "defaultvalue": 0,
    "displayName": "Do You Want to Slay a Snowman?",
    "hidden": 0,
    "description": "Triumph over the frost legion, a festive family of maniacal snowman mobsters.",
    "icon": "https://steamcdn-a.akamaihd.net/steamcommunity/public/images/apps/105600/f00bc8242a3fe3ba2c682ae50eaf9c9a14fe95be.jpg",
    "icongray": "https://steamcdn-a.akamaihd.net/steamcommunity/public/images/apps/105600/7baaf96332c48c159c7f52dac890fb63ecd469bc.jpg"
  },
  {
    "name": "TIN_FOIL_HATTER",
    "defaultvalue": 0,
    "displayName": "Tin-Foil Hatter",
    "hidden": 0,
    "description": "Triumph over a martian invasion, when beings from out of this world come to scramble your brains and probe you in uncomfortable places.",
    "icon": "https://steamcdn-a.akamaihd.net/steamcommunity/public/images/apps/105600/c3e587ad5f2dea6f18e3b1dbda3ae258f70edf9c.jpg",
    "icongray": "https://steamcdn-a.akamaihd.net/steamcommunity/public/images/apps/105600/2056002102103e728caf7c943a33814cc93664a3.jpg"
  },
  {
    "name": "BALEFUL_HARVEST",
    "defaultvalue": 0,
    "displayName": "Baleful Harvest",
    "hidden": 0,
    "description": "Reach the 15th wave of a pumpkin moon, where evil lurks among the autumn harvest.",
    "icon": "https://steamcdn-a.akamaihd.net/steamcommunity/public/images/apps/105600/86778a8e3b31dc11c21491bf0fb49364efa586aa.jpg",
    "icongray": "https://steamcdn-a.akamaihd.net/steamcommunity/public/images/apps/105600/d7a84b961390a85af46ac6cc7764d15c39f59c3a.jpg"
  },
  {
    "name": "ICE_SCREAM",
    "defaultvalue": 0,
    "displayName": "Ice Scream",
    "hidden": 0,
    "description": "Reach the 15th wave of a frost moon, where the festive season quickly degrades into madness.",
    "icon": "https://steamcdn-a.akamaihd.net/steamcommunity/public/images/apps/105600/c8da134d01c965ca92dffdeba235f04174e0841e.jpg",
    "icongray": "https://steamcdn-a.akamaihd.net/steamcommunity/public/images/apps/105600/96ad2e289870490210a2baa6bb9f8333b5ac9868.jpg"
  },
  {
    "name": "STICKY_SITUATION",
    "defaultvalue": 0,
    "displayName": "Sticky Situation",
    "hidden": 0,
    "description": "Survive the slime rain, where gelatinous organisms fall from the sky in droves.",
    "icon": "https://steamcdn-a.akamaihd.net/steamcommunity/public/images/apps/105600/d033499586f55832b7ca093fc07077c6d64dfb57.jpg",
    "icongray": "https://steamcdn-a.akamaihd.net/steamcommunity/public/images/apps/105600/0f8b79711f309e9d4552949765ee5644532e6377.jpg"
  },
  {
    "name": "REAL_ESTATE_AGENT",
    "defaultvalue": 0,
    "displayName": "Real Estate Agent",
    "hidden": 0,
    "description": "Have all possible town NPCs living in your world.",
    "icon": "https://steamcdn-a.akamaihd.net/steamcommunity/public/images/apps/105600/bb38f0b5c56803197bd87c5de580ede512a0ae59.jpg",
    "icongray": "https://steamcdn-a.akamaihd.net/steamcommunity/public/images/apps/105600/05dce04e306a30efc50c2a5a675f6e9f99adbddb.jpg"
  },
  {
    "name": "NOT_THE_BEES",
    "defaultvalue": 0,
    "displayName": "Not the Bees!",
    "hidden": 0,
    "description": "Fire a Bee Gun while wearing a full set of Bee Armor.",
    "icon": "https://steamcdn-a.akamaihd.net/steamcommunity/public/images/apps/105600/03d53ce253896b4ca711a08fd8dee0f6cb557cad.jpg",
    "icongray": "https://steamcdn-a.akamaihd.net/steamcommunity/public/images/apps/105600/de0d94a90f47e5387f028bf188330a2939ab545a.jpg"
  },
  {
    "name": "JEEPERS_CREEPERS",
    "defaultvalue": 0,
    "displayName": "Jeepers Creepers",
    "hidden": 0,
    "description": "Stumble into a spider cavern in the underground.",
    "icon": "https://steamcdn-a.akamaihd.net/steamcommunity/public/images/apps/105600/d9aeb5789d29be12161f43cb7a6a6e7afb045116.jpg",
    "icongray": "https://steamcdn-a.akamaihd.net/steamcommunity/public/images/apps/105600/0797a8d84b529fe59b46539aa41ce33c493fc791.jpg"
  },
  {
    "name": "FUNKYTOWN",
    "defaultvalue": 0,
    "displayName": "Funkytown",
    "hidden": 0,
    "description": "Build or encounter a glowing mushroom field above the surface.",
    "icon": "https://steamcdn-a.akamaihd.net/steamcommunity/public/images/apps/105600/2f0d702bad1430791b379ff1735f6bf2ba7e9eb1.jpg",
    "icongray": "https://steamcdn-a.akamaihd.net/steamcommunity/public/images/apps/105600/5b65e9808d69d30266c14092c1437990fb4e5ed2.jpg"
  },
  {
    "name": "INTO_ORBIT",
    "defaultvalue": 0,
    "displayName": "Into Orbit",
    "hidden": 0,
    "description": "You can only go down from here!",
    "icon": "https://steamcdn-a.akamaihd.net/steamcommunity/public/images/apps/105600/db6d01c34f6ad734293be8ce9d587e9d0b5faf51.jpg",
    "icongray": "https://steamcdn-a.akamaihd.net/steamcommunity/public/images/apps/105600/67dfe8db60f8d6694e13eb1d6bca4a619c7f18a3.jpg"
  },
  {
    "name": "ROCK_BOTTOM",
    "defaultvalue": 0,
    "displayName": "Rock Bottom",
    "hidden": 0,
    "description": "The only way is up!",
    "icon": "https://steamcdn-a.akamaihd.net/steamcommunity/public/images/apps/105600/ef421de200597d9553957957bb16b1504a25c752.jpg",
    "icongray": "https://steamcdn-a.akamaihd.net/steamcommunity/public/images/apps/105600/9e055f21ae568e26c5931b5a38b43db9dd5c1b9d.jpg"
  },
  {
    "name": "MECHA_MAYHEM",
    "defaultvalue": 0,
    "displayName": "Mecha Mayhem",
    "hidden": 0,
    "description": "Do battle against the Twins, the Destroyer, and Skeletron Prime simultaneously and emerge victorious.",
    "icon": "https://steamcdn-a.akamaihd.net/steamcommunity/public/images/apps/105600/d8d3d50b2216d47c33e307972056d8fd8471d54e.jpg",
    "icongray": "https://steamcdn-a.akamaihd.net/steamcommunity/public/images/apps/105600/e3953f411d1825a9f20c27716077220048ac8d0c.jpg"
  },
  {
    "name": "GELATIN_WORLD_TOUR",
    "defaultvalue": 0,
    "displayName": "Gelatin World Tour",
    "hidden": 0,
    "description": "Defeat every type of slime there is!",
    "icon": "https://steamcdn-a.akamaihd.net/steamcommunity/public/images/apps/105600/7528c2a19d58be44828e538579f2c422b35537f5.jpg",
    "icongray": "https://steamcdn-a.akamaihd.net/steamcommunity/public/images/apps/105600/1b33ceaa4d26eb9fb8a60bfd0b9d9fd4dbb76354.jpg"
  },
  {
    "name": "FASHION_STATEMENT",
    "defaultvalue": 0,
    "displayName": "Fashion Statement",
    "hidden": 0,
    "description": "Equip armor or vanity clothing in all three social slots.",
    "icon": "https://steamcdn-a.akamaihd.net/steamcommunity/public/images/apps/105600/a21ac001c8eb0eece9a498b094d5c1f8e121727a.jpg",
    "icongray": "https://steamcdn-a.akamaihd.net/steamcommunity/public/images/apps/105600/2d91a2f8a502afe5bbf5f0ab7de1a1263dad1f38.jpg"
  },
  {
    "name": "VEHICULAR_MANSLAUGHTER",
    "defaultvalue": 0,
    "displayName": "Vehicular Manslaughter",
    "hidden": 0,
    "description": "Defeat an enemy by running it over with a minecart.",
    "icon": "https://steamcdn-a.akamaihd.net/steamcommunity/public/images/apps/105600/a959913d98f2195136a4c8acd11b98281e2109e4.jpg",
    "icongray": "https://steamcdn-a.akamaihd.net/steamcommunity/public/images/apps/105600/dc02c7917eb0fc9ad741c89070530221274cbdf9.jpg"
  },
  {
    "name": "BULLDOZER",
    "defaultvalue": 0,
    "displayName": "Bulldozer",
    "hidden": 0,
    "description": "Destroy a total of 10,000 tiles.",
    "icon": "https://steamcdn-a.akamaihd.net/steamcommunity/public/images/apps/105600/c57a4c06ecbc2ec8fe5af0b1d4cb8cbfe8821a10.jpg",
    "icongray": "https://steamcdn-a.akamaihd.net/steamcommunity/public/images/apps/105600/fce7dab9aaaea5580e351ae70e888cc1f6713be7.jpg"
  },
  {
    "name": "THERE_ARE_SOME_WHO_CALL_HIM",
    "defaultvalue": 0,
    "displayName": "There are Some Who Call Him...",
    "hidden": 0,
    "description": "Kill Tim.",
    "icon": "https://steamcdn-a.akamaihd.net/steamcommunity/public/images/apps/105600/472bdbff627e1e346f0cff906bc698abde36f9c0.jpg",
    "icongray": "https://steamcdn-a.akamaihd.net/steamcommunity/public/images/apps/105600/f7c1a70379fdfdba3c25334691584a1e3a960a2d.jpg"
  },
  {
    "name": "DECEIVER_OF_FOOLS",
    "defaultvalue": 0,
    "displayName": "Deceiver of Fools",
    "hidden": 0,
    "description": "Kill a nymph.",
    "icon": "https://steamcdn-a.akamaihd.net/steamcommunity/public/images/apps/105600/5a07dc5b30fe19e1675d03b89ef2cdd1856d6157.jpg",
    "icongray": "https://steamcdn-a.akamaihd.net/steamcommunity/public/images/apps/105600/b7f7236c84356eacfe8693a28b94865d90f54de3.jpg"
  },
  {
    "name": "SWORD_OF_THE_HERO",
    "defaultvalue": 0,
    "displayName": "Sword of the Hero",
    "hidden": 0,
    "description": "Obtain a Terra Blade, forged from the finest blades of light and darkness.",
    "icon": "https://steamcdn-a.akamaihd.net/steamcommunity/public/images/apps/105600/4256db7a8c24e4bfa312b6768d1af19873883b02.jpg",
    "icongray": "https://steamcdn-a.akamaihd.net/steamcommunity/public/images/apps/105600/cb42e09d2a7ba48c618f50681bfd725839e2e08a.jpg"
  },
  {
    "name": "LUCKY_BREAK",
    "defaultvalue": 0,
    "displayName": "Lucky Break",
    "hidden": 0,
    "description": "Survive a long fall with just a sliver of health remaining.",
    "icon": "https://steamcdn-a.akamaihd.net/steamcommunity/public/images/apps/105600/8fe7fc557c8573f9bf353c82387dd18c4f20c9ab.jpg",
    "icongray": "https://steamcdn-a.akamaihd.net/steamcommunity/public/images/apps/105600/443d31c8693f52f10041b43e7fa7479aff01e827.jpg"
  },
  {
    "name": "THROWING_LINES",
    "defaultvalue": 0,
    "displayName": "Throwing Lines",
    "hidden": 0,
    "description": "Throw a yoyo.",
    "icon": "https://steamcdn-a.akamaihd.net/steamcommunity/public/images/apps/105600/efd06080d5ca93192d2c1dda6e9cf92b424e461e.jpg",
    "icongray": "https://steamcdn-a.akamaihd.net/steamcommunity/public/images/apps/105600/a5465292376582d75b67bd891e59f29680a4e7e2.jpg"
  },
  {
    "name": "DYE_HARD",
    "defaultvalue": 0,
    "displayName": "Dye Hard",
    "hidden": 0,
    "description": "Equip a dye in every possible dye slot.",
    "icon": "https://steamcdn-a.akamaihd.net/steamcommunity/public/images/apps/105600/1aa1fffcccddc0cf50f4da93914ad18e59e92c23.jpg",
    "icongray": "https://steamcdn-a.akamaihd.net/steamcommunity/public/images/apps/105600/2b67334a91be3f2fd00199db5c8a12251e5fd043.jpg"
  },
  {
    "name": "SICK_THROW",
    "defaultvalue": 0,
    "displayName": "Sick Throw",
    "hidden": 0,
    "description": "Obtain the Terrarian.",
    "icon": "https://steamcdn-a.akamaihd.net/steamcommunity/public/images/apps/105600/7cf7f0f0a17e1bfdb864857698458a548454f944.jpg",
    "icongray": "https://steamcdn-a.akamaihd.net/steamcommunity/public/images/apps/105600/36664bb1b70a54c595b133845977fc1dd2f59c5e.jpg"
  },
  {
    "name": "FREQUENT_FLYER",
    "defaultvalue": 0,
    "displayName": "The Frequent Flyer",
    "hidden": 0,
    "description": "Spend over 1 gold being treated by the nurse.",
    "icon": "https://steamcdn-a.akamaihd.net/steamcommunity/public/images/apps/105600/af50c3b5549094e0f99d20f04ff6ed4e5fda6889.jpg",
    "icongray": "https://steamcdn-a.akamaihd.net/steamcommunity/public/images/apps/105600/50ad4ca074968f2d4c75aaaa8cf267bdc4da3bd2.jpg"
  },
  {
    "name": "THE_CAVALRY",
    "defaultvalue": 0,
    "displayName": "The Cavalry",
    "hidden": 0,
    "description": "Equip a mount.",
    "icon": "https://steamcdn-a.akamaihd.net/steamcommunity/public/images/apps/105600/da6e31f8c70f22252c7d5c7ec6882093499146f9.jpg",
    "icongray": "https://steamcdn-a.akamaihd.net/steamcommunity/public/images/apps/105600/aad963cda98cdd9970682c0fd30517768b9eee32.jpg"
  },
  {
    "name": "COMPLETELY_AWESOME",
    "defaultvalue": 0,
    "displayName": "Completely Awesome",
    "hidden": 0,
    "description": "Obtain a minishark.",
    "icon": "https://steamcdn-a.akamaihd.net/steamcommunity/public/images/apps/105600/8ae7da8ea8eb7fd920f499fb762e7efb24fae8fc.jpg",
    "icongray": "https://steamcdn-a.akamaihd.net/steamcommunity/public/images/apps/105600/aff3bad7ac17baf7ac01387ba9b706a48d546d70.jpg"
  },
  {
    "name": "TIL_DEATH",
    "defaultvalue": 0,
    "displayName": "Til Death...",
    "hidden": 0,
    "description": "Kill the groom.",
    "icon": "https://steamcdn-a.akamaihd.net/steamcommunity/public/images/apps/105600/67c95d83892c06d5d3cfb9070e0260da72500d4a.jpg",
    "icongray": "https://steamcdn-a.akamaihd.net/steamcommunity/public/images/apps/105600/0489d40788b5c12008be275ee0ce1d9fd105e312.jpg"
  },
  {
    "name": "ARCHAEOLOGIST",
    "defaultvalue": 0,
    "displayName": "Archaeologist",
    "hidden": 0,
    "description": "Kill Doctor Bones.",
    "icon": "https://steamcdn-a.akamaihd.net/steamcommunity/public/images/apps/105600/3060f4ae13f56fbb3f78e36371aaa039f4b2c9bf.jpg",
    "icongray": "https://steamcdn-a.akamaihd.net/steamcommunity/public/images/apps/105600/a7561e76c30e3abc7102234be1c52c08eff35961.jpg"
  },
  {
    "name": "PRETTY_IN_PINK",
    "defaultvalue": 0,
    "displayName": "Pretty in Pink",
    "hidden": 0,
    "description": "Kill pinky.",
    "icon": "https://steamcdn-a.akamaihd.net/steamcommunity/public/images/apps/105600/f00eae3408364653eefe9a6e9283a1610ae8643b.jpg",
    "icongray": "https://steamcdn-a.akamaihd.net/steamcommunity/public/images/apps/105600/5853fb23955af87e5d6aba210fcf4fd4efc2474f.jpg"
  },
  {
    "name": "RAINBOWS_AND_UNICORNS",
    "defaultvalue": 0,
    "displayName": "Rainbows and Unicorns",
    "hidden": 0,
    "description": "Fire a rainbow gun while riding on a unicorn.",
    "icon": "https://steamcdn-a.akamaihd.net/steamcommunity/public/images/apps/105600/bc685bc68f0fa00ba3a78d0302a03b593d328bd2.jpg",
    "icongray": "https://steamcdn-a.akamaihd.net/steamcommunity/public/images/apps/105600/d288ddb53b518ea47d072c8c6be5c7d73fcba69e.jpg"
  },
  {
    "name": "YOU_AND_WHAT_ARMY",
    "defaultvalue": 0,
    "displayName": "You and What Army?",
    "hidden": 0,
    "description": "Command nine summoned minions simultaneously.",
    "icon": "https://steamcdn-a.akamaihd.net/steamcommunity/public/images/apps/105600/3b575ae17236ef4fda976015685e0e2c55b4c2e4.jpg",
    "icongray": "https://steamcdn-a.akamaihd.net/steamcommunity/public/images/apps/105600/3720f2cb46ac0ae9474d4bf7de094eb2d28d9080.jpg"
  },
  {
    "name": "PRISMANCER",
    "defaultvalue": 0,
    "displayName": "Prismancer",
    "hidden": 0,
    "description": "Obtain a rainbow rod.",
    "icon": "https://steamcdn-a.akamaihd.net/steamcommunity/public/images/apps/105600/6c21f8ead465f9cd90c7b4d936239467c334bd5c.jpg",
    "icongray": "https://steamcdn-a.akamaihd.net/steamcommunity/public/images/apps/105600/738a9dc9464e7d514f902f578ff589c34bcd8238.jpg"
  },
  {
    "name": "IT_CAN_TALK",
    "defaultvalue": 0,
    "displayName": "It Can Talk?!",
    "hidden": 0,
    "description": "Build a house in a mushroom biome and have Truffle move in.",
    "icon": "https://steamcdn-a.akamaihd.net/steamcommunity/public/images/apps/105600/5bcc7dd72c781448be7f89fab335d7c789defc92.jpg",
    "icongray": "https://steamcdn-a.akamaihd.net/steamcommunity/public/images/apps/105600/0bb0ed6b0027acbcdaecb0e36d1d86d8cbea9969.jpg"
  },
  {
    "name": "WATCH_YOUR_STEP",
    "defaultvalue": 0,
    "displayName": "Watch Your Step!",
    "hidden": 0,
    "description": "Become a victim to a nasty underground trap.",
    "icon": "https://steamcdn-a.akamaihd.net/steamcommunity/public/images/apps/105600/280b95017555560b63ea0a44dbdb3a38e86cd7cd.jpg",
    "icongray": "https://steamcdn-a.akamaihd.net/steamcommunity/public/images/apps/105600/6ad4453544e6167718ec3fffd91271b6bb46d66b.jpg"
  },
  {
    "name": "MARATHON_MEDALIST",
    "defaultvalue": 0,
    "displayName": "Marathon Medalist",
    "hidden": 0,
    "description": "Travel a total of 26.2 miles on foot.",
    "icon": "https://steamcdn-a.akamaihd.net/steamcommunity/public/images/apps/105600/c624a2f9b28c26d804f22337d4c46efffc2d4563.jpg",
    "icongray": "https://steamcdn-a.akamaihd.net/steamcommunity/public/images/apps/105600/3a0fa8a90eb2ec4ecd57352d8139845fd4d93ec9.jpg"
  },
  {
    "name": "GLORIOUS_GOLDEN_POLE",
    "defaultvalue": 0,
    "displayName": "Glorious Golden Pole",
    "hidden": 0,
    "description": "Obtain a golden fishing rod.",
    "icon": "https://steamcdn-a.akamaihd.net/steamcommunity/public/images/apps/105600/31bf55f9458e34e287fdda09870667d8aefb40d9.jpg",
    "icongray": "https://steamcdn-a.akamaihd.net/steamcommunity/public/images/apps/105600/4cc5ff3420fe0900910bee9255ae62c97842c837.jpg"
  },
  {
    "name": "SERVANT_IN_TRAINING",
    "defaultvalue": 0,
    "displayName": "Servant-in-Training",
    "hidden": 0,
    "description": "Complete your 1st quest for the angler.",
    "icon": "https://steamcdn-a.akamaihd.net/steamcommunity/public/images/apps/105600/b973018a8927f10e575b7c26f3be471d36770a18.jpg",
    "icongray": "https://steamcdn-a.akamaihd.net/steamcommunity/public/images/apps/105600/561d73948b4fed4061d48672303ed04cd1fb6d82.jpg"
  },
  {
    "name": "GOOD_LITTLE_SLAVE",
    "defaultvalue": 0,
    "displayName": "Good Little Slave",
    "hidden": 0,
    "description": "Complete your 10th quest for the angler.",
    "icon": "https://steamcdn-a.akamaihd.net/steamcommunity/public/images/apps/105600/d3c8364503839510538d9689703a49ebf7871354.jpg",
    "icongray": "https://steamcdn-a.akamaihd.net/steamcommunity/public/images/apps/105600/dff9d0c485bfaca3b75b6d72ea8683882742b71b.jpg"
  },
  {
    "name": "TROUT_MONKEY",
    "defaultvalue": 0,
    "displayName": "Trout Monkey",
    "hidden": 0,
    "description": "Complete your 25th quest for the angler.",
    "icon": "https://steamcdn-a.akamaihd.net/steamcommunity/public/images/apps/105600/8c6376252ce0e24852d8182d85e005a892e7a36c.jpg",
    "icongray": "https://steamcdn-a.akamaihd.net/steamcommunity/public/images/apps/105600/22bcf25b747e1f047a55c0f4f9417e0bf5e1854c.jpg"
  },
  {
    "name": "FAST_AND_FISHIOUS",
    "defaultvalue": 0,
    "displayName": "Fast and Fishious",
    "hidden": 0,
    "description": "Complete your 50th quest for the angler.",
    "icon": "https://steamcdn-a.akamaihd.net/steamcommunity/public/images/apps/105600/d165c8707e2896057eff47fbb9042dc88acc4ca7.jpg",
    "icongray": "https://steamcdn-a.akamaihd.net/steamcommunity/public/images/apps/105600/e656b806588daf3eaf8266485f104257b11be802.jpg"
  },
  {
    "name": "SUPREME_HELPER_MINION",
    "defaultvalue": 0,
    "displayName": "Supreme Helper Minion!",
    "hidden": 0,
    "description": "Complete a grand total of 200 quests for the angler.",
    "icon": "https://steamcdn-a.akamaihd.net/steamcommunity/public/images/apps/105600/0efea1bf7f4a5adf079263c1db65cf6d9445ae87.jpg",
    "icongray": "https://steamcdn-a.akamaihd.net/steamcommunity/public/images/apps/105600/0a6ff6a36670c96ceb4d30cf6fd69d2fdf55f38e.jpg"
  },
  {
    "name": "TOPPED_OFF",
    "defaultvalue": 0,
    "displayName": "Topped Off",
    "hidden": 0,
    "description": "Attain maximum health and mana possible without accessories or buffs.",
    "icon": "https://steamcdn-a.akamaihd.net/steamcommunity/public/images/apps/105600/6fafd5617f5f2c23a0ffeefc2799d2fbb5a7c801.jpg",
    "icongray": "https://steamcdn-a.akamaihd.net/steamcommunity/public/images/apps/105600/f53a0153c8fbe5158609b871d794e436709e802a.jpg"
  },
  {
    "name": "SLAYER_OF_WORLDS",
    "defaultvalue": 0,
    "displayName": "Slayer of Worlds",
    "hidden": 0,
    "description": "Defeat every boss in Terraria.",
    "icon": "https://steamcdn-a.akamaihd.net/steamcommunity/public/images/apps/105600/98a47ac6d34f74f0f4d8651a929701bd2aa4ae42.jpg",
    "icongray": "https://steamcdn-a.akamaihd.net/steamcommunity/public/images/apps/105600/016e2af6b13f54ffa3d52c31bad7e01be53694b4.jpg"
  },
  {
    "name": "YOU_CAN_DO_IT",
    "defaultvalue": 0,
    "displayName": "You Can Do It!",
    "hidden": 0,
    "description": "Survive your character's first full night.",
    "icon": "https://steamcdn-a.akamaihd.net/steamcommunity/public/images/apps/105600/6a5b944787cc9f1dab1dd661e409ce97996d412b.jpg",
    "icongray": "https://steamcdn-a.akamaihd.net/steamcommunity/public/images/apps/105600/a040d581a494f8fb08c212bd1d6b1ed552e4e7e4.jpg"
  },
  {
    "name": "MATCHING_ATTIRE",
    "defaultvalue": 0,
    "displayName": "Matching Attire",
    "hidden": 0,
    "description": "Equip armor in all three armor slots: head, chest, and feet.",
    "icon": "https://steamcdn-a.akamaihd.net/steamcommunity/public/images/apps/105600/4982fd3ed36214f5c68280e4502a48f6a2e857cc.jpg",
    "icongray": "https://steamcdn-a.akamaihd.net/steamcommunity/public/images/apps/105600/e4a07abd78446149c798233475eee2c68c5696b7.jpg"
  },
  {
    "name": "BENCHED",
    "defaultvalue": 0,
    "displayName": "Benched",
    "hidden": 0,
    "description": "Craft your first work bench.",
    "icon": "https://steamcdn-a.akamaihd.net/steamcommunity/public/images/apps/105600/e76f23d7116ce2a3ddb73611a58207094f2fed35.jpg",
    "icongray": "https://steamcdn-a.akamaihd.net/steamcommunity/public/images/apps/105600/1e60f2b4095ae944e56e5eb854a6cfffd6b37ab4.jpg"
  }
]