﻿{
  "Dlcs": {
    "947820": {
      "Name": "",
      "ImageUrl": ""
    }
  },
  "Name": "Distance",
  "AppId": "233610",
  "ImageUrl": "https://steamcdn-a.akamaihd.net/steam/apps/233610/header.jpg?t=1588966660",
  "Languages": [
    "english"
  ],
  "Platforms": {
    "windows": true,
    "mac": true,
    "linux": true
  }
}